Excel/Técnica de bajo consumo/Tiempo ADC y USART LP.CSV

Model,TBS2104;
Firmware Version,v1.26.0;
;
Point Format,Y;
Horizontal Units,S;
Horizontal Scale,0.002;
Sample Interval,1.6e-05;
Filter Frequency,1e+08;
Record Length,2000;
Gating,0.0% to 100.0%;
Probe Attenuation,1;
Vertical Units,V;
Vertical Offset,0;
Vertical Scale,1;
Label,;
TIME,CH1;
-16,00;2,00
-15,98;2,05
-15,97;2,05
-15,95;2,05
-15,94;2,10
-15,92;2,10
-15,90;2,10
-15,89;2,10
-15,87;2,05
-15,86;2,05
-15,84;2,00
-15,82;2,05
-15,81;2,00
-15,79;2,00
-15,78;2,00
-15,76;2,00
-15,74;2,00
-15,73;2,00
-15,71;2,05
-15,70;2,10
-15,68;2,10
-15,66;2,15
-15,65;2,10
-15,63;2,10
-15,62;2,05
-15,60;2,05
-15,58;2,00
-15,57;2,00
-15,55;2,05
-15,54;2,00
-15,52;1,95
-15,50;2,00
-15,49;2,00
-15,47;2,00
-15,46;2,00
-15,44;2,10
-15,42;2,05
-15,41;2,05
-15,39;2,10
-15,38;2,10
-15,36;2,10
-15,34;2,10
-15,33;2,05
-15,31;2,05
-15,30;2,00
-15,28;2,00
-15,26;2,00
-15,25;2,00
-15,23;2,00
-15,22;1,95
-15,20;2,00
-15,18;2,00
-15,17;2,00
-15,15;2,10
-15,14;2,05
-15,12;2,10
-15,10;2,10
-15,09;2,10
-15,07;2,05
-15,06;2,05
-15,04;2,00
-15,02;2,05
-15,01;2,00
-14,99;2,00
-14,98;2,00
-14,96;2,00
-14,94;2,00
-14,93;1,95
-14,91;2,00
-14,90;2,05
-14,88;2,10
-14,86;2,15
-14,85;2,05
-14,83;2,10
-14,82;2,05
-14,80;2,00
-14,78;2,05
-14,77;2,00
-14,75;2,00
-14,74;2,00
-14,72;2,00
-14,70;2,00
-14,69;2,00
-14,67;2,00
-14,66;2,00
-14,64;2,15
-14,62;2,10
-14,61;2,10
-14,59;2,05
-14,58;2,05
-14,56;2,05
-14,54;2,05
-14,53;2,00
-14,51;2,05
-14,50;2,00
-14,48;2,00
-14,46;2,00
-14,45;2,00
-14,43;2,00
-14,42;2,05
-14,40;2,00
-14,38;2,05
-14,37;2,05
-14,35;2,05
-14,34;2,05
-14,32;2,05
-14,30;2,05
-14,29;2,10
-14,27;2,05
-14,26;2,00
-14,24;2,00
-14,22;2,00
-14,21;1,95
-14,19;1,95
-14,18;2,00
-14,16;2,00
-14,14;2,00
-14,13;2,05
-14,11;2,10
-14,10;2,10
-14,08;2,10
-14,06;2,15
-14,05;2,10
-14,03;2,05
-14,02;2,05
-14,00;2,05
-13,98;2,00
-13,97;1,95
-13,95;1,95
-13,94;2,05
-13,92;2,00
-13,90;1,95
-13,89;2,00
-13,87;2,05
-13,86;2,10
-13,84;2,10
-13,82;2,10
-13,81;2,05
-13,79;2,05
-13,78;2,00
-13,76;2,00
-13,74;2,00
-13,73;1,95
-13,71;2,05
-13,70;2,00
-13,68;1,95
-13,66;1,95
-13,65;2,00
-13,63;2,05
-13,62;2,10
-13,60;2,10
-13,58;2,10
-13,57;2,10
-13,55;2,10
-13,54;2,05
-13,52;2,00
-13,50;2,00
-13,49;2,05
-13,47;2,00
-13,46;2,00
-13,44;1,95
-13,42;1,95
-13,41;2,00
-13,39;1,95
-13,38;2,00
-13,36;2,00
-13,34;2,10
-13,33;2,10
-13,31;2,05
-13,30;2,05
-13,28;2,00
-13,26;2,05
-13,25;2,00
-13,23;2,05
-13,22;2,00
-13,20;1,95
-13,18;2,00
-13,17;2,00
-13,15;2,00
-13,14;2,05
-13,12;2,05
-13,10;2,05
-13,09;2,10
-13,07;2,05
-13,06;2,05
-13,04;2,05
-13,02;2,05
-13,01;2,05
-12,99;2,00
-12,98;2,00
-12,96;2,00
-12,94;1,95
-12,93;1,95
-12,91;1,95
-12,90;2,00
-12,88;2,05
-12,86;2,10
-12,85;2,05
-12,83;2,10
-12,82;2,10
-12,80;2,05
-12,78;2,10
-12,77;2,05
-12,75;2,05
-12,74;2,05
-12,72;2,00
-12,70;2,00
-12,69;1,95
-12,67;2,00
-12,66;2,00
-12,64;2,00
-12,62;2,00
-12,61;2,00
-12,59;2,10
-12,58;2,10
-12,56;2,10
-12,54;2,05
-12,53;2,10
-12,51;2,05
-12,50;2,05
-12,48;2,05
-12,46;1,95
-12,45;2,00
-12,43;2,00
-12,42;1,95
-12,40;1,95
-12,38;1,95
-12,37;2,00
-12,35;2,05
-12,34;2,05
-12,32;2,05
-12,30;2,10
-12,29;2,10
-12,27;2,10
-12,26;2,05
-12,24;2,05
-12,22;2,05
-12,21;2,05
-12,19;2,05
-12,18;2,00
-12,16;2,05
-12,14;2,00
-12,13;2,00
-12,11;2,00
-12,10;1,95
-12,08;2,00
-12,06;2,05
-12,05;2,05
-12,03;2,10
-12,02;2,05
-12,00;2,10
-11,98;2,10
-11,97;2,05
-11,95;2,05
-11,94;2,05
-11,92;2,05
-11,90;2,00
-11,89;2,00
-11,87;2,00
-11,86;1,95
-11,84;2,00
-11,82;2,00
-11,81;2,05
-11,79;2,05
-11,78;2,10
-11,76;2,10
-11,74;2,10
-11,73;2,10
-11,71;2,05
-11,70;2,05
-11,68;2,00
-11,66;2,00
-11,65;2,00
-11,63;2,05
-11,62;2,00
-11,60;2,00
-11,58;2,00
-11,57;2,00
-11,55;2,05
-11,54;2,10
-11,52;2,05
-11,50;2,10
-11,49;2,10
-11,47;2,10
-11,46;2,05
-11,44;2,00
-11,42;2,00
-11,41;2,00
-11,39;2,00
-11,38;1,95
-11,36;2,00
-11,34;2,00
-11,33;2,05
-11,31;2,10
-11,30;2,05
-11,28;2,10
-11,26;2,15
-11,25;2,10
-11,23;2,05
-11,22;2,05
-11,20;2,00
-11,18;2,00
-11,17;2,00
-11,15;2,00
-11,14;2,00
-11,12;2,00
-11,10;2,00
-11,09;2,05
-11,07;2,00
-11,06;2,05
-11,04;2,10
-11,02;2,10
-11,01;2,05
-10,99;2,05
-10,98;2,05
-10,96;2,00
-10,94;2,00
-10,93;2,05
-10,91;2,05
-10,90;2,05
-10,88;2,00
-10,86;2,00
-10,85;2,00
-10,83;2,00
-10,82;2,10
-10,80;2,05
-10,78;2,10
-10,77;2,10
-10,75;2,10
-10,74;2,05
-10,72;2,00
-10,70;2,05
-10,69;2,10
-10,67;2,05
-10,66;2,00
-10,64;2,00
-10,62;2,00
-10,61;2,00
-10,59;2,00
-10,58;2,00
-10,56;2,05
-10,54;2,05
-10,53;2,10
-10,51;2,10
-10,50;2,05
-10,48;2,05
-10,46;2,10
-10,45;2,05
-10,43;2,05
-10,42;2,05
-10,40;2,00
-10,38;2,00
-10,37;2,00
-10,35;2,00
-10,34;2,00
-10,32;1,95
-10,30;2,00
-10,29;2,00
-10,27;2,05
-10,26;2,10
-10,24;2,15
-10,22;2,10
-10,21;2,10
-10,19;2,05
-10,18;2,05
-10,16;2,00
-10,14;2,00
-10,13;2,00
-10,11;2,05
-10,10;2,00
-10,08;2,00
-10,06;1,95
-10,05;2,00
-10,03;2,05
-10,02;2,10
-10,00;2,05
-9,98;2,10
-9,97;2,10
-9,95;2,10
-9,94;2,05
-9,92;2,05
-9,90;2,05
-9,89;2,05
-9,87;2,00
-9,86;2,05
-9,84;2,00
-9,82;2,00
-9,81;1,95
-9,79;2,00
-9,78;2,05
-9,76;2,05
-9,74;2,05
-9,73;2,10
-9,71;2,10
-9,70;2,10
-9,68;2,05
-9,66;2,05
-9,65;2,00
-9,63;2,05
-9,62;2,05
-9,60;2,00
-9,58;2,00
-9,57;2,00
-9,55;2,00
-9,54;2,05
-9,52;2,00
-9,50;2,05
-9,49;2,05
-9,47;2,05
-9,46;2,05
-9,44;2,10
-9,42;2,05
-9,41;2,05
-9,39;2,05
-9,38;2,05
-9,36;2,05
-9,34;2,05
-9,33;2,05
-9,31;2,10
-9,30;2,05
-9,28;2,00
-9,26;2,00
-9,25;2,00
-9,23;2,05
-9,22;2,05
-9,20;2,05
-9,18;2,10
-9,17;2,10
-9,15;2,05
-9,14;2,05
-9,12;2,05
-9,10;2,05
-9,09;2,10
-9,07;2,00
-9,06;2,05
-9,04;2,00
-9,02;1,95
-9,01;2,00
-8,99;2,00
-8,98;2,00
-8,96;2,05
-8,94;2,05
-8,93;2,10
-8,91;5,00
-8,90;5,00
-8,88;5,00
-8,86;5,00
-8,85;5,00
-8,83;4,95
-8,82;5,00
-8,80;5,00
-8,78;5,00
-8,77;5,00
-8,75;4,95
-8,74;5,00
-8,72;5,00
-8,70;5,00
-8,69;5,00
-8,67;5,00
-8,66;5,00
-8,64;5,00
-8,62;5,00
-8,61;4,95
-8,59;5,00
-8,58;5,00
-8,56;5,00
-8,54;5,00
-8,53;4,95
-8,51;5,00
-8,50;5,00
-8,48;4,95
-8,46;5,00
-8,45;5,00
-8,43;5,00
-8,42;4,95
-8,40;4,95
-8,38;4,95
-8,37;5,00
-8,35;5,00
-8,34;5,00
-8,32;5,00
-8,30;5,00
-8,29;5,00
-8,27;5,00
-8,26;5,00
-8,24;5,00
-8,22;5,00
-8,21;5,00
-8,19;5,00
-8,18;4,95
-8,16;5,00
-8,14;5,00
-8,13;5,00
-8,11;5,00
-8,10;5,00
-8,08;5,00
-8,06;5,00
-8,05;5,00
-8,03;5,00
-8,02;4,95
-8,00;5,00
-7,98;4,95
-7,97;5,00
-7,95;5,00
-7,94;5,00
-7,92;4,95
-7,90;5,00
-7,89;4,95
-7,87;5,00
-7,86;5,00
-7,84;5,00
-7,82;5,00
-7,81;5,00
-7,79;5,00
-7,78;5,00
-7,76;5,00
-7,74;5,00
-7,73;5,00
-7,71;4,95
-7,70;5,00
-7,68;5,00
-7,66;5,00
-7,65;5,00
-7,63;5,00
-7,62;5,00
-7,60;5,00
-7,58;5,00
-7,57;5,00
-7,55;5,00
-7,54;4,95
-7,52;4,95
-7,50;4,95
-7,49;5,00
-7,47;5,00
-7,46;4,95
-7,44;4,95
-7,42;5,00
-7,41;5,00
-7,39;4,95
-7,38;5,00
-7,36;5,00
-7,34;5,00
-7,33;5,00
-7,31;5,00
-7,30;5,00
-7,28;4,95
-7,26;5,00
-7,25;5,00
-7,23;5,00
-7,22;5,00
-7,20;5,00
-7,18;5,00
-7,17;5,00
-7,15;5,00
-7,14;5,00
-7,12;5,00
-7,10;4,95
-7,09;5,00
-7,07;5,00
-7,06;5,00
-7,04;5,00
-7,02;5,00
-7,01;5,00
-6,99;5,00
-6,98;5,00
-6,96;5,00
-6,94;4,95
-6,93;5,00
-6,91;5,00
-6,90;5,00
-6,88;5,00
-6,86;4,95
-6,85;5,00
-6,83;5,00
-6,82;5,00
-6,80;5,00
-6,78;5,00
-6,77;5,00
-6,75;5,00
-6,74;5,05
-6,72;5,00
-6,70;5,05
-6,69;4,95
-6,67;4,95
-6,66;5,00
-6,64;5,00
-6,62;5,00
-6,61;5,00
-6,59;5,00
-6,58;5,00
-6,56;5,00
-6,54;5,00
-6,53;5,00
-6,51;5,00
-6,50;5,00
-6,48;5,05
-6,46;5,00
-6,45;5,00
-6,43;5,00
-6,42;5,00
-6,40;5,00
-6,38;5,00
-6,37;5,00
-6,35;5,00
-6,34;5,00
-6,32;5,00
-6,30;5,05
-6,29;5,00
-6,27;5,00
-6,26;5,00
-6,24;5,05
-6,22;5,00
-6,21;5,00
-6,19;5,00
-6,18;5,00
-6,16;5,00
-6,14;5,00
-6,13;5,00
-6,11;5,00
-6,10;5,00
-6,08;5,00
-6,06;4,95
-6,05;4,95
-6,03;5,00
-6,02;5,00
-6,00;5,00
-5,98;5,00
-5,97;5,00
-5,95;5,00
-5,94;5,00
-5,92;5,00
-5,90;5,00
-5,89;5,00
-5,87;5,00
-5,86;5,00
-5,84;5,00
-5,82;4,95
-5,81;5,00
-5,79;5,00
-5,78;5,00
-5,76;5,00
-5,74;5,00
-5,73;5,00
-5,71;5,00
-5,70;5,00
-5,68;5,00
-5,66;5,00
-5,65;5,00
-5,63;5,00
-5,62;5,00
-5,60;5,00
-5,58;5,00
-5,57;5,00
-5,55;5,00
-5,54;5,00
-5,52;5,00
-5,50;4,95
-5,49;4,95
-5,47;4,95
-5,46;5,00
-5,44;5,00
-5,42;5,00
-5,41;5,00
-5,39;4,95
-5,38;5,00
-5,36;5,00
-5,34;4,95
-5,33;5,00
-5,31;5,00
-5,30;5,00
-5,28;5,00
-5,26;5,00
-5,25;5,00
-5,23;5,05
-5,22;5,00
-5,20;5,00
-5,18;5,00
-5,17;5,00
-5,15;5,00
-5,14;4,95
-5,12;5,00
-5,10;4,95
-5,09;5,00
-5,07;5,00
-5,06;5,00
-5,04;5,00
-5,02;4,95
-5,01;5,00
-4,99;5,00
-4,98;5,00
-4,96;4,95
-4,94;4,95
-4,93;5,00
-4,91;5,00
-4,90;5,00
-4,88;5,00
-4,86;5,00
-4,85;5,00
-4,83;5,00
-4,82;5,00
-4,80;5,00
-4,78;5,00
-4,77;5,00
-4,75;5,00
-4,74;5,00
-4,72;5,00
-4,70;5,00
-4,69;5,00
-4,67;5,00
-4,66;5,00
-4,64;5,00
-4,62;5,00
-4,61;5,00
-4,59;5,00
-4,58;5,00
-4,56;5,00
-4,54;5,00
-4,53;5,00
-4,51;5,00
-4,50;5,00
-4,48;5,00
-4,46;4,95
-4,45;4,95
-4,43;5,00
-4,42;5,00
-4,40;4,95
-4,38;5,00
-4,37;5,00
-4,35;5,00
-4,34;4,95
-4,32;5,00
-4,30;5,00
-4,29;5,00
-4,27;4,95
-4,26;5,00
-4,24;5,00
-4,22;5,00
-4,21;5,00
-4,19;5,00
-4,18;5,00
-4,16;5,05
-4,14;5,00
-4,13;4,95
-4,11;5,00
-4,10;5,00
-4,08;5,00
-4,06;5,00
-4,05;4,95
-4,03;5,00
-4,02;5,00
-4,00;5,00
-3,98;4,95
-3,97;5,00
-3,95;5,00
-3,94;5,00
-3,92;4,95
-3,90;5,00
-3,89;5,00
-3,87;5,00
-3,86;5,00
-3,84;4,95
-3,82;5,00
-3,81;5,00
-3,79;4,95
-3,78;5,00
-3,76;5,00
-3,74;5,00
-3,73;5,00
-3,71;5,00
-3,70;5,00
-3,68;5,00
-3,66;5,00
-3,65;5,00
-3,63;5,00
-3,62;5,00
-3,60;5,00
-3,58;5,00
-3,57;4,95
-3,55;5,00
-3,54;5,00
-3,52;4,95
-3,50;5,00
-3,49;4,95
-3,47;5,00
-3,46;5,00
-3,44;5,00
-3,42;5,00
-3,41;4,95
-3,39;5,00
-3,38;5,00
-3,36;5,00
-3,34;5,00
-3,33;4,95
-3,31;5,00
-3,30;5,00
-3,28;5,00
-3,26;5,00
-3,25;5,00
-3,23;5,00
-3,22;5,00
-3,20;4,95
-3,18;5,00
-3,17;5,00
-3,15;5,00
-3,14;5,00
-3,12;5,00
-3,10;5,00
-3,09;4,95
-3,07;5,00
-3,06;5,00
-3,04;5,00
-3,02;5,00
-3,01;5,00
-2,99;4,95
-2,98;5,00
-2,96;5,00
-2,94;4,95
-2,93;4,95
-2,91;5,00
-2,90;5,00
-2,88;5,00
-2,86;4,95
-2,85;5,00
-2,83;5,00
-2,82;4,95
-2,80;5,00
-2,78;4,95
-2,77;5,00
-2,75;4,95
-2,74;5,00
-2,72;5,00
-2,70;4,95
-2,69;5,00
-2,67;5,00
-2,66;5,00
-2,64;5,00
-2,62;5,00
-2,61;5,00
-2,59;5,00
-2,58;5,00
-2,56;5,00
-2,54;5,00
-2,53;5,00
-2,51;5,00
-2,50;5,00
-2,48;5,00
-2,46;5,00
-2,45;5,05
-2,43;5,00
-2,42;4,95
-2,40;5,00
-2,38;4,95
-2,37;5,00
-2,35;5,00
-2,34;5,00
-2,32;5,00
-2,30;5,00
-2,29;5,00
-2,27;5,00
-2,26;5,00
-2,24;5,00
-2,22;5,00
-2,21;4,95
-2,19;5,00
-2,18;4,95
-2,16;5,00
-2,14;5,00
-2,13;4,95
-2,11;5,00
-2,10;5,00
-2,08;5,00
-2,06;5,00
-2,05;5,00
-2,03;5,00
-2,02;5,00
-2,00;5,00
-1,98;5,00
-1,97;5,00
-1,95;5,00
-1,94;5,00
-1,92;5,00
-1,90;5,00
-1,89;5,00
-1,87;5,00
-1,86;5,00
-1,84;5,00
-1,82;4,95
-1,81;5,00
-1,79;5,00
-1,78;4,95
-1,76;4,95
-1,74;5,00
-1,73;5,00
-1,71;5,00
-1,70;5,00
-1,68;5,00
-1,66;5,00
-1,65;5,00
-1,63;5,00
-1,62;5,00
-1,60;5,00
-1,58;5,00
-1,57;5,00
-1,55;5,00
-1,54;5,00
-1,52;5,00
-1,50;5,00
-1,49;5,00
-1,47;5,00
-1,46;5,00
-1,44;4,95
-1,42;5,00
-1,41;5,00
-1,39;5,00
-1,38;4,95
-1,36;5,00
-1,34;5,00
-1,33;5,00
-1,31;5,00
-1,30;5,00
-1,28;5,00
-1,26;5,00
-1,25;4,95
-1,23;5,00
-1,22;5,00
-1,20;5,00
-1,18;5,00
-1,17;5,00
-1,15;5,00
-1,14;5,00
-1,12;5,00
-1,10;5,00
-1,09;5,00
-1,07;5,00
-1,06;5,00
-1,04;5,00
-1,02;4,95
-1,01;5,00
-0,99;5,00
-0,98;5,00
-0,96;5,00
-0,94;5,00
-0,93;5,00
-0,91;5,00
-0,90;4,95
-0,88;4,95
-0,86;5,00
-0,85;4,95
-0,83;5,00
-0,82;5,00
-0,80;5,00
-0,78;5,00
-0,77;5,00
-0,75;5,00
-0,74;4,95
-0,72;5,00
-0,70;5,05
-0,69;5,00
-0,67;5,00
-0,66;5,00
-0,64;5,00
-0,62;5,00
-0,61;4,95
-0,59;5,00
-0,58;5,00
-0,56;5,00
-0,54;5,00
-0,53;4,95
-0,51;5,00
-0,50;5,00
-0,48;5,00
-0,46;5,00
-0,45;5,00
-0,43;5,00
-0,42;5,00
-0,40;4,95
-0,38;5,00
-0,37;5,00
-0,35;5,00
-0,34;4,95
-0,32;5,00
-0,30;4,95
-0,29;5,00
-0,27;5,00
-0,26;4,95
-0,24;5,00
-0,22;5,00
-0,21;5,00
-0,19;5,00
-0,18;5,00
-0,16;5,00
-0,14;4,95
-0,13;5,00
-0,11;5,00
-0,10;5,00
-0,08;-0,05
-0,06;-0,05
-0,05;0,00
-0,03;-0,05
-0,02;0,00
0,00;4,95
0,02;5,00
0,03;0,00
0,05;-0,05
0,06;5,00
0,08;5,00
0,10;-0,05
0,11;5,05
0,13;0,00
0,14;-0,10
0,16;5,00
0,18;5,00
0,19;5,00
0,21;0,00
0,22;0,00
0,24;4,95
0,26;5,05
0,27;-0,05
0,29;-0,05
0,30;5,00
0,32;5,00
0,34;5,00
0,35;0,00
0,37;4,95
0,38;-0,05
0,40;-0,05
0,42;5,00
0,43;0,00
0,45;-0,05
0,46;5,00
0,48;-0,05
0,50;-0,05
0,51;5,00
0,53;5,00
0,54;4,95
0,56;0,00
0,58;-0,05
0,59;5,00
0,61;0,00
0,62;-0,05
0,64;5,00
0,66;-0,05
0,67;-0,05
0,69;0,00
0,70;5,00
0,72;5,00
0,74;-0,05
0,75;-0,05
0,77;5,00
0,78;0,00
0,80;4,95
0,82;5,00
0,83;5,00
0,85;-0,05
0,86;5,00
0,88;5,00
0,90;5,00
0,91;-0,05
0,93;-0,05
0,94;4,90
0,96;4,30
0,98;3,80
0,99;3,35
1,01;2,95
1,02;2,60
1,04;2,45
1,06;2,35
1,07;2,25
1,09;2,15
1,10;2,15
1,12;2,10
1,14;2,15
1,15;2,10
1,17;2,10
1,18;2,05
1,20;2,05
1,22;2,05
1,23;2,05
1,25;2,00
1,26;2,05
1,28;2,00
1,30;1,95
1,31;1,95
1,33;2,00
1,34;2,00
1,36;2,05
1,38;2,00
1,39;2,10
1,41;2,10
1,42;2,10
1,44;2,05
1,46;2,05
1,47;2,05
1,49;2,10
1,50;2,00
1,52;2,00
1,54;2,00
1,55;2,00
1,57;2,00
1,58;2,00
1,60;2,00
1,62;2,00
1,63;2,05
1,65;2,05
1,66;2,05
1,68;2,10
1,70;2,05
1,71;2,10
1,73;2,05
1,74;2,05
1,76;2,00
1,78;2,05
1,79;2,00
1,81;2,00
1,82;2,00
1,84;2,00
1,86;2,00
1,87;2,05
1,89;2,10
1,90;2,10
1,92;2,05
1,94;2,10
1,95;2,10
1,97;2,05
1,98;2,05
2,00;2,05
2,02;2,00
2,03;2,00
2,05;2,00
2,06;2,05
2,08;2,00
2,10;2,00
2,11;2,05
2,13;2,05
2,14;2,05
2,16;2,10
2,18;2,10
2,19;2,10
2,21;2,10
2,22;2,05
2,24;2,05
2,26;2,00
2,27;2,00
2,29;2,05
2,30;2,00
2,32;2,00
2,34;2,00
2,35;2,00
2,37;2,00
2,38;2,05
2,40;2,10
2,42;2,10
2,43;2,05
2,45;2,10
2,46;2,05
2,48;2,00
2,50;2,00
2,51;2,05
2,53;2,00
2,54;2,05
2,56;2,00
2,58;2,00
2,59;2,00
2,61;1,95
2,62;2,05
2,64;2,05
2,66;2,10
2,67;2,10
2,69;2,10
2,70;2,05
2,72;2,05
2,74;2,05
2,75;2,00
2,77;2,05
2,78;2,00
2,80;2,00
2,82;2,00
2,83;2,00
2,85;1,95
2,86;2,00
2,88;2,00
2,90;2,05
2,91;2,10
2,93;2,10
2,94;2,10
2,96;2,05
2,98;2,05
2,99;2,05
3,01;2,05
3,02;2,05
3,04;2,00
3,06;2,05
3,07;2,00
3,09;2,00
3,10;2,00
3,12;2,00
3,14;2,05
3,15;2,05
3,17;2,10
3,18;2,10
3,20;2,05
3,22;2,10
3,23;2,05
3,25;2,05
3,26;2,05
3,28;2,00
3,30;2,05
3,31;2,00
3,33;1,95
3,34;2,00
3,36;2,00
3,38;2,00
3,39;2,00
3,41;2,05
3,42;2,10
3,44;2,05
3,46;2,10
3,47;2,05
3,49;2,10
3,50;2,05
3,52;2,05
3,54;2,00
3,55;2,00
3,57;2,00
3,58;1,95
3,60;2,00
3,62;2,00
3,63;2,00
3,65;2,00
3,66;2,05
3,68;2,05
3,70;2,05
3,71;2,10
3,73;2,05
3,74;2,05
3,76;2,10
3,78;2,10
3,79;2,05
3,81;2,05
3,82;2,05
3,84;2,05
3,86;2,00
3,87;2,00
3,89;1,95
3,90;2,00
3,92;2,00
3,94;2,05
3,95;2,05
3,97;2,10
3,98;2,05
4,00;2,05
4,02;2,10
4,03;2,05
4,05;2,05
4,06;2,05
4,08;2,00
4,10;2,00
4,11;2,05
4,13;2,00
4,14;1,95
4,16;2,00
4,18;2,00
4,19;2,00
4,21;2,05
4,22;2,10
4,24;2,10
4,26;2,05
4,27;2,10
4,29;2,10
4,30;2,05
4,32;2,00
4,34;2,00
4,35;2,00
4,37;2,00
4,38;1,95
4,40;2,00
4,42;2,00
4,43;2,00
4,45;2,05
4,46;2,05
4,48;2,05
4,50;2,10
4,51;2,15
4,53;2,05
4,54;2,05
4,56;2,05
4,58;2,00
4,59;2,05
4,61;2,00
4,62;1,95
4,64;1,95
4,66;2,00
4,67;2,00
4,69;2,05
4,70;2,10
4,72;2,10
4,74;2,10
4,75;2,05
4,77;2,10
4,78;2,10
4,80;2,05
4,82;2,00
4,83;2,00
4,85;2,00
4,86;2,00
4,88;2,00
4,90;1,95
4,91;2,00
4,93;2,00
4,94;2,05
4,96;2,15
4,98;2,10
4,99;2,10
5,01;2,10
5,02;2,05
5,04;2,05
5,06;2,00
5,07;2,00
5,09;2,05
5,10;2,00
5,12;2,00
5,14;2,00
5,15;2,00
5,17;2,00
5,18;2,05
5,20;2,10
5,22;2,10
5,23;2,10
5,25;2,10
5,26;2,05
5,28;2,05
5,30;2,00
5,31;2,10
5,33;2,05
5,34;2,00
5,36;2,00
5,38;1,95
5,39;2,00
5,41;2,00
5,42;2,00
5,44;2,05
5,46;2,05
5,47;2,10
5,49;2,10
5,50;2,05
5,52;2,05
5,54;2,05
5,55;2,05
5,57;2,00
5,58;2,00
5,60;2,00
5,62;2,00
5,63;2,05
5,65;2,00
5,66;2,05
5,68;1,95
5,70;2,00
5,71;2,00
5,73;2,05
5,74;2,05
5,76;2,10
5,78;2,10
5,79;2,10
5,81;2,05
5,82;2,05
5,84;2,05
5,86;2,05
5,87;2,00
5,89;2,05
5,90;2,00
5,92;2,05
5,94;1,95
5,95;1,95
5,97;2,00
5,98;2,05
6,00;2,05
6,02;2,10
6,03;2,10
6,05;2,10
6,06;2,05
6,08;2,10
6,10;2,00
6,11;2,10
6,13;2,05
6,14;2,00
6,16;2,00
6,18;2,00
6,19;1,95
6,21;2,00
6,22;2,00
6,24;2,05
6,26;2,05
6,27;2,10
6,29;2,10
6,30;2,10
6,32;2,05
6,34;2,05
6,35;2,00
6,37;2,05
6,38;2,05
6,40;2,05
6,42;1,95
6,43;1,95
6,45;2,00
6,46;2,05
6,48;2,00
6,50;2,05
6,51;2,10
6,53;2,10
6,54;2,10
6,56;2,05
6,58;2,10
6,59;2,05
6,61;2,05
6,62;2,05
6,64;2,00
6,66;2,00
6,67;2,00
6,69;2,00
6,70;1,95
6,72;2,00
6,74;2,00
6,75;2,05
6,77;2,05
6,78;2,10
6,80;2,10
6,82;2,10
6,83;2,05
6,85;2,05
6,86;2,05
6,88;2,05
6,90;2,05
6,91;1,95
6,93;2,00
6,94;2,00
6,96;2,00
6,98;1,95
6,99;2,05
7,01;2,05
7,02;2,05
7,04;2,10
7,06;2,05
7,07;2,10
7,09;2,05
7,10;2,05
7,12;2,05
7,14;2,00
7,15;2,00
7,17;2,00
7,18;1,95
7,20;2,00
7,22;2,00
7,23;2,00
7,25;2,05
7,26;2,05
7,28;2,10
7,30;2,05
7,31;2,10
7,33;2,10
7,34;2,05
7,36;2,00
7,38;2,05
7,39;2,00
7,41;2,00
7,42;2,00
7,44;2,05
7,46;1,95
7,47;2,00
7,49;2,00
7,50;2,05
7,52;2,05
7,54;2,10
7,55;2,05
7,57;2,10
7,58;2,05
7,60;2,10
7,62;2,05
7,63;2,00
7,65;2,05
7,66;2,05
7,68;2,00
7,70;2,00
7,71;2,00
7,73;1,95
7,74;2,00
7,76;2,05
7,78;2,00
7,79;2,10
7,81;2,15
7,82;2,05
7,84;2,10
7,86;2,05
7,87;2,00
7,89;2,05
7,90;2,00
7,92;2,00
7,94;2,00
7,95;1,95
7,97;2,00
7,98;2,00
8,00;2,00
8,02;2,00
8,03;2,00
8,05;2,10
8,06;2,10
8,08;2,10
8,10;2,05
8,11;2,05
8,13;2,05
8,14;2,05
8,16;2,05
8,18;2,00
8,19;2,05
8,21;2,05
8,22;2,00
8,24;2,05
8,26;2,00
8,27;1,95
8,29;2,00
8,30;2,00
8,32;2,00
8,34;2,00
8,35;2,00
8,37;2,05
8,38;2,10
8,40;2,10
8,42;2,10
8,43;2,05
8,45;2,05
8,46;2,10
8,48;2,00
8,50;2,00
8,51;2,00
8,53;1,95
8,54;2,00
8,56;2,00
8,58;2,00
8,59;2,00
8,61;2,05
8,62;2,05
8,64;2,05
8,66;2,10
8,67;2,10
8,69;2,10
8,70;2,10
8,72;2,05
8,74;2,05
8,75;2,00
8,77;2,00
8,78;2,00
8,80;2,00
8,82;2,00
8,83;2,00
8,85;2,00
8,86;2,00
8,88;2,05
8,90;2,05
8,91;2,15
8,93;2,15
8,94;2,05
8,96;2,05
8,98;2,05
8,99;2,05
9,01;2,00
9,02;2,05
9,04;2,00
9,06;2,00
9,07;2,00
9,09;2,00
9,10;2,00
9,12;2,05
9,14;2,05
9,15;2,05
9,17;2,10
9,18;2,05
9,20;2,05
9,22;2,10
9,23;2,05
9,25;2,00
9,26;2,05
9,28;2,00
9,30;2,05
9,31;1,95
9,33;2,00
9,34;2,00
9,36;2,00
9,38;2,00
9,39;2,05
9,41;2,05
9,42;2,10
9,44;2,05
9,46;2,05
9,47;2,05
9,49;2,05
9,50;2,05
9,52;2,05
9,54;2,00
9,55;1,95
9,57;2,00
9,58;2,00
9,60;1,95
9,62;2,00
9,63;2,05
9,65;2,00
9,66;2,10
9,68;2,10
9,70;2,10
9,71;2,15
9,73;2,05
9,74;2,05
9,76;2,05
9,78;2,05
9,79;2,05
9,81;2,00
9,82;2,00
9,84;2,00
9,86;1,95
9,87;2,00
9,89;2,00
9,90;2,05
9,92;2,05
9,94;2,15
9,95;2,10
9,97;2,10
9,98;2,10
10,00;2,05
10,02;2,05
10,03;2,00
10,05;2,05
10,06;2,05
10,08;2,00
10,10;2,00
10,11;2,00
10,13;2,00
10,14;2,00
10,16;2,00
10,18;2,00
10,19;2,10
10,21;2,10
10,22;2,05
10,24;2,05
10,26;2,00
10,27;2,05
10,29;2,10
10,30;2,05
10,32;2,05
10,34;2,00
10,35;1,95
10,37;2,00
10,38;2,00
10,40;2,00
10,42;2,05
10,43;2,00
10,45;2,05
10,46;2,10
10,48;2,10
10,50;2,05
10,51;2,10
10,53;2,10
10,54;2,05
10,56;2,05
10,58;2,00
10,59;2,00
10,61;2,00
10,62;1,95
10,64;1,95
10,66;2,05
10,67;2,05
10,69;2,10
10,70;2,10
10,72;2,05
10,74;2,10
10,75;2,05
10,77;2,05
10,78;2,05
10,80;2,05
10,82;1,95
10,83;2,00
10,85;2,00
10,86;2,05
10,88;1,95
10,90;2,00
10,91;2,05
10,93;2,05
10,94;2,10
10,96;2,10
10,98;2,10
10,99;2,10
11,01;2,05
11,02;2,05
11,04;2,00
11,06;2,00
11,07;2,00
11,09;2,00
11,10;1,95
11,12;2,00
11,14;2,00
11,15;2,05
11,17;2,05
11,18;2,10
11,20;2,10
11,22;2,10
11,23;2,05
11,25;2,10
11,26;2,05
11,28;2,05
11,30;2,00
11,31;2,00
11,33;2,00
11,34;2,00
11,36;1,95
11,38;2,00
11,39;2,00
11,41;2,00
11,42;2,05
11,44;2,10
11,46;2,10
11,47;2,10
11,49;2,10
11,50;2,05
11,52;2,05
11,54;2,05
11,55;2,00
11,57;2,00
11,58;2,00
11,60;2,05
11,62;1,95
11,63;2,00
11,65;1,95
11,66;2,05
11,68;2,00
11,70;2,00
11,71;2,05
11,73;2,05
11,74;2,15
11,76;2,10
11,78;2,05
11,79;2,10
11,81;2,05
11,82;2,05
11,84;2,05
11,86;2,05
11,87;2,00
11,89;2,00
11,90;2,00
11,92;2,00
11,94;2,00
11,95;2,00
11,97;2,05
11,98;2,10
12,00;2,10
12,02;2,10
12,03;2,10
12,05;2,10
12,06;2,05
12,08;2,05
12,10;2,00
12,11;2,00
12,13;2,05
12,14;2,00
12,16;2,05
12,18;2,00
12,19;2,00
12,21;2,00
12,22;2,05
12,24;2,05
12,26;2,05
12,27;2,10
12,29;2,10
12,30;2,05
12,32;2,05
12,34;2,00
12,35;2,00
12,37;2,05
12,38;2,00
12,40;2,00
12,42;1,95
12,43;2,00
12,45;2,00
12,46;2,05
12,48;2,05
12,50;2,00
12,51;2,10
12,53;2,05
12,54;2,10
12,56;2,05
12,58;2,00
12,59;2,05
12,61;2,05
12,62;2,00
12,64;2,00
12,66;1,95
12,67;1,95
12,69;2,00
12,70;2,00
12,72;2,05
12,74;2,10
12,75;2,10
12,77;2,10
12,78;2,10
12,80;2,10
12,82;2,05
12,83;2,00
12,85;2,05
12,86;2,05
12,88;2,00
12,90;2,00
12,91;2,00
12,93;2,00
12,94;2,00
12,96;2,05
12,98;2,05
