Excel/Técnica de sondeo/Tiempo USART Sondeo.CSV

Model,TBS2104;
Firmware Version,v1,26,0;
;
Point Format,Y;
Horizontal Units,S;
Horizontal Scale,0,0002;
Sample Interval,1,6e-06;
Filter Frequency,1e+08;
Record Length,2000;
Gating,0,0% to 100,0%;
Probe Attenuation,1;
Vertical Units,V;
Vertical Offset,0;
Vertical Scale,1;
Label,;
Tiempo (ms);Voltaje (V)
-1,36;4,95
-1,36;4,95
-1,36;4,95
-1,36;4,95
-1,35;4,95
-1,35;4,95
-1,35;5
-1,35;4,95
-1,35;4,95
-1,35;4,95
-1,34;4,9
-1,34;4,95
-1,34;4,9
-1,34;4,95
-1,34;4,95
-1,34;4,95
-1,33;4,95
-1,33;4,95
-1,33;4,9
-1,33;4,95
-1,33;4,95
-1,33;4,95
-1,33;4,95
-1,32;4,95
-1,32;4,95
-1,32;4,95
-1,32;4,95
-1,32;4,95
-1,32;4,95
-1,31;4,95
-1,31;4,95
-1,31;4,95
-1,31;4,95
-1,31;4,95
-1,31;4,95
-1,3;4,95
-1,3;4,95
-1,3;4,95
-1,3;4,95
-1,3;4,95
-1,3;4,95
-1,29;4,95
-1,29;4,95
-1,29;4,95
-1,29;4,95
-1,29;4,9
-1,29;4,95
-1,29;4,95
-1,28;4,95
-1,28;4,95
-1,28;4,95
-1,28;4,95
-1,28;4,95
-1,28;4,95
-1,27;4,95
-1,27;4,95
-1,27;5
-1,27;4,95
-1,27;4,9
-1,27;5
-1,26;5
-1,26;4,95
-1,26;4,95
-1,26;4,95
-1,26;4,95
-1,26;4,95
-1,25;4,95
-1,25;4,95
-1,25;4,95
-1,25;4,95
-1,25;4,95
-1,25;4,95
-1,25;4,95
-1,24;4,95
-1,24;4,95
-1,24;4,9
-1,24;4,95
-1,24;4,95
-1,24;4,95
-1,23;4,95
-1,23;4,95
-1,23;4,95
-1,23;4,95
-1,23;4,95
-1,23;4,95
-1,22;4,95
-1,22;4,95
-1,22;4,95
-1,22;4,95
-1,22;4,9
-1,22;4,95
-1,21;4,95
-1,21;4,9
-1,21;4,95
-1,21;4,95
-1,21;4,95
-1,21;4,95
-1,21;4,95
-1,2;4,95
-1,2;4,95
-1,2;4,95
-1,2;4,95
-1,2;4,95
-1,2;4,9
-1,19;4,95
-1,19;4,95
-1,19;4,9
-1,19;4,95
-1,19;4,95
-1,19;4,95
-1,18;5
-1,18;4,95
-1,18;4,95
-1,18;4,95
-1,18;4,95
-1,18;4,95
-1,17;4,95
-1,17;4,9
-1,17;4,95
-1,17;5
-1,17;4,95
-1,17;4,95
-1,17;4,95
-1,16;4,95
-1,16;4,95
-1,16;4,95
-1,16;4,95
-1,16;4,95
-1,16;4,95
-1,15;5
-1,15;4,95
-1,15;4,95
-1,15;4,95
-1,15;4,95
-1,15;4,95
-1,14;4,95
-1,14;4,95
-1,14;4,95
-1,14;4,9
-1,14;4,9
-1,14;4,95
-1,13;4,95
-1,13;4,95
-1,13;4,9
-1,13;4,95
-1,13;4,95
-1,13;4,95
-1,13;4,95
-1,12;4,95
-1,12;4,95
-1,12;4,95
-1,12;4,95
-1,12;4,9
-1,12;4,95
-1,11;4,9
-1,11;4,95
-1,11;4,9
-1,11;4,95
-1,11;5
-1,11;4,95
-1,1;4,95
-1,1;4,95
-1,1;4,95
-1,1;4,95
-1,1;4,95
-1,1;4,9
-1,09;4,95
-1,09;4,95
-1,09;4,95
-1,09;4,95
-1,09;4,95
-1,09;4,95
-1,09;4,9
-1,08;4,95
-1,08;4,95
-1,08;4,95
-1,08;4,95
-1,08;4,95
-1,08;4,95
-1,07;4,95
-1,07;4,95
-1,07;4,95
-1,07;4,95
-1,07;4,95
-1,07;4,95
-1,06;4,95
-1,06;4,95
-1,06;4,9
-1,06;4,95
-1,06;4,95
-1,06;4,95
-1,05;4,95
-1,05;4,95
-1,05;4,95
-1,05;4,95
-1,05;4,95
-1,05;4,95
-1,05;4,95
-1,04;4,95
-1,04;4,95
-1,04;4,95
-1,04;4,95
-1,04;4,95
-1,04;4,95
-1,03;4,95
-1,03;4,95
-1,03;4,95
-1,03;4,95
-1,03;4,95
-1,03;4,95
-1,02;4,95
-1,02;4,95
-1,02;4,95
-1,02;4,9
-1,02;4,95
-1,02;4,95
-1,01;4,95
-1,01;4,95
-1,01;4,95
-1,01;4,95
-1,01;4,95
-1,01;4,95
-1,01;4,9
-1;4,95
-1;4,95
-1;4,95
-1;4,95
-1;4,95
-1;4,95
-0,99;5
-0,99;4,95
-0,99;4,95
-0,99;4,95
-0,99;4,95
-0,99;4,95
-0,98;4,95
-0,98;4,95
-0,98;4,95
-0,98;4,95
-0,98;4,95
-0,98;4,95
-0,97;4,95
-0,97;4,95
-0,97;4,9
-0,97;4,95
-0,97;4,95
-0,97;4,95
-0,96;4,9
-0,96;4,95
-0,96;4,95
-0,96;4,95
-0,96;4,95
-0,96;4,95
-0,96;4,95
-0,95;4,95
-0,95;4,95
-0,95;4,95
-0,95;4,95
-0,95;4,95
-0,95;4,95
-0,94;4,9
-0,94;4,95
-0,94;4,95
-0,94;4,9
-0,94;4,95
-0,94;4,95
-0,93;4,95
-0,93;4,95
-0,93;4,95
-0,93;4,95
-0,93;4,95
-0,93;5
-0,92;5
-0,92;5
-0,92;4,95
-0,92;4,95
-0,92;4,95
-0,92;4,95
-0,92;4,95
-0,91;4,95
-0,91;4,95
-0,91;4,95
-0,91;4,95
-0,91;4,9
-0,91;4,95
-0,9;4,95
-0,9;4,95
-0,9;4,95
-0,9;4,95
-0,9;4,95
-0,9;4,95
-0,89;5
-0,89;4,95
-0,89;4,9
-0,89;4,95
-0,89;4,95
-0,89;4,95
-0,88;4,95
-0,88;4,95
-0,88;4,95
-0,88;4,9
-0,88;4,95
-0,88;4,95
-0,88;4,95
-0,87;4,9
-0,87;4,9
-0,87;4,9
-0,87;4,95
-0,87;4,9
-0,87;4,95
-0,86;4,95
-0,86;4,95
-0,86;4,95
-0,86;4,95
-0,86;4,95
-0,86;4,95
-0,85;4,9
-0,85;4,95
-0,85;4,95
-0,85;4,95
-0,85;4,95
-0,85;4,95
-0,84;4,95
-0,84;4,95
-0,84;4,95
-0,84;4,95
-0,84;4,95
-0,84;4,95
-0,84;4,95
-0,83;4,95
-0,83;4,95
-0,83;4,95
-0,83;4,95
-0,83;4,95
-0,83;4,95
-0,82;4,95
-0,82;4,95
-0,82;4,95
-0,82;4,95
-0,82;4,95
-0,82;4,95
-0,81;4,95
-0,81;4,95
-0,81;4,95
-0,81;4,95
-0,81;4,95
-0,81;4,95
-0,8;4,9
-0,8;4,95
-0,8;4,9
-0,8;4,95
-0,8;4,95
-0,8;4,95
-0,8;4,95
-0,79;4,9
-0,79;5
-0,79;4,95
-0,79;4,95
-0,79;4,95
-0,79;4,9
-0,78;4,95
-0,78;4,9
-0,78;4,95
-0,78;4,95
-0,78;4,95
-0,78;4,9
-0,77;4,95
-0,77;4,95
-0,77;4,9
-0,77;4,95
-0,77;4,95
-0,77;4,9
-0,76;4,9
-0,76;4,95
-0,76;4,95
-0,76;4,95
-0,76;4,95
-0,76;4,95
-0,76;4,95
-0,75;4,95
-0,75;4,95
-0,75;4,95
-0,75;4,95
-0,75;4,95
-0,75;4,95
-0,74;4,95
-0,74;4,9
-0,74;4,95
-0,74;4,95
-0,74;4,95
-0,74;4,95
-0,73;4,95
-0,73;4,95
-0,73;4,95
-0,73;4,95
-0,73;4,95
-0,73;4,95
-0,72;4,95
-0,72;4,95
-0,72;4,95
-0,72;4,95
-0,72;4,95
-0,72;4,95
-0,72;4,9
-0,71;4,95
-0,71;4,95
-0,71;4,95
-0,71;4,95
-0,71;4,95
-0,71;5
-0,7;4,95
-0,7;4,95
-0,7;4,95
-0,7;4,9
-0,7;4,95
-0,7;4,95
-0,69;4,95
-0,69;4,95
-0,69;4,95
-0,69;4,9
-0,69;4,95
-0,69;4,95
-0,68;4,95
-0,68;4,95
-0,68;4,95
-0,68;4,95
-0,68;4,95
-0,68;4,95
-0,68;4,95
-0,67;4,95
-0,67;4,95
-0,67;4,95
-0,67;4,95
-0,67;4,95
-0,67;4,9
-0,66;4,95
-0,66;4,95
-0,66;4,95
-0,66;4,95
-0,66;4,95
-0,66;4,95
-0,65;4,95
-0,65;4,95
-0,65;4,95
-0,65;4,95
-0,65;4,95
-0,65;4,95
-0,64;4,95
-0,64;4,95
-0,64;4,95
-0,64;4,9
-0,64;4,95
-0,64;5
-0,64;4,95
-0,63;4,9
-0,63;4,95
-0,63;4,95
-0,63;4,95
-0,63;4,95
-0,63;4,95
-0,62;4,95
-0,62;4,95
-0,62;4,9
-0,62;4,95
-0,62;4,95
-0,62;4,95
-0,61;4,95
-0,61;4,95
-0,61;4,95
-0,61;4,95
-0,61;4,95
-0,61;4,95
-0,6;4,95
-0,6;4,95
-0,6;4,95
-0,6;4,95
-0,6;4,95
-0,6;4,95
-0,6;4,95
-0,59;4,9
-0,59;4,95
-0,59;4,95
-0,59;4,95
-0,59;4,95
-0,59;4,95
-0,58;4,95
-0,58;4,9
-0,58;4,9
-0,58;4,95
-0,58;4,95
-0,58;4,9
-0,57;4,95
-0,57;4,95
-0,57;4,95
-0,57;4,95
-0,57;4,95
-0,57;4,95
-0,56;5
-0,56;4,9
-0,56;4,95
-0,56;4,9
-0,56;4,95
-0,56;4,95
-0,56;4,9
-0,55;4,95
-0,55;4,95
-0,55;4,9
-0,55;4,95
-0,55;4,95
-0,55;4,95
-0,54;4,95
-0,54;4,95
-0,54;4,95
-0,54;4,95
-0,54;4,95
-0,54;4,9
-0,53;4,9
-0,53;4,95
-0,53;4,95
-0,53;4,95
-0,53;4,95
-0,53;4,95
-0,52;5
-0,52;4,95
-0,52;4,95
-0,52;4,95
-0,52;4,9
-0,52;4,95
-0,52;4,95
-0,51;4,95
-0,51;4,95
-0,51;5
-0,51;4,95
-0,51;4,95
-0,51;4,95
-0,5;4,95
-0,5;4,95
-0,5;4,95
-0,5;4,95
-0,5;4,95
-0,5;4,95
-0,49;4,95
-0,49;4,95
-0,49;4,95
-0,49;4,95
-0,49;4,95
-0,49;4,95
-0,48;4,95
-0,48;4,95
-0,48;4,95
-0,48;4,95
-0,48;4,95
-0,48;4,95
-0,48;4,95
-0,47;4,9
-0,47;4,9
-0,47;4,9
-0,47;4,95
-0,47;4,95
-0,47;4,95
-0,46;4,95
-0,46;4,95
-0,46;4,95
-0,46;4,95
-0,46;4,95
-0,46;4,95
-0,45;4,95
-0,45;4,95
-0,45;4,95
-0,45;4,95
-0,45;4,95
-0,45;4,95
-0,44;4,95
-0,44;4,95
-0,44;5
-0,44;4,95
-0,44;4,95
-0,44;5
-0,44;4,95
-0,43;4,95
-0,43;4,95
-0,43;4,9
-0,43;4,9
-0,43;4,95
-0,43;4,95
-0,42;4,95
-0,42;4,95
-0,42;4,95
-0,42;4,9
-0,42;4,9
-0,42;5
-0,41;4,95
-0,41;4,95
-0,41;4,95
-0,41;4,95
-0,41;4,95
-0,41;4,95
-0,4;4,95
-0,4;4,95
-0,4;4,95
-0,4;4,9
-0,4;4,95
-0,4;4,9
-0,4;4,95
-0,39;4,95
-0,39;4,95
-0,39;4,95
-0,39;4,95
-0,39;4,95
-0,39;4,9
-0,38;4,95
-0,38;4,95
-0,38;4,95
-0,38;4,95
-0,38;4,95
-0,38;4,9
-0,37;4,95
-0,37;4,9
-0,37;4,95
-0,37;4,95
-0,37;4,95
-0,37;4,9
-0,36;4,95
-0,36;4,95
-0,36;4,95
-0,36;4,95
-0,36;4,95
-0,36;4,95
-0,36;4,95
-0,35;4,95
-0,35;4,95
-0,35;4,9
-0,35;4,95
-0,35;4,95
-0,35;4,95
-0,34;4,9
-0,34;4,95
-0,34;4,9
-0,34;4,9
-0,34;4,95
-0,34;4,95
-0,33;4,95
-0,33;4,95
-0,33;4,95
-0,33;5
-0,33;4,9
-0,33;4,9
-0,32;4,95
-0,32;4,95
-0,32;4,95
-0,32;4,95
-0,32;4,95
-0,32;4,9
-0,32;4,95
-0,31;4,95
-0,31;4,95
-0,31;4,95
-0,31;4,95
-0,31;4,95
-0,31;4,95
-0,3;4,95
-0,3;4,95
-0,3;4,95
-0,3;4,95
-0,3;4,95
-0,3;4,95
-0,29;4,95
-0,29;4,95
-0,29;4,95
-0,29;4,95
-0,29;4,95
-0,29;4,95
-0,28;4,95
-0,28;4,95
-0,28;4,95
-0,28;4,9
-0,28;4,95
-0,28;4,95
-0,28;4,95
-0,27;4,95
-0,27;4,95
-0,27;4,9
-0,27;4,95
-0,27;4,95
-0,27;4,95
-0,26;4,95
-0,26;4,95
-0,26;4,95
-0,26;4,95
-0,26;4,95
-0,26;4,95
-0,25;4,95
-0,25;4,95
-0,25;4,95
-0,25;4,9
-0,25;4,95
-0,25;4,95
-0,24;4,95
-0,24;4,95
-0,24;4,95
-0,24;4,95
-0,24;4,95
-0,24;4,95
-0,24;4,95
-0,23;4,9
-0,23;4,95
-0,23;4,95
-0,23;4,95
-0,23;4,95
-0,23;4,95
-0,22;4,95
-0,22;4,95
-0,22;4,95
-0,22;4,95
-0,22;4,95
-0,22;4,95
-0,21;4,95
-0,21;4,95
-0,21;4,95
-0,21;4,95
-0,21;4,95
-0,21;4,95
-0,2;4,95
-0,2;4,95
-0,2;4,95
-0,2;4,95
-0,2;4,95
-0,2;4,95
-0,2;4,95
-0,19;4,95
-0,19;4,95
-0,19;4,95
-0,19;4,95
-0,19;4,95
-0,19;4,95
-0,18;4,95
-0,18;4,95
-0,18;4,95
-0,18;4,95
-0,18;4,95
-0,18;4,95
-0,17;4,95
-0,17;4,95
-0,17;4,95
-0,17;4,95
-0,17;4,95
-0,17;4,95
-0,16;4,9
-0,16;4,95
-0,16;4,95
-0,16;4,95
-0,16;4,95
-0,16;4,95
-0,16;4,95
-0,15;4,95
-0,15;4,95
-0,15;4,9
-0,15;4,95
-0,15;4,95
-0,15;4,95
-0,14;4,9
-0,14;4,95
-0,14;4,95
-0,14;4,95
-0,14;4,95
-0,14;4,9
-0,13;4,95
-0,13;4,95
-0,13;4,95
-0,13;5
-0,13;4,95
-0,13;4,95
-0,12;4,95
-0,12;4,95
-0,12;4,9
-0,12;4,95
-0,12;4,95
-0,12;4,95
-0,12;4,95
-0,11;4,95
-0,11;4,95
-0,11;4,95
-0,11;4,95
-0,11;4,95
-0,11;4,95
-0,1;4,95
-0,1;4,95
-0,1;4,95
-0,1;4,9
-0,1;4,95
-0,1;4,95
-0,09;4,95
-0,09;4,9
-0,09;0,05
-0,09;4,77E-03
-0,09;0,05
-0,09;4,77E-03
-0,08;0,05
-0,08;4,77E-03
-0,08;4,77E-03
-0,08;0,05
-0,08;4,77E-03
-0,08;4,77E-03
-0,08;4,77E-03
-0,07;4,77E-03
-0,07;0,05
-0,07;0,05
-0,07;4,77E-03
-0,07;4,77E-03
-0,07;4,77E-03
-0,06;4,77E-03
-0,06;4,77E-03
-0,06;4,77E-03
-0,06;4,77E-03
-0,06;4,77E-03
-0,06;4,77E-03
-0,05;0,05
-0,05;4,77E-03
-0,05;0,05
-0,05;4,77E-03
-0,05;4,77E-03
-0,05;4,77E-03
-0,04;4,77E-03
-0,04;4,77E-03
-0,04;4,77E-03
-0,04;4,77E-03
-0,04;4,77E-03
-0,04;0,05
-0,04;4,77E-03
-0,03;4,77E-03
-0,03;4,77E-03
-0,03;4,77E-03
-0,03;4,77E-03
-0,03;4,77E-03
-0,03;4,77E-03
-0,02;4,77E-03
-0,02;4,77E-03
-0,02;0,05
-0,02;4,77E-03
-0,02;0,05
-0,02;0,05
-0,01;4,77E-03
-0,01;0,05
-0,01;4,77E-03
-0,01;4,77E-03
-0,01;4,77E-03
-0,01;4,77E-03
0;0,05
0;4,9
0;4,9
0;4,95
0;4,9
0;4,95
0;4,95
0,01;4,9
0,01;4,9
0,01;4,95
0,01;4,95
0,01;4,95
0,01;4,95
0,02;4,9
0,02;4,9
0,02;4,95
0,02;4,9
0,02;4,9
0,02;4,95
0,03;4,9
0,03;4,9
0,03;4,95
0,03;4,95
0,03;0,05
0,03;4,77E-03
0,04;0,05
0,04;0,05
0,04;0,05
0,04;4,77E-03
0,04;4,77E-03
0,04;4,77E-03
0,04;0,05
0,05;0,05
0,05;0,05
0,05;4,77E-03
0,05;0,05
0,05;0,05
0,05;0,05
0,06;0,05
0,06;0,05
0,06;0,05
0,06;0,05
0,06;0,05
0,06;0,05
0,07;4,77E-03
0,07;4,9
0,07;4,9
0,07;4,9
0,07;4,9
0,07;4,9
0,08;4,95
0,08;4,9
0,08;4,9
0,08;4,95
0,08;4,95
0,08;4,95
0,08;0,05
0,09;0,05
0,09;0,05
0,09;0,05
0,09;4,77E-03
0,09;0,05
0,09;4,77E-03
0,1;4,77E-03
0,1;4,77E-03
0,1;0,05
0,1;4,25
0,1;4,9
0,1;4,95
0,11;4,9
0,11;4,9
0,11;4,9
0,11;4,95
0,11;4,95
0,11;4,95
0,12;4,95
0,12;4,9
0,12;0,1
0,12;0,05
0,12;0,05
0,12;0,05
0,12;0,05
0,13;4,77E-03
0,13;4,77E-03
0,13;4,77E-03
0,13;4,77E-03
0,13;4,77E-03
0,13;0,05
0,14;4,77E-03
0,14;4,77E-03
0,14;0,05
0,14;0,05
0,14;4,77E-03
0,14;0,05
0,15;0,05
0,15;4,77E-03
0,15;4,77E-03
0,15;0,05
0,15;0,05
0,15;4,95
0,16;4,9
0,16;4,9
0,16;4,9
0,16;4,95
0,16;4,9
0,16;4,9
0,16;4,95
0,17;4,95
0,17;4,95
0,17;4,95
0,17;4,95
0,17;5
0,17;4,9
0,18;4,95
0,18;4,95
0,18;4,95
0,18;4,95
0,18;4,95
0,18;4,95
0,19;4,95
0,19;4,95
0,19;4,95
0,19;4,95
0,19;4,95
0,19;4,95
0,2;4,95
0,2;4,95
0,2;4,95
0,2;4,9
0,2;4,9
0,2;4,95
0,2;4,95
0,21;4,77E-03
0,21;4,77E-03
0,21;4,77E-03
0,21;4,77E-03
0,21;0,05
0,21;4,77E-03
0,22;4,77E-03
0,22;4,77E-03
0,22;4,77E-03
0,22;4,77E-03
0,22;4,77E-03
0,22;4,77E-03
0,23;4,77E-03
0,23;4,77E-03
0,23;4,77E-03
0,23;4,77E-03
0,23;4,77E-03
0,23;4,77E-03
0,24;0,05
0,24;4,77E-03
0,24;4,77E-03
0,24;4,77E-03
0,24;4,9
0,24;4,95
0,24;4,95
0,25;4,95
0,25;4,95
0,25;4,95
0,25;4,95
0,25;4,95
0,25;4,95
0,26;4,95
0,26;4,95
0,26;0,05
0,26;0,05
0,26;4,77E-03
0,26;4,77E-03
0,27;0,05
0,27;4,77E-03
0,27;4,77E-03
0,27;0,05
0,27;0,05
0,27;4,77E-03
0,28;4,77E-03
0,28;4,77E-03
0,28;4,77E-03
0,28;4,77E-03
0,28;0,05
0,28;0,05
0,28;4,77E-03
0,29;0,05
0,29;-0,05
0,29;0,05
0,29;0,05
0,29;4,77E-03
0,29;4,9
0,3;4,9
0,3;4,95
0,3;4,9
0,3;4,9
0,3;4,95
0,3;4,95
0,31;4,95
0,31;4,95
0,31;4,95
0,31;4,95
0,31;4,95
0,31;4,95
0,32;4,95
0,32;4,95
0,32;4,95
0,32;4,95
0,32;4,95
0,32;4,95
0,32;4,95
0,33;4,95
0,33;5
0,33;4,95
0,33;4,95
0,33;4,95
0,33;4,9
0,34;4,95
0,34;4,95
0,34;4,95
0,34;4,95
0,34;4,95
0,34;4,95
0,35;4,9
0,35;0,05
0,35;4,77E-03
0,35;0,05
0,35;4,77E-03
0,35;4,77E-03
0,36;4,77E-03
0,36;4,77E-03
0,36;4,77E-03
0,36;4,77E-03
0,36;0,05
0,36;4,77E-03
0,36;4,9
0,37;4,9
0,37;4,95
0,37;4,95
0,37;4,95
0,37;4,9
0,37;4,95
0,38;4,95
0,38;4,95
0,38;4,95
0,38;4,95
0,38;4,77E-03
0,38;4,77E-03
0,39;0,05
0,39;4,77E-03
0,39;4,77E-03
0,39;4,77E-03
0,39;4,77E-03
0,39;-0,05
0,4;4,77E-03
0,4;4,77E-03
0,4;4,77E-03
0,4;0,05
0,4;4,77E-03
0,4;4,77E-03
0,4;0,05
0,41;0,05
0,41;4,77E-03
0,41;4,77E-03
0,41;0,05
0,41;4,77E-03
0,41;4,77E-03
0,42;4,77E-03
0,42;4,9
0,42;4,95
0,42;4,95
0,42;4,9
0,42;4,95
0,43;4,95
0,43;4,95
0,43;4,95
0,43;4,9
0,43;4,95
0,43;4,55
0,44;0,05
0,44;0,05
0,44;0,05
0,44;4,77E-03
0,44;4,77E-03
0,44;4,77E-03
0,44;4,77E-03
0,45;0,05
0,45;4,77E-03
0,45;4,77E-03
0,45;4,77E-03
0,45;4,77E-03
0,45;4,77E-03
0,46;4,77E-03
0,46;0,05
0,46;4,77E-03
0,46;4,77E-03
0,46;4,77E-03
0,46;4,77E-03
0,47;0,05
0,47;4,77E-03
0,47;4,77E-03
0,47;4,77E-03
0,47;0,05
0,47;4,77E-03
0,48;4,77E-03
0,48;4,77E-03
0,48;4,77E-03
0,48;4,77E-03
0,48;4,77E-03
0,48;4,77E-03
0,48;4,77E-03
0,49;4,77E-03
0,49;0,05
0,49;4,77E-03
0,49;4,77E-03
0,49;4,77E-03
0,49;4,77E-03
0,5;4,77E-03
0,5;0,05
0,5;4,77E-03
0,5;4,77E-03
0,5;4,77E-03
0,5;4,9
0,51;4,9
0,51;4,9
0,51;4,95
0,51;4,95
0,51;4,95
0,51;4,95
0,52;4,95
0,52;4,95
0,52;4,95
0,52;4,95
0,52;4,95
0,52;4,95
0,52;4,9
0,53;4,95
0,53;4,95
0,53;4,95
0,53;4,95
0,53;4,95
0,53;4,95
0,54;4,95
0,54;4,95
0,54;4,95
0,54;4,95
0,54;4,95
0,54;4,95
0,55;4,95
0,55;4,95
0,55;4,95
0,55;4,9
0,55;4,95
0,55;4,95
0,56;4,9
0,56;0,05
0,56;0,05
0,56;4,77E-03
0,56;0,05
0,56;0,05
0,56;4,77E-03
0,57;0,05
0,57;0,05
0,57;4,77E-03
0,57;4,77E-03
0,57;4,77E-03
0,57;4,77E-03
0,58;0,05
0,58;0,05
0,58;4,77E-03
0,58;4,77E-03
0,58;0,05
0,58;4,77E-03
0,59;4,77E-03
0,59;4,77E-03
0,59;4,77E-03
0,59;4,77E-03
0,59;4,95
0,59;4,9
0,6;4,9
0,6;4,9
0,6;4,9
0,6;4,95
0,6;4,95
0,6;4,95
0,6;4,95
0,61;5
0,61;4,95
0,61;4,77E-03
0,61;0,05
0,61;0,05
0,61;4,77E-03
0,62;4,77E-03
0,62;0,05
0,62;4,77E-03
0,62;4,77E-03
0,62;0,05
0,62;0,05
0,63;0,05
0,63;4,77E-03
0,63;4,77E-03
0,63;0,05
0,63;4,77E-03
0,63;4,77E-03
0,64;4,77E-03
0,64;4,77E-03
0,64;0,05
0,64;0,05
0,64;0,05
0,64;0,05
0,64;4,9
0,65;4,9
0,65;4,9
0,65;4,9
0,65;4,9
0,65;4,9
0,65;4,95
0,66;4,9
0,66;4,95
0,66;4,95
0,66;4,95
0,66;4,95
0,66;4,95
0,67;4,95
0,67;4,95
0,67;4,95
0,67;5
0,67;4,95
0,67;4,95
0,68;4,95
0,68;4,9
0,68;4,95
0,68;4,77E-03
0,68;0,05
0,68;0,05
0,68;0,05
0,69;0,05
0,69;4,77E-03
0,69;4,77E-03
0,69;4,77E-03
0,69;4,77E-03
0,69;-0,05
0,7;4,77E-03
0,7;4,9
0,7;4,9
0,7;4,9
0,7;4,9
0,7;4,95
0,71;4,9
0,71;4,9
0,71;4,95
0,71;4,95
0,71;4,9
0,71;4,95
0,72;4,95
0,72;4,95
0,72;4,95
0,72;4,95
0,72;4,95
0,72;4,95
0,72;4,9
0,73;4,95
0,73;4,95
0,73;4,95
0,73;5
0,73;0,05
0,73;0,05
0,74;4,77E-03
0,74;0,05
0,74;4,77E-03
0,74;4,77E-03
0,74;4,77E-03
0,74;4,77E-03
0,75;4,77E-03
0,75;4,77E-03
0,75;4,77E-03
0,75;0,05
0,75;4,77E-03
0,75;4,77E-03
0,76;4,77E-03
0,76;4,77E-03
0,76;0,05
0,76;-0,05
0,76;4,77E-03
0,76;4,77E-03
0,76;4,77E-03
0,77;4,77E-03
0,77;4,9
0,77;4,95
0,77;4,95
0,77;4,95
0,77;4,95
0,78;4,95
0,78;4,95
0,78;4,95
0,78;4,95
0,78;4,95
0,78;2,7
0,79;0,1
0,79;0,05
0,79;0,05
0,79;4,77E-03
0,79;4,77E-03
0,79;4,77E-03
0,8;0,05
0,8;4,77E-03
0,8;4,77E-03
0,8;4,77E-03
0,8;4,85
0,8;4,9
0,8;4,9
0,81;4,95
0,81;4,95
0,81;4,95
0,81;4,95
0,81;4,95
0,81;4,95
0,82;4,95
0,82;4,95
0,82;4,95
0,82;4,95
0,82;4,95
0,82;4,95
0,83;4,95
0,83;4,95
0,83;4,95
0,83;4,95
0,83;4,95
0,83;4,95
0,84;4,95
0,84;0,05
0,84;4,77E-03
0,84;0,05
0,84;4,77E-03
0,84;0,05
0,84;4,77E-03
0,85;4,77E-03
0,85;0,05
0,85;4,77E-03
0,85;4,77E-03
0,85;4,77E-03
0,85;4,95
0,86;4,9
0,86;4,95
0,86;4,95
0,86;4,95
0,86;4,95
0,86;4,95
0,87;4,95
0,87;4,95
0,87;4,95
0,87;4,95
0,87;4,95
0,87;4,9
0,88;4,95
0,88;4,95
0,88;4,95
0,88;4,95
0,88;4,95
0,88;4,9
0,88;4,95
0,89;4,95
0,89;5
0,89;4,95
0,89;4,95
0,89;4,95
0,89;4,95
0,9;4,95
0,9;4,9
0,9;4,95
0,9;4,95
0,9;4,95
0,9;4,95
0,91;4,95
0,91;0,05
0,91;4,77E-03
0,91;0,05
0,91;4,77E-03
0,91;4,77E-03
0,92;4,77E-03
0,92;4,77E-03
0,92;4,77E-03
0,92;4,77E-03
0,92;4,77E-03
0,92;4,77E-03
0,92;4,77E-03
0,93;0,05
0,93;4,77E-03
0,93;4,77E-03
0,93;4,77E-03
0,93;4,77E-03
0,93;4,77E-03
0,94;0,05
0,94;4,77E-03
0,94;4,77E-03
0,94;4,77E-03
0,94;4,9
0,94;4,9
0,95;4,95
0,95;4,9
0,95;4,95
0,95;4,95
0,95;4,95
0,95;4,9
0,96;4,95
0,96;4,95
0,96;4,95
0,96;4,95
0,96;4,95
0,96;4,95
0,96;4,95
0,97;4,95
0,97;4,95
0,97;4,95
0,97;4,95
0,97;4,95
0,97;4,9
0,98;4,9
0,98;4,95
0,98;4,95
0,98;4,95
0,98;4,95
0,98;4,95
0,99;4,95
0,99;4,95
0,99;4,95
0,99;4,95
0,99;4,95
0,99;4,9
1;4,95
1;4,95
1;4,95
1;4,95
1;4,9
1;4,95
1,01;4,95
1,01;4,95
1,01;4,95
1,01;5
1,01;4,95
1,01;4,95
1,01;4,95
1,02;4,95
1,02;4,95
1,02;4,95
1,02;4,95
1,02;4,95
1,02;4,95
1,03;4,95
1,03;4,95
1,03;4,9
1,03;4,95
1,03;4,95
1,03;4,95
1,04;4,95
1,04;4,95
1,04;4,95
1,04;4,95
1,04;4,95
1,04;4,9
1,05;4,9
1,05;4,9
1,05;4,9
1,05;4,9
1,05;4,9
1,05;4,95
1,05;4,95
1,06;4,95
1,06;4,95
1,06;4,95
1,06;4,95
1,06;4,95
1,06;4,95
1,07;4,9
1,07;4,95
1,07;4,95
1,07;4,9
1,07;4,9
1,07;4,95
1,08;4,9
1,08;4,9
1,08;4,95
1,08;4,95
1,08;4,95
1,08;4,95
1,09;4,95
1,09;4,9
1,09;4,95
1,09;4,9
1,09;4,95
1,09;4,95
1,09;4,95
1,1;4,95
1,1;4,95
1,1;4,95
1,1;4,95
1,1;4,95
1,1;4,95
1,11;4,95
1,11;4,95
1,11;4,95
1,11;4,95
1,11;4,95
1,11;4,95
1,12;4,95
1,12;5
1,12;4,95
1,12;4,95
1,12;4,9
1,12;4,9
1,13;4,95
1,13;4,95
1,13;4,9
1,13;5
1,13;4,95
1,13;4,95
1,13;4,95
1,14;4,95
1,14;4,95
1,14;4,95
1,14;4,95
1,14;4,95
1,14;4,95
1,15;4,9
1,15;4,95
1,15;4,9
1,15;4,9
1,15;4,95
1,15;4,95
1,16;4,9
1,16;4,95
1,16;4,95
1,16;4,95
1,16;4,95
1,16;4,95
1,17;4,95
1,17;4,95
1,17;4,95
1,17;4,95
1,17;4,95
1,17;4,95
1,17;4,95
1,18;4,95
1,18;4,95
1,18;4,95
1,18;4,95
1,18;4,9
1,18;4,9
1,19;4,95
1,19;4,95
1,19;4,95
1,19;4,95
1,19;4,95
1,19;4,95
1,2;4,9
1,2;4,95
1,2;4,95
1,2;4,95
1,2;4,95
1,2;4,9
1,21;4,95
1,21;4,95
1,21;4,95
1,21;4,9
1,21;4,95
1,21;4,95
1,21;4,95
1,22;4,95
1,22;4,95
1,22;4,95
1,22;4,95
1,22;4,95
1,22;4,95
1,23;4,95
1,23;4,95
1,23;4,95
1,23;4,95
1,23;4,95
1,23;4,95
1,24;4,95
1,24;4,95
1,24;4,95
1,24;4,95
1,24;4,95
1,24;4,95
1,25;4,95
1,25;4,95
1,25;4,95
1,25;4,95
1,25;4,9
1,25;4,95
1,25;4,95
1,26;4,95
1,26;4,95
1,26;4,95
1,26;4,95
1,26;4,95
1,26;4,95
1,27;4,95
1,27;4,95
1,27;4,95
1,27;4,95
1,27;4,95
1,27;4,95
1,28;4,9
1,28;4,95
1,28;4,95
1,28;4,95
1,28;4,95
1,28;4,95
1,29;4,95
1,29;4,95
1,29;4,95
1,29;4,95
1,29;4,95
1,29;4,95
1,29;4,95
1,3;4,95
1,3;4,9
1,3;4,95
1,3;4,95
1,3;4,95
1,3;4,95
1,31;4,95
1,31;4,95
1,31;4,95
1,31;4,9
1,31;4,95
1,31;4,95
1,32;4,95
1,32;4,95
1,32;4,95
1,32;4,95
1,32;4,95
1,32;4,9
1,33;4,95
1,33;4,95
1,33;4,9
1,33;4,9
1,33;4,95
1,33;4,95
1,33;4,95
1,34;4,95
1,34;4,95
1,34;4,95
1,34;4,95
1,34;4,95
1,34;4,95
1,35;4,95
1,35;5
1,35;4,95
1,35;4,95
1,35;4,95
1,35;4,95
1,36;4,95
1,36;4,95
1,36;4,95
1,36;4,95
1,36;4,9
1,36;4,95
1,37;4,95
1,37;4,95
1,37;4,95
1,37;4,95
1,37;4,95
1,37;4,95
1,37;4,95
1,38;4,95
1,38;4,95
1,38;4,95
1,38;4,95
1,38;4,95
1,38;4,95
1,39;4,95
1,39;4,95
1,39;4,95
1,39;4,95
1,39;4,95
1,39;4,95
1,4;5
1,4;4,95
1,4;4,95
1,4;4,95
1,4;4,95
1,4;4,95
1,41;4,95
1,41;4,9
1,41;4,9
1,41;4,9
1,41;4,95
1,41;4,95
1,41;4,95
1,42;4,95
1,42;4,95
1,42;4,9
1,42;4,95
1,42;4,95
1,42;4,95
1,43;4,95
1,43;5
1,43;4,95
1,43;4,95
1,43;4,95
1,43;4,95
1,44;4,95
1,44;4,95
1,44;4,95
1,44;4,9
1,44;4,95
1,44;4,95
1,45;4,95
1,45;4,95
1,45;4,95
1,45;4,95
1,45;4,95
1,45;4,9
1,45;4,95
1,46;4,95
1,46;4,95
1,46;4,95
1,46;4,95
1,46;4,95
1,46;4,95
1,47;4,95
1,47;4,95
1,47;4,95
1,47;4,95
1,47;4,95
1,47;4,95
1,48;4,95
1,48;4,95
1,48;4,95
1,48;4,95
1,48;4,95
1,48;4,95
1,49;5
1,49;5
1,49;4,95
1,49;4,95
1,49;4,95
1,49;4,95
1,49;4,95
1,5;5
1,5;4,95
1,5;4,95
1,5;4,9
1,5;4,95
1,5;4,95
1,51;4,95
1,51;4,95
1,51;4,95
1,51;4,95
1,51;4,9
1,51;4,95
1,52;4,9
1,52;4,9
1,52;4,95
1,52;4,95
1,52;4,95
1,52;4,95
1,53;4,95
1,53;4,95
1,53;4,9
1,53;4,95
1,53;4,95
1,53;5
1,53;4,95
1,54;4,95
1,54;4,95
1,54;4,95
1,54;4,95
1,54;4,9
1,54;4,95
1,55;5
1,55;4,95
1,55;4,95
1,55;4,95
1,55;4,95
1,55;4,95
1,56;4,9
1,56;4,95
1,56;4,95
1,56;4,95
1,56;4,95
1,56;4,9
1,57;4,95
1,57;4,95
1,57;4,95
1,57;4,95
1,57;4,95
1,57;4,95
1,57;4,95
1,58;4,95
1,58;4,95
1,58;4,95
1,58;4,95
1,58;5
1,58;4,95
1,59;4,95
1,59;4,95
1,59;4,95
1,59;4,95
1,59;4,95
1,59;4,95
1,6;4,95
1,6;4,95
1,6;4,95
1,6;4,95
1,6;5
