Excel/Técnica de sondeo/Tiempos Multiplexación Sondeo.CSV

Model,TBS2104;
Firmware Version,v1,26,0;
;
Point Format,Y;
Horizontal Units,S;
Horizontal Scale,0,0004;
Sample Interval,3,2e-06;
Filter Frequency,1e+08;
Record Length,2000;
Gating,0,0% to 100,0%;
Probe Attenuation,1;
Vertical Units,V;
Vertical Offset,0;
Vertical Scale,0,2;
Label,;
Tiempo (ms);Voltaje (V)
-3,22;-0,00999999
-3,21;-0,02
-3,21;-0,02
-3,21;-0,02
-3,2;-0,00999999
-3,2;-0,02
-3,2;-0,00999999
-3,19;-0,00999999
-3,19;-0,00999999
-3,19;-0,00999999
-3,18;-0,02
-3,18;-0,00999999
-3,18;-0,02
-3,17;-0,02
-3,17;-0,02
-3,17;-0,02
-3,17;-0,00999999
-3,16;-0,02
-3,16;-0,00999999
-3,16;-0,00999999
-3,15;-0,02
-3,15;-0,00999999
-3,15;-0,02
-3,14;-0,02
-3,14;-0,00999999
-3,14;-0,00999999
-3,13;-0,02
-3,13;-0,02
-3,13;-0,00999999
-3,12;-0,02
-3,12;-0,02
-3,12;-0,00999999
-3,11;-0,00999999
-3,11;-0,02
-3,11;-0,00999999
-3,1;-0,00999999
-3,1;-0,02
-3,1;-0,02
-3,09;-0,00999999
-3,09;-0,00999999
-3,09;-0,00999999
-3,09;-0,00999999
-3,08;-0,02
-3,08;-0,00999999
-3,08;-0,02
-3,07;-0,00999999
-3,07;-0,00999999
-3,07;-0,02
-3,06;-0,00999999
-3,06;-0,02
-3,06;-0,00999999
-3,05;-0,00999999
-3,05;-0,00999999
-3,05;-0,02
-3,04;-0,02
-3,04;-0,00999999
-3,04;-0,00999999
-3,03;-0,02
-3,03;-0,02
-3,03;-0,00999999
-3,02;-0,02
-3,02;-0,02
-3,02;0,72
-3,01;0,73
-3,01;0,73
-3,01;0,74
-3,01;0,74
-3;0,74
-3;0,74
-3;0,74
-2,99;0,74
-2,99;0,74
-2,99;0,74
-2,98;0,74
-2,98;0,74
-2,98;0,74
-2,97;0,74
-2,97;0,74
-2,97;0,73
-2,96;0,74
-2,96;0,73
-2,96;0,74
-2,95;0,75
-2,95;0,74
-2,95;0,74
-2,94;0,74
-2,94;0,74
-2,94;0,74
-2,93;0,74
-2,93;0,75
-2,93;0,74
-2,93;0,74
-2,92;0,74
-2,92;0,73
-2,92;0,75
-2,91;0,74
-2,91;0,74
-2,91;0,74
-2,9;0,74
-2,9;0,74
-2,9;0,74
-2,89;0,74
-2,89;0,74
-2,89;0,74
-2,88;0,74
-2,88;0,74
-2,88;0,74
-2,87;0,74
-2,87;0,74
-2,87;0,74
-2,86;0,74
-2,86;0,74
-2,86;0,74
-2,85;0,74
-2,85;0,74
-2,85;0,74
-2,85;0,75
-2,84;0,74
-2,84;0,74
-2,84;0,74
-2,83;0,74
-2,83;0,74
-2,83;0,74
-2,82;0,74
-2,82;0,75
-2,82;0,74
-2,81;0,74
-2,81;0,74
-2,81;0,74
-2,8;0,73
-2,8;0,74
-2,8;0,74
-2,79;0,74
-2,79;0,74
-2,79;0,74
-2,78;0,74
-2,78;0,74
-2,78;0,74
-2,77;0,74
-2,77;0,74
-2,77;0,74
-2,77;0,74
-2,76;0,74
-2,76;0,74
-2,76;0,75
-2,75;0,74
-2,75;0,74
-2,75;0,74
-2,74;0,74
-2,74;0,74
-2,74;0,74
-2,73;0,74
-2,73;0,75
-2,73;0,74
-2,72;0,74
-2,72;0,74
-2,72;0,74
-2,71;0,74
-2,71;0,74
-2,71;0,75
-2,7;0,73
-2,7;0,74
-2,7;0,74
-2,69;0,74
-2,69;0,74
-2,69;0,74
-2,69;0,74
-2,68;0,74
-2,68;0,74
-2,68;0,74
-2,67;0,73
-2,67;0,74
-2,67;0,74
-2,66;0,74
-2,66;0,74
-2,66;0,74
-2,65;0,73
-2,65;0,74
-2,65;0,74
-2,64;0,74
-2,64;0,74
-2,64;0,74
-2,63;0,74
-2,63;0,74
-2,63;0,74
-2,62;0,74
-2,62;0,74
-2,62;0,74
-2,61;0,74
-2,61;0,74
-2,61;0,73
-2,61;0,74
-2,6;0,73
-2,6;0,74
-2,6;0,74
-2,59;0,73
-2,59;0,73
-2,59;0,74
-2,58;0,75
-2,58;0,74
-2,58;0,74
-2,57;0,74
-2,57;0,74
-2,57;0,74
-2,56;0,74
-2,56;0,74
-2,56;0,74
-2,55;0,73
-2,55;0,74
-2,55;0,73
-2,54;0,74
-2,54;0,74
-2,54;0,74
-2,53;0,74
-2,53;0,74
-2,53;0,74
-2,53;0,74
-2,52;0,74
-2,52;0,74
-2,52;0,74
-2,51;0,74
-2,51;0,74
-2,51;0,74
-2,5;0,74
-2,5;0,74
-2,5;0,74
-2,49;0,75
-2,49;0,74
-2,49;0,74
-2,48;0,74
-2,48;0,74
-2,48;0,74
-2,47;0,74
-2,47;0,74
-2,47;0,74
-2,46;0,74
-2,46;0,74
-2,46;0,74
-2,45;0,74
-2,45;0,74
-2,45;0,74
-2,45;0,74
-2,44;0,75
-2,44;0,74
-2,44;0,75
-2,43;0,74
-2,43;0,74
-2,43;0,74
-2,42;0,74
-2,42;0,74
-2,42;0,74
-2,41;0,74
-2,41;0,74
-2,41;0,74
-2,4;0,74
-2,4;0,74
-2,4;0,74
-2,39;0,74
-2,39;0,74
-2,39;0,74
-2,38;0,74
-2,38;0,74
-2,38;0,74
-2,37;0,74
-2,37;0,74
-2,37;0,74
-2,37;0,73
-2,36;0,73
-2,36;0,74
-2,36;0,74
-2,35;0,74
-2,35;0,74
-2,35;0,74
-2,34;0,75
-2,34;0,74
-2,34;0,74
-2,33;0,74
-2,33;0,74
-2,33;0,74
-2,32;0,74
-2,32;0,74
-2,32;0,75
-2,31;0,74
-2,31;0,74
-2,31;0,74
-2,3;0,74
-2,3;0,74
-2,3;0,74
-2,29;0,74
-2,29;0,74
-2,29;0,75
-2,29;0,74
-2,28;0,73
-2,28;0,74
-2,28;0,74
-2,27;0,74
-2,27;0,74
-2,27;0,74
-2,26;0,74
-2,26;0,74
-2,26;0,74
-2,25;0,74
-2,25;0,74
-2,25;0,74
-2,24;0,74
-2,24;0,74
-2,24;0,74
-2,23;0,74
-2,23;0,74
-2,23;0,73
-2,22;0,74
-2,22;0,74
-2,22;0,74
-2,21;0,74
-2,21;0,74
-2,21;0,74
-2,21;0,74
-2,2;0,74
-2,2;0,74
-2,2;0,74
-2,19;0,74
-2,19;0,74
-2,19;0,74
-2,18;0,74
-2,18;0,74
-2,18;0,73
-2,17;0,74
-2,17;0,74
-2,17;0,74
-2,16;0,74
-2,16;0,74
-2,16;0,74
-2,15;0,74
-2,15;0,74
-2,15;0,74
-2,14;0,74
-2,14;0,74
-2,14;0,74
-2,13;0,74
-2,13;0,74
-2,13;0,74
-2,13;0,74
-2,12;0,73
-2,12;0,74
-2,12;0,73
-2,11;0,75
-2,11;0,74
-2,11;0,74
-2,1;0,74
-2,1;0,74
-2,1;0,74
-2,09;0,74
-2,09;0,74
-2,09;0,74
-2,08;0,74
-2,08;0,74
-2,08;0,73
-2,07;0,74
-2,07;0,75
-2,07;0,74
-2,06;0,74
-2,06;0,74
-2,06;0,74
-2,05;0,74
-2,05;0,74
-2,05;0,74
-2,05;0,74
-2,04;0,74
-2,04;0,74
-2,04;0,74
-2,03;0,74
-2,03;0,74
-2,03;0,74
-2,02;0,74
-2,02;0,74
-2,02;9,54E-04
-2,01;-0,00999999
-2,01;9,54E-04
-2,01;9,54E-04
-2;9,54E-04
-2;-0,00999999
-2;9,54E-04
-1,99;-0,00999999
-1,99;-0,00999999
-1,99;-0,00999999
-1,98;-0,02
-1,98;-0,02
-1,98;-0,00999999
-1,97;-0,00999999
-1,97;-0,00999999
-1,97;-0,02
-1,97;-0,00999999
-1,96;-0,02
-1,96;-0,02
-1,96;-0,02
-1,95;-0,02
-1,95;-0,02
-1,95;-0,00999999
-1,94;-0,02
-1,94;-0,02
-1,94;-0,02
-1,93;-0,02
-1,93;-0,02
-1,93;-0,00999999
-1,92;-0,02
-1,92;-0,02
-1,92;-0,02
-1,91;-0,00999999
-1,91;-0,00999999
-1,91;-0,02
-1,9;-0,00999999
-1,9;-0,00999999
-1,9;-0,02
-1,89;-0,00999999
-1,89;-0,00999999
-1,89;-0,02
-1,89;-0,00999999
-1,88;-0,02
-1,88;-0,02
-1,88;-0,00999999
-1,87;-0,02
-1,87;-0,02
-1,87;-0,00999999
-1,86;-0,00999999
-1,86;-0,00999999
-1,86;-0,02
-1,85;-0,02
-1,85;-0,00999999
-1,85;-0,00999999
-1,84;-0,00999999
-1,84;-0,00999999
-1,84;-0,00999999
-1,83;-0,00999999
-1,83;-0,00999999
-1,83;-0,00999999
-1,82;-0,00999999
-1,82;-0,00999999
-1,82;-0,00999999
-1,81;-0,00999999
-1,81;-0,02
-1,81;-0,00999999
-1,81;-0,00999999
-1,8;-0,02
-1,8;-0,00999999
-1,8;-0,02
-1,79;-0,00999999
-1,79;-0,00999999
-1,79;-0,00999999
-1,78;-0,00999999
-1,78;-0,02
-1,78;-0,00999999
-1,77;-0,00999999
-1,77;-0,00999999
-1,77;-0,00999999
-1,76;-0,00999999
-1,76;-0,00999999
-1,76;-0,00999999
-1,75;-0,02
-1,75;-0,00999999
-1,75;-0,02
-1,74;-0,02
-1,74;-0,02
-1,74;-0,02
-1,73;-0,02
-1,73;-0,02
-1,73;-0,00999999
-1,73;-0,02
-1,72;-0,02
-1,72;-0,00999999
-1,72;-0,00999999
-1,71;-0,02
-1,71;-0,00999999
-1,71;-0,00999999
-1,7;-0,02
-1,7;-0,00999999
-1,7;-0,02
-1,69;-0,02
-1,69;-0,00999999
-1,69;-0,02
-1,68;-0,02
-1,68;-0,00999999
-1,68;-0,02
-1,67;-0,02
-1,67;-0,00999999
-1,67;-0,02
-1,66;-0,02
-1,66;-0,00999999
-1,66;-0,02
-1,65;-0,00999999
-1,65;-0,02
-1,65;-0,02
-1,65;-0,02
-1,64;-0,00999999
-1,64;-0,02
-1,64;-0,02
-1,63;-0,02
-1,63;-0,02
-1,63;-0,02
-1,62;-0,02
-1,62;-0,00999999
-1,62;-0,00999999
-1,61;-0,00999999
-1,61;-0,02
-1,61;-0,00999999
-1,6;-0,00999999
-1,6;-0,02
-1,6;-0,02
-1,59;-0,02
-1,59;-0,02
-1,59;-0,02
-1,58;-0,02
-1,58;-0,02
-1,58;-0,00999999
-1,57;-0,00999999
-1,57;-0,00999999
-1,57;-0,02
-1,57;-0,00999999
-1,56;-0,02
-1,56;-0,00999999
-1,56;-0,02
-1,55;-0,02
-1,55;-0,02
-1,55;-0,02
-1,54;-0,02
-1,54;-0,02
-1,54;-0,00999999
-1,53;-0,00999999
-1,53;-0,02
-1,53;-0,00999999
-1,52;-0,02
-1,52;-0,02
-1,52;-0,00999999
-1,51;-0,00999999
-1,51;-0,02
-1,51;-0,02
-1,5;-0,00999999
-1,5;-0,00999999
-1,5;-0,02
-1,49;-0,02
-1,49;-0,00999999
-1,49;-0,00999999
-1,49;-0,02
-1,48;-0,00999999
-1,48;-0,02
-1,48;-0,02
-1,47;-0,02
-1,47;-0,00999999
-1,47;-0,00999999
-1,46;-0,02
-1,46;-0,02
-1,46;-0,02
-1,45;-0,02
-1,45;-0,02
-1,45;-0,02
-1,44;-0,00999999
-1,44;-0,00999999
-1,44;-0,02
-1,43;-0,00999999
-1,43;-0,00999999
-1,43;-0,00999999
-1,42;-0,00999999
-1,42;-0,00999999
-1,42;-0,00999999
-1,41;-0,02
-1,41;-0,00999999
-1,41;-0,00999999
-1,41;-0,00999999
-1,4;-0,00999999
-1,4;-0,00999999
-1,4;-0,02
-1,39;-0,00999999
-1,39;-0,00999999
-1,39;-0,00999999
-1,38;-0,00999999
-1,38;-0,00999999
-1,38;-0,00999999
-1,37;-0,00999999
-1,37;-0,00999999
-1,37;-0,02
-1,36;-0,00999999
-1,36;-0,02
-1,36;-0,02
-1,35;-0,00999999
-1,35;-0,02
-1,35;-0,02
-1,34;-0,00999999
-1,34;-0,00999999
-1,34;-0,02
-1,33;-0,02
-1,33;-0,00999999
-1,33;-0,02
-1,33;-0,02
-1,32;-0,00999999
-1,32;-0,02
-1,32;-0,02
-1,31;-0,02
-1,31;-0,00999999
-1,31;-0,02
-1,3;-0,02
-1,3;-0,00999999
-1,3;-0,02
-1,29;-0,02
-1,29;-0,00999999
-1,29;-0,00999999
-1,28;-0,02
-1,28;-0,00999999
-1,28;-0,02
-1,27;-0,02
-1,27;-0,00999999
-1,27;-0,00999999
-1,26;-0,02
-1,26;-0,00999999
-1,26;-0,00999999
-1,25;-0,00999999
-1,25;-0,00999999
-1,25;-0,02
-1,25;-0,00999999
-1,24;-0,00999999
-1,24;-0,02
-1,24;-0,00999999
-1,23;-0,02
-1,23;-0,00999999
-1,23;-0,00999999
-1,22;-0,02
-1,22;-0,00999999
-1,22;-0,00999999
-1,21;-0,02
-1,21;-0,00999999
-1,21;-0,02
-1,2;-0,00999999
-1,2;-0,00999999
-1,2;-0,00999999
-1,19;-0,02
-1,19;-0,02
-1,19;-0,00999999
-1,18;-0,00999999
-1,18;-0,02
-1,18;-0,02
-1,17;-0,00999999
-1,17;-0,00999999
-1,17;-0,00999999
-1,17;-0,02
-1,16;-0,02
-1,16;-0,00999999
-1,16;-0,00999999
-1,15;-0,02
-1,15;-0,00999999
-1,15;-0,00999999
-1,14;-0,02
-1,14;-0,02
-1,14;-0,02
-1,13;-0,02
-1,13;-0,00999999
-1,13;-0,00999999
-1,12;-0,02
-1,12;-0,02
-1,12;-0,02
-1,11;-0,00999999
-1,11;-0,02
-1,11;-0,02
-1,1;-0,00999999
-1,1;-0,00999999
-1,1;-0,02
-1,09;-0,00999999
-1,09;-0,00999999
-1,09;-0,00999999
-1,09;-0,00999999
-1,08;-0,02
-1,08;-0,00999999
-1,08;-0,00999999
-1,07;-0,00999999
-1,07;-0,02
-1,07;-0,00999999
-1,06;-0,00999999
-1,06;-0,00999999
-1,06;-0,00999999
-1,05;-0,02
-1,05;-0,00999999
-1,05;-0,00999999
-1,04;-0,00999999
-1,04;-0,02
-1,04;-0,00999999
-1,03;-0,00999999
-1,03;-0,00999999
-1,03;-0,02
-1,02;-0,02
-1,02;-0,00999999
-1,02;-0,02
-1,01;-0,00999999
-1,01;-0,02
-1,01;-0,00999999
-1,01;-0,02
-1;-0,02
-1;-0,00999999
-1;-0,02
-0,99;-0,00999999
-0,99;-0,02
-0,99;-0,02
-0,98;-0,02
-0,98;-0,00999999
-0,98;-0,02
-0,97;-0,00999999
-0,97;-0,00999999
-0,97;-0,00999999
-0,96;-0,00999999
-0,96;-0,00999999
-0,96;-0,02
-0,95;-0,00999999
-0,95;-0,02
-0,95;-0,00999999
-0,94;-0,02
-0,94;-0,00999999
-0,94;-0,00999999
-0,93;-0,02
-0,93;-0,02
-0,93;-0,02
-0,92;-0,02
-0,92;-0,02
-0,92;-0,00999999
-0,92;-0,00999999
-0,91;-0,02
-0,91;-0,02
-0,91;-0,00999999
-0,9;-0,00999999
-0,9;-0,00999999
-0,9;-0,02
-0,89;-0,00999999
-0,89;-0,00999999
-0,89;-0,00999999
-0,88;-0,00999999
-0,88;-0,02
-0,88;-0,00999999
-0,87;-0,00999999
-0,87;-0,00999999
-0,87;-0,02
-0,86;-0,00999999
-0,86;-0,00999999
-0,86;-0,02
-0,85;-0,00999999
-0,85;-0,02
-0,85;-0,00999999
-0,84;-0,02
-0,84;-0,02
-0,84;-0,00999999
-0,84;-0,00999999
-0,83;-0,00999999
-0,83;-0,00999999
-0,83;-0,00999999
-0,82;-0,00999999
-0,82;-0,02
-0,82;-0,02
-0,81;-0,02
-0,81;-0,00999999
-0,81;-0,02
-0,8;-0,02
-0,8;-0,02
-0,8;-0,00999999
-0,79;-0,02
-0,79;-0,00999999
-0,79;-0,00999999
-0,78;-0,02
-0,78;-0,02
-0,78;-0,02
-0,77;-0,02
-0,77;-0,02
-0,77;-0,00999999
-0,76;-0,00999999
-0,76;-0,02
-0,76;-0,00999999
-0,76;-0,02
-0,75;-0,02
-0,75;-0,00999999
-0,75;-0,02
-0,74;-0,02
-0,74;-0,00999999
-0,74;-0,00999999
-0,73;-0,02
-0,73;-0,02
-0,73;-0,00999999
-0,72;-0,00999999
-0,72;-0,00999999
-0,72;-0,00999999
-0,71;-0,02
-0,71;-0,02
-0,71;-0,00999999
-0,7;-0,00999999
-0,7;-0,00999999
-0,7;-0,02
-0,69;-0,02
-0,69;-0,00999999
-0,69;-0,00999999
-0,68;-0,00999999
-0,68;-0,00999999
-0,68;-0,00999999
-0,68;-0,00999999
-0,67;-0,00999999
-0,67;-0,00999999
-0,67;-0,00999999
-0,66;-0,02
-0,66;-0,00999999
-0,66;-0,00999999
-0,65;-0,00999999
-0,65;-0,00999999
-0,65;-0,00999999
-0,64;-0,00999999
-0,64;-0,02
-0,64;-0,02
-0,63;-0,00999999
-0,63;-0,00999999
-0,63;-0,02
-0,62;-0,00999999
-0,62;-0,02
-0,62;-0,00999999
-0,61;-0,02
-0,61;-0,00999999
-0,61;-0,02
-0,6;-0,02
-0,6;-0,02
-0,6;-0,00999999
-0,6;-0,02
-0,59;-0,00999999
-0,59;-0,02
-0,59;-0,00999999
-0,58;-0,00999999
-0,58;-0,02
-0,58;-0,02
-0,57;-0,00999999
-0,57;-0,00999999
-0,57;-0,00999999
-0,56;-0,02
-0,56;-0,00999999
-0,56;-0,02
-0,55;-0,02
-0,55;-0,00999999
-0,55;-0,02
-0,54;-0,00999999
-0,54;-0,00999999
-0,54;-0,02
-0,53;-0,02
-0,53;-0,02
-0,53;-0,00999999
-0,52;-0,00999999
-0,52;-0,02
-0,52;-0,00999999
-0,52;-0,00999999
-0,51;-0,00999999
-0,51;-0,00999999
-0,51;-0,00999999
-0,5;-0,02
-0,5;-0,00999999
-0,5;-0,02
-0,49;-0,00999999
-0,49;-0,00999999
-0,49;-0,00999999
-0,48;-0,00999999
-0,48;-0,02
-0,48;-0,00999999
-0,47;-0,02
-0,47;-0,02
-0,47;-0,02
-0,46;-0,02
-0,46;-0,00999999
-0,46;-0,02
-0,45;-0,00999999
-0,45;-0,00999999
-0,45;-0,02
-0,44;-0,02
-0,44;-0,00999999
-0,44;-0,00999999
-0,44;-0,00999999
-0,43;-0,02
-0,43;-0,00999999
-0,43;-0,02
-0,42;-0,02
-0,42;-0,00999999
-0,42;-0,02
-0,41;-0,00999999
-0,41;-0,00999999
-0,41;-0,02
-0,4;-0,02
-0,4;-0,00999999
-0,4;-0,00999999
-0,39;-0,02
-0,39;-0,00999999
-0,39;-0,00999999
-0,38;-0,00999999
-0,38;-0,02
-0,38;-0,00999999
-0,37;-0,02
-0,37;-0,00999999
-0,37;-0,02
-0,36;-0,02
-0,36;-0,02
-0,36;-0,00999999
-0,36;-0,00999999
-0,35;-0,02
-0,35;-0,02
-0,35;-0,02
-0,34;-0,02
-0,34;-0,02
-0,34;-0,00999999
-0,33;-0,00999999
-0,33;-0,02
-0,33;-0,00999999
-0,32;-0,00999999
-0,32;-0,00999999
-0,32;-0,02
-0,31;-0,02
-0,31;-0,00999999
-0,31;-0,00999999
-0,3;-0,00999999
-0,3;-0,00999999
-0,3;-0,02
-0,29;-0,02
-0,29;-0,02
-0,29;-0,00999999
-0,28;-0,02
-0,28;-0,02
-0,28;-0,02
-0,28;-0,00999999
-0,27;-0,02
-0,27;-0,02
-0,27;-0,00999999
-0,26;-0,02
-0,26;-0,00999999
-0,26;-0,00999999
-0,25;-0,00999999
-0,25;-0,00999999
-0,25;-0,00999999
-0,24;-0,02
-0,24;-0,02
-0,24;-0,02
-0,23;-0,02
-0,23;-0,00999999
-0,23;-0,02
-0,22;-0,00999999
-0,22;-0,02
-0,22;-0,00999999
-0,21;-0,02
-0,21;-0,02
-0,21;-0,02
-0,2;-0,00999999
-0,2;-0,00999999
-0,2;-0,02
-0,2;-0,02
-0,19;-0,00999999
-0,19;-0,00999999
-0,19;-0,02
-0,18;-0,00999999
-0,18;-0,00999999
-0,18;-0,00999999
-0,17;-0,00999999
-0,17;-0,00999999
-0,17;-0,02
-0,16;-0,00999999
-0,16;-0,00999999
-0,16;-0,02
-0,15;-0,02
-0,15;-0,00999999
-0,15;-0,02
-0,14;-0,00999999
-0,14;-0,00999999
-0,14;-0,00999999
-0,13;-0,00999999
-0,13;-0,00999999
-0,13;-0,02
-0,12;-0,00999999
-0,12;-0,00999999
-0,12;-0,02
-0,12;-0,00999999
-0,11;-0,00999999
-0,11;-0,00999999
-0,11;-0,02
-0,1;-0,02
-0,1;-0,02
-0,1;-0,00999999
-0,09;-0,02
-0,09;-0,02
-0,09;-0,02
-0,08;-0,02
-0,08;-0,02
-0,08;-0,02
-0,07;-0,00999999
-0,07;-0,02
-0,07;-0,00999999
-0,06;-0,02
-0,06;-0,00999999
-0,06;-0,00999999
-0,05;-0,02
-0,05;-0,02
-0,05;-0,02
-0,04;-0,00999999
-0,04;-0,00999999
-0,04;-0,00999999
-0,04;-0,00999999
-0,03;-0,02
-0,03;-0,02
-0,03;-0,02
-0,02;-0,02
-0,02;-0,02
-0,02;-0,00999999
-0,01;-0,02
-0,01;-0,02
-0,01;-0,02
0;0,72
0;0,73
0;0,73
0,01;0,73
0,01;0,74
0,01;0,74
0,02;0,74
0,02;0,74
0,02;0,74
0,03;0,74
0,03;0,74
0,03;0,74
0,04;0,74
0,04;0,74
0,04;0,74
0,04;0,75
0,05;0,74
0,05;0,74
0,05;0,74
0,06;0,74
0,06;0,74
0,06;0,74
0,07;0,74
0,07;0,74
0,07;0,74
0,08;0,74
0,08;0,74
0,08;0,74
0,09;0,74
0,09;0,73
0,09;0,75
0,1;0,74
0,1;0,74
0,1;0,74
0,11;0,74
0,11;0,74
0,11;0,74
0,12;0,74
0,12;0,75
0,12;0,74
0,12;0,74
0,13;0,73
0,13;0,74
0,13;0,74
0,14;0,74
0,14;0,74
0,14;0,74
0,15;0,74
0,15;0,74
0,15;0,75
0,16;0,74
0,16;0,74
0,16;0,74
0,17;0,74
0,17;0,74
0,17;0,74
0,18;0,74
0,18;0,74
0,18;0,73
0,19;0,74
0,19;0,74
0,19;0,74
0,2;0,74
0,2;0,74
0,2;0,74
0,2;0,74
0,21;0,74
0,21;0,74
0,21;0,74
0,22;0,74
0,22;0,75
0,22;0,75
0,23;0,74
0,23;0,74
0,23;0,75
0,24;0,74
0,24;0,74
0,24;0,74
0,25;0,73
0,25;0,74
0,25;0,73
0,26;0,74
0,26;0,74
0,26;0,74
0,27;0,74
0,27;0,74
0,27;0,75
0,28;0,74
0,28;0,74
0,28;0,74
0,28;0,74
0,29;0,73
0,29;0,74
0,29;0,74
0,3;0,74
0,3;0,74
0,3;0,74
0,31;0,74
0,31;0,75
0,31;0,74
0,32;0,74
0,32;0,74
0,32;0,74
0,33;0,74
0,33;0,74
0,33;0,74
0,34;0,74
0,34;0,74
0,34;0,74
0,35;0,74
0,35;0,74
0,35;0,74
0,36;0,74
0,36;0,74
0,36;0,74
0,36;0,74
0,37;0,75
0,37;0,74
0,37;0,74
0,38;0,74
0,38;0,74
0,38;0,74
0,39;0,74
0,39;0,74
0,39;0,74
0,4;0,73
0,4;0,73
0,4;0,74
0,41;0,74
0,41;0,74
0,41;0,74
0,42;0,74
0,42;0,74
0,42;0,74
0,43;0,74
0,43;0,74
0,43;0,74
0,44;0,73
0,44;0,74
0,44;0,74
0,44;0,74
0,45;0,74
0,45;0,74
0,45;0,74
0,46;0,74
0,46;0,74
0,46;0,74
0,47;0,74
0,47;0,74
0,47;0,74
0,48;0,73
0,48;0,74
0,48;0,74
0,49;0,74
0,49;0,74
0,49;0,74
0,5;0,74
0,5;0,74
0,5;0,74
0,51;0,73
0,51;0,74
0,51;0,73
0,52;0,74
0,52;0,74
0,52;0,74
0,52;0,74
0,53;0,74
0,53;0,75
0,53;0,74
0,54;0,74
0,54;0,74
0,54;0,74
0,55;0,74
0,55;0,74
0,55;0,74
0,56;0,74
0,56;0,74
0,56;0,74
0,57;0,74
0,57;0,74
0,57;0,75
0,58;0,75
0,58;0,74
0,58;0,74
0,59;0,74
0,59;0,73
0,59;0,74
0,6;0,74
0,6;0,74
0,6;0,74
0,6;0,74
0,61;0,74
0,61;0,74
0,61;0,73
0,62;0,74
0,62;0,74
0,62;0,74
0,63;0,74
0,63;0,74
0,63;0,74
0,64;0,74
0,64;0,74
0,64;0,74
0,65;0,75
0,65;0,74
0,65;0,74
0,66;0,75
0,66;0,74
0,66;0,74
0,67;0,75
0,67;0,74
0,67;0,74
0,68;0,74
0,68;0,74
0,68;0,74
0,68;0,74
0,69;0,74
0,69;0,74
0,69;0,75
0,7;0,74
0,7;0,74
0,7;0,74
0,71;0,74
0,71;0,74
0,71;0,74
0,72;0,74
0,72;0,75
0,72;0,74
0,73;0,74
0,73;0,74
0,73;0,74
0,74;0,74
0,74;0,74
0,74;0,74
0,75;0,74
0,75;0,74
0,75;0,74
0,76;0,74
0,76;0,74
0,76;0,74
0,76;0,74
0,77;0,74
0,77;0,75
0,77;0,74
0,78;0,74
0,78;0,75
0,78;0,75
0,79;0,74
0,79;0,74
0,79;0,74
0,8;0,74
0,8;0,73
0,8;0,73
0,81;0,74
0,81;0,74
0,81;0,74
0,82;0,74
0,82;0,75
0,82;0,74
0,83;0,74
0,83;0,74
0,83;0,73
0,84;0,74
0,84;0,74
0,84;0,74
0,84;0,74
0,85;0,74
0,85;0,74
0,85;0,75
0,86;0,74
0,86;0,74
0,86;0,75
0,87;0,74
0,87;0,74
0,87;0,74
0,88;0,74
0,88;0,74
0,88;0,74
0,89;0,74
0,89;0,74
0,89;0,73
0,9;0,74
0,9;0,74
0,9;0,74
0,91;0,74
0,91;0,74
0,91;0,74
0,92;0,74
0,92;0,74
0,92;0,74
0,92;0,73
0,93;0,74
0,93;0,74
0,93;0,74
0,94;0,74
0,94;0,74
0,94;0,75
0,95;0,74
0,95;0,74
0,95;0,74
0,96;0,74
0,96;0,74
0,96;0,74
0,97;0,74
0,97;0,73
0,97;0,73
0,98;0,74
0,98;0,75
0,98;0,74
0,99;0,74
0,99;0,74
0,99;0,74
1;0,73
1;9,54E-04
1;9,54E-04
1,01;9,54E-04
1,01;-0,00999999
1,01;9,54E-04
1,01;-0,00999999
1,02;-0,00999999
1,02;-0,00999999
1,02;-0,00999999
1,03;-0,00999999
1,03;-0,02
1,03;-0,02
1,04;-0,00999999
1,04;-0,02
1,04;-0,00999999
1,05;-0,02
1,05;-0,00999999
1,05;-0,02
1,06;-0,00999999
1,06;-0,00999999
1,06;-0,02
1,07;-0,02
1,07;-0,02
1,07;-0,02
1,08;-0,00999999
1,08;-0,00999999
1,08;-0,02
1,09;-0,02
1,09;-0,02
1,09;-0,02
1,09;-0,00999999
1,1;-0,02
1,1;-0,00999999
1,1;-0,00999999
1,11;-0,02
1,11;-0,02
1,11;-0,02
1,12;-0,00999999
1,12;-0,02
1,12;-0,00999999
1,13;-0,00999999
1,13;-0,02
1,13;-0,00999999
1,14;-0,00999999
1,14;-0,00999999
1,14;-0,02
1,15;-0,00999999
1,15;-0,02
1,15;-0,02
1,16;-0,02
1,16;-0,02
1,16;-0,00999999
1,17;-0,00999999
1,17;-0,02
1,17;-0,02
1,17;-0,02
1,18;-0,02
1,18;-0,00999999
1,18;-0,00999999
1,19;-0,02
1,19;-0,02
1,19;-0,02
1,2;-0,00999999
1,2;-0,02
1,2;-0,02
1,21;-0,02
1,21;-0,02
1,21;-0,00999999
1,22;-0,00999999
1,22;-0,02
1,22;-0,00999999
1,23;-0,02
1,23;-0,00999999
1,23;-0,02
1,24;-0,02
1,24;-0,02
1,24;-0,02
1,25;-0,02
1,25;-0,02
1,25;-0,02
1,25;-0,00999999
1,26;-0,02
1,26;-0,02
1,26;-0,00999999
1,27;-0,02
1,27;-0,00999999
1,27;-0,02
1,28;-0,00999999
1,28;-0,00999999
1,28;-0,02
1,29;-0,02
1,29;-0,02
1,29;-0,02
1,3;-0,02
1,3;-0,02
1,3;-0,02
1,31;-0,02
1,31;-0,02
1,31;-0,02
1,32;-0,00999999
1,32;-0,02
1,32;-0,00999999
1,33;-0,00999999
1,33;-0,00999999
1,33;-0,00999999
1,33;-0,00999999
1,34;-0,02
1,34;-0,02
1,34;-0,02
1,35;-0,02
1,35;-0,00999999
1,35;-0,02
1,36;-0,02
1,36;-0,00999999
1,36;-0,00999999
1,37;-0,02
1,37;-0,02
1,37;-0,02
1,38;-0,02
1,38;-0,02
1,38;-0,02
1,39;-0,02
1,39;-0,00999999
1,39;-0,02
1,4;-0,00999999
1,4;-0,00999999
1,4;-0,02
1,41;-0,00999999
1,41;-0,02
1,41;-0,00999999
1,41;-0,00999999
1,42;-0,00999999
1,42;-0,00999999
1,42;-0,00999999
1,43;-0,02
1,43;-0,02
1,43;-0,00999999
1,44;-0,00999999
1,44;-0,00999999
1,44;-0,02
1,45;-0,02
1,45;-0,00999999
1,45;-0,02
1,46;-0,02
1,46;-0,02
1,46;-0,02
1,47;-0,00999999
1,47;-0,00999999
1,47;-0,02
1,48;-0,02
1,48;-0,00999999
1,48;-0,00999999
1,49;-0,00999999
1,49;-0,02
1,49;-0,02
1,49;-0,02
1,5;-0,00999999
1,5;-0,02
1,5;-0,02
1,51;-0,02
1,51;-0,02
1,51;-0,02
1,52;-0,00999999
1,52;-0,00999999
1,52;-0,00999999
1,53;-0,02
1,53;-0,00999999
1,53;-0,00999999
1,54;-0,02
1,54;-0,00999999
1,54;-0,00999999
1,55;-0,02
1,55;-0,02
1,55;-0,02
1,56;-0,00999999
1,56;-0,02
1,56;-0,02
1,57;-0,00999999
1,57;-0,03
1,57;-0,02
1,57;-0,02
1,58;-0,02
1,58;-0,00999999
1,58;-0,00999999
1,59;-0,02
1,59;-0,02
1,59;-0,02
1,6;-0,02
1,6;-0,02
1,6;-0,00999999
1,61;-0,02
1,61;-0,02
1,61;-0,00999999
1,62;-0,02
1,62;-0,02
1,62;-0,02
1,63;-0,00999999
1,63;-0,00999999
1,63;-0,00999999
1,64;-0,02
1,64;-0,00999999
1,64;-0,00999999
1,65;-0,02
1,65;-0,02
1,65;-0,02
1,65;-0,02
1,66;-0,02
1,66;-0,02
1,66;-0,02
