Excel/Técnica de sondeo/Tiempos ADC Sondeo.CSV

Model,TBS2104;
Firmware Version,v1,26,0;
;
Point Format,Y;
Horizontal Units,S;
Horizontal Scale,0,0004;
Sample Interval,3,2e-06;
Filter Frequency,1e+08;
Record Length,2000;
Gating,0,0% to 100,0%;
Probe Attenuation,1;
Vertical Units,V;
Vertical Offset,0;
Vertical Scale,0,05;
Label,;
Tiempo (ms);Voltaje (V)
-3,22;0,00
-3,21;0,01
-3,21;0,01
-3,21;0,00
-3,20;0,00
-3,20;0,00
-3,20;0,01
-3,19;0,01
-3,19;0,00
-3,19;0,01
-3,18;0,01
-3,18;0,00
-3,18;0,01
-3,17;0,00
-3,17;0,01
-3,17;0,01
-3,17;0,00
-3,16;0,01
-3,16;0,01
-3,16;0,00
-3,15;0,01
-3,15;0,00
-3,15;0,00
-3,14;0,01
-3,14;0,00
-3,14;0,01
-3,13;0,00
-3,13;0,00
-3,13;0,01
-3,12;0,00
-3,12;0,01
-3,12;0,01
-3,11;0,00
-3,11;0,01
-3,11;0,01
-3,10;0,00
-3,10;0,01
-3,10;0,00
-3,09;0,00
-3,09;0,01
-3,09;0,00
-3,09;0,01
-3,08;0,01
-3,08;0,00
-3,08;0,01
-3,07;0,00
-3,07;0,00
-3,07;0,01
-3,06;0,00
-3,06;0,01
-3,06;0,01
-3,05;0,00
-3,05;0,01
-3,05;0,02
-3,04;0,04
-3,04;0,06
-3,04;0,07
-3,03;0,08
-3,03;0,10
-3,03;0,10
-3,02;0,12
-3,02;0,12
-3,02;0,13
-3,01;0,14
-3,01;0,14
-3,01;0,15
-3,01;0,16
-3,00;0,15
-3,00;0,16
-3,00;0,16
-2,99;0,17
-2,99;0,18
-2,99;0,17
-2,98;0,17
-2,98;0,18
-2,98;0,18
-2,97;0,19
-2,97;0,19
-2,97;0,19
-2,96;0,19
-2,96;0,19
-2,96;0,19
-2,95;0,20
-2,95;0,19
-2,95;0,19
-2,94;0,19
-2,94;0,20
-2,94;0,20
-2,93;0,19
-2,93;0,19
-2,93;0,20
-2,93;0,19
-2,92;0,20
-2,92;0,19
-2,92;0,20
-2,91;0,20
-2,91;0,19
-2,91;0,20
-2,90;0,20
-2,90;0,20
-2,90;0,20
-2,89;0,19
-2,89;0,20
-2,89;0,20
-2,88;0,20
-2,88;0,20
-2,88;0,20
-2,87;0,20
-2,87;0,20
-2,87;0,19
-2,86;0,20
-2,86;0,21
-2,86;0,20
-2,85;0,20
-2,85;0,20
-2,85;0,20
-2,85;0,20
-2,84;0,20
-2,84;0,20
-2,84;0,21
-2,83;0,20
-2,83;0,20
-2,83;0,20
-2,82;0,20
-2,82;0,20
-2,82;0,20
-2,81;0,20
-2,81;0,21
-2,81;0,20
-2,80;0,20
-2,80;0,20
-2,80;0,20
-2,79;0,20
-2,79;0,20
-2,79;0,20
-2,78;0,20
-2,78;0,20
-2,78;0,20
-2,77;0,20
-2,77;0,20
-2,77;0,20
-2,77;0,20
-2,76;0,20
-2,76;0,20
-2,76;0,20
-2,75;0,20
-2,75;0,20
-2,75;0,20
-2,74;0,20
-2,74;0,19
-2,74;0,20
-2,73;0,20
-2,73;0,20
-2,73;0,20
-2,72;0,20
-2,72;0,20
-2,72;0,21
-2,71;0,20
-2,71;0,20
-2,71;0,21
-2,70;0,20
-2,70;0,20
-2,70;0,20
-2,69;0,20
-2,69;0,21
-2,69;0,20
-2,69;0,20
-2,68;0,20
-2,68;0,20
-2,68;0,21
-2,67;0,20
-2,67;0,20
-2,67;0,21
-2,66;0,20
-2,66;0,20
-2,66;0,20
-2,65;0,20
-2,65;0,21
-2,65;0,20
-2,64;0,20
-2,64;0,20
-2,64;0,20
-2,63;0,20
-2,63;0,20
-2,63;0,20
-2,62;0,21
-2,62;0,20
-2,62;0,20
-2,61;0,20
-2,61;0,20
-2,61;0,20
-2,61;0,20
-2,60;0,20
-2,60;0,21
-2,60;0,20
-2,59;0,20
-2,59;0,20
-2,59;0,20
-2,58;0,20
-2,58;0,20
-2,58;0,20
-2,57;0,21
-2,57;0,20
-2,57;0,20
-2,56;0,20
-2,56;0,20
-2,56;0,20
-2,55;0,20
-2,55;0,20
-2,55;0,21
-2,54;0,20
-2,54;0,20
-2,54;0,20
-2,53;0,20
-2,53;0,21
-2,53;0,20
-2,53;0,20
-2,52;0,21
-2,52;0,20
-2,52;0,20
-2,51;0,20
-2,51;0,20
-2,51;0,20
-2,50;0,20
-2,50;0,20
-2,50;0,20
-2,49;0,20
-2,49;0,20
-2,49;0,20
-2,48;0,20
-2,48;0,20
-2,48;0,20
-2,47;0,20
-2,47;0,21
-2,47;0,20
-2,46;0,20
-2,46;0,20
-2,46;0,20
-2,45;0,20
-2,45;0,20
-2,45;0,20
-2,45;0,21
-2,44;0,20
-2,44;0,20
-2,44;0,20
-2,43;0,20
-2,43;0,20
-2,43;0,20
-2,42;0,20
-2,42;0,21
-2,42;0,20
-2,41;0,20
-2,41;0,20
-2,41;0,20
-2,40;0,20
-2,40;0,20
-2,40;0,20
-2,39;0,20
-2,39;0,20
-2,39;0,20
-2,38;0,20
-2,38;0,20
-2,38;0,20
-2,37;0,20
-2,37;0,20
-2,37;0,20
-2,37;0,19
-2,36;0,20
-2,36;0,20
-2,36;0,20
-2,35;0,20
-2,35;0,20
-2,35;0,20
-2,34;0,20
-2,34;0,20
-2,34;0,20
-2,33;0,21
-2,33;0,20
-2,33;0,20
-2,32;0,19
-2,32;0,20
-2,32;0,20
-2,31;0,20
-2,31;0,20
-2,31;0,20
-2,30;0,20
-2,30;0,20
-2,30;0,20
-2,29;0,20
-2,29;0,20
-2,29;0,20
-2,29;0,20
-2,28;0,20
-2,28;0,20
-2,28;0,20
-2,27;0,20
-2,27;0,20
-2,27;0,20
-2,26;0,20
-2,26;0,20
-2,26;0,20
-2,25;0,20
-2,25;0,21
-2,25;0,20
-2,24;0,20
-2,24;0,21
-2,24;0,20
-2,23;0,20
-2,23;0,20
-2,23;0,20
-2,22;0,20
-2,22;0,20
-2,22;0,20
-2,21;0,20
-2,21;0,20
-2,21;0,20
-2,21;0,20
-2,20;0,20
-2,20;0,21
-2,20;0,20
-2,19;0,20
-2,19;0,20
-2,19;0,20
-2,18;0,20
-2,18;0,20
-2,18;0,20
-2,17;0,20
-2,17;0,20
-2,17;0,20
-2,16;0,20
-2,16;0,20
-2,16;0,20
-2,15;0,20
-2,15;0,20
-2,15;0,21
-2,14;0,19
-2,14;0,20
-2,14;0,20
-2,13;0,20
-2,13;0,20
-2,13;0,19
-2,13;0,20
-2,12;0,20
-2,12;0,20
-2,12;0,20
-2,11;0,20
-2,11;0,20
-2,11;0,20
-2,10;0,20
-2,10;0,20
-2,10;0,20
-2,09;0,20
-2,09;0,20
-2,09;0,20
-2,08;0,20
-2,08;0,20
-2,08;0,19
-2,07;0,20
-2,07;0,21
-2,07;0,20
-2,06;0,20
-2,06;0,20
-2,06;0,20
-2,05;0,20
-2,05;0,20
-2,05;0,20
-2,05;0,21
-2,04;0,20
-2,04;0,20
-2,04;0,20
-2,03;0,20
-2,03;0,20
-2,03;0,20
-2,02;0,20
-2,02;0,21
-2,02;0,20
-2,01;0,20
-2,01;0,20
-2,01;0,20
-2,00;0,21
-2,00;0,20
-2,00;0,20
-1,99;0,21
-1,99;0,20
-1,99;0,20
-1,98;0,20
-1,98;0,20
-1,98;0,20
-1,97;0,20
-1,97;0,20
-1,97;0,21
-1,97;0,20
-1,96;0,20
-1,96;0,20
-1,96;0,20
-1,95;0,21
-1,95;0,19
-1,95;0,20
-1,94;0,20
-1,94;0,20
-1,94;0,20
-1,93;0,20
-1,93;0,20
-1,93;0,21
-1,92;0,20
-1,92;0,20
-1,92;0,20
-1,91;0,20
-1,91;0,20
-1,91;0,20
-1,90;0,20
-1,90;0,21
-1,90;0,20
-1,89;0,20
-1,89;0,20
-1,89;0,20
-1,89;0,20
-1,88;0,20
-1,88;0,20
-1,88;0,20
-1,87;0,20
-1,87;0,20
-1,87;0,20
-1,86;0,20
-1,86;0,20
-1,86;0,20
-1,85;0,20
-1,85;0,21
-1,85;0,20
-1,84;0,20
-1,84;0,20
-1,84;0,20
-1,83;0,20
-1,83;0,20
-1,83;0,20
-1,82;0,20
-1,82;0,20
-1,82;0,20
-1,81;0,20
-1,81;0,20
-1,81;0,20
-1,81;0,20
-1,80;0,20
-1,80;0,21
-1,80;0,20
-1,79;0,20
-1,79;0,20
-1,79;0,20
-1,78;0,21
-1,78;0,20
-1,78;0,20
-1,77;0,20
-1,77;0,20
-1,77;0,20
-1,76;0,20
-1,76;0,20
-1,76;0,20
-1,75;0,20
-1,75;0,20
-1,75;0,20
-1,74;0,20
-1,74;0,20
-1,74;0,20
-1,73;0,20
-1,73;0,20
-1,73;0,20
-1,73;0,20
-1,72;0,20
-1,72;0,20
-1,72;0,21
-1,71;0,21
-1,71;0,20
-1,71;0,20
-1,70;0,20
-1,70;0,20
-1,70;0,20
-1,69;0,20
-1,69;0,20
-1,69;0,21
-1,68;0,20
-1,68;0,20
-1,68;0,20
-1,67;0,20
-1,67;0,21
-1,67;0,20
-1,66;0,20
-1,66;0,21
-1,66;0,20
-1,65;0,21
-1,65;0,20
-1,65;0,20
-1,65;0,20
-1,64;0,20
-1,64;0,20
-1,64;0,20
-1,63;0,20
-1,63;0,21
-1,63;0,20
-1,62;0,20
-1,62;0,20
-1,62;0,20
-1,61;0,20
-1,61;0,20
-1,61;0,20
-1,60;0,21
-1,60;0,20
-1,60;0,20
-1,59;0,20
-1,59;0,20
-1,59;0,20
-1,58;0,20
-1,58;0,20
-1,58;0,20
-1,57;0,20
-1,57;0,20
-1,57;0,20
-1,57;0,20
-1,56;0,20
-1,56;0,20
-1,56;0,20
-1,55;0,21
-1,55;0,20
-1,55;0,20
-1,54;0,20
-1,54;0,20
-1,54;0,21
-1,53;0,20
-1,53;0,20
-1,53;0,20
-1,52;0,20
-1,52;0,20
-1,52;0,20
-1,51;0,20
-1,51;0,20
-1,51;0,20
-1,50;0,20
-1,50;0,21
-1,50;0,20
-1,49;0,20
-1,49;0,21
-1,49;0,20
-1,49;0,20
-1,48;0,20
-1,48;0,20
-1,48;0,21
-1,47;0,20
-1,47;0,20
-1,47;0,21
-1,46;0,20
-1,46;0,20
-1,46;0,20
-1,45;0,20
-1,45;0,21
-1,45;0,20
-1,44;0,20
-1,44;0,21
-1,44;0,20
-1,43;0,20
-1,43;0,20
-1,43;0,20
-1,42;0,20
-1,42;0,20
-1,42;0,20
-1,41;0,21
-1,41;0,20
-1,41;0,20
-1,41;0,20
-1,40;0,20
-1,40;0,21
-1,40;0,20
-1,39;0,20
-1,39;0,21
-1,39;0,20
-1,38;0,20
-1,38;0,20
-1,38;0,20
-1,37;0,20
-1,37;0,20
-1,37;0,20
-1,36;0,21
-1,36;0,20
-1,36;0,20
-1,35;0,20
-1,35;0,20
-1,35;0,21
-1,34;0,20
-1,34;0,20
-1,34;0,21
-1,33;0,20
-1,33;0,20
-1,33;0,20
-1,33;0,20
-1,32;0,21
-1,32;0,20
-1,32;0,20
-1,31;0,21
-1,31;0,20
-1,31;0,20
-1,30;0,20
-1,30;0,20
-1,30;0,21
-1,29;0,20
-1,29;0,20
-1,29;0,20
-1,28;0,20
-1,28;0,20
-1,28;0,19
-1,27;0,20
-1,27;0,21
-1,27;0,20
-1,26;0,20
-1,26;0,20
-1,26;0,20
-1,25;0,20
-1,25;0,20
-1,25;0,20
-1,25;0,20
-1,24;0,20
-1,24;0,20
-1,24;0,20
-1,23;0,20
-1,23;0,20
-1,23;0,20
-1,22;0,20
-1,22;0,21
-1,22;0,20
-1,21;0,20
-1,21;0,20
-1,21;0,20
-1,20;0,20
-1,20;0,20
-1,20;0,20
-1,19;0,21
-1,19;0,20
-1,19;0,20
-1,18;0,20
-1,18;0,20
-1,18;0,20
-1,17;0,20
-1,17;0,20
-1,17;0,21
-1,17;0,20
-1,16;0,20
-1,16;0,20
-1,16;0,20
-1,15;0,21
-1,15;0,19
-1,15;0,20
-1,14;0,20
-1,14;0,20
-1,14;0,20
-1,13;0,20
-1,13;0,20
-1,13;0,20
-1,12;0,20
-1,12;0,20
-1,12;0,20
-1,11;0,20
-1,11;0,20
-1,11;0,20
-1,10;0,20
-1,10;0,21
-1,10;0,19
-1,09;0,20
-1,09;0,20
-1,09;0,20
-1,09;0,20
-1,08;0,20
-1,08;0,20
-1,08;0,20
-1,07;0,20
-1,07;0,20
-1,07;0,20
-1,06;0,20
-1,06;0,20
-1,06;0,20
-1,05;0,20
-1,05;0,21
-1,05;0,20
-1,04;0,20
-1,04;0,20
-1,04;0,18
-1,03;0,17
-1,03;0,15
-1,03;0,14
-1,02;0,13
-1,02;0,11
-1,02;0,11
-1,01;0,10
-1,01;0,09
-1,01;0,08
-1,01;0,08
-1,00;0,07
-1,00;0,07
-1,00;0,05
-0,99;0,05
-0,99;0,05
-0,99;0,04
-0,98;0,04
-0,98;0,04
-0,98;0,04
-0,97;0,04
-0,97;0,03
-0,97;0,03
-0,96;0,03
-0,96;0,02
-0,96;0,02
-0,95;0,02
-0,95;0,02
-0,95;0,02
-0,94;0,01
-0,94;0,02
-0,94;0,02
-0,93;0,01
-0,93;0,01
-0,93;0,01
-0,92;0,01
-0,92;0,01
-0,92;0,01
-0,92;0,01
-0,91;0,02
-0,91;0,01
-0,91;0,01
-0,90;0,01
-0,90;0,01
-0,90;0,01
-0,89;0,00
-0,89;0,01
-0,89;0,01
-0,88;0,01
-0,88;0,01
-0,88;0,01
-0,87;0,01
-0,87;0,01
-0,87;0,00
-0,86;0,01
-0,86;0,01
-0,86;0,00
-0,85;0,00
-0,85;0,00
-0,85;0,00
-0,84;0,01
-0,84;0,00
-0,84;0,01
-0,84;0,01
-0,83;0,00
-0,83;0,00
-0,83;0,01
-0,82;0,00
-0,82;0,01
-0,82;0,00
-0,81;0,00
-0,81;0,01
-0,81;0,00
-0,80;0,01
-0,80;0,01
-0,80;0,00
-0,79;0,01
-0,79;0,00
-0,79;0,00
-0,78;0,01
-0,78;0,00
-0,78;0,00
-0,77;0,00
-0,77;0,00
-0,77;0,00
-0,76;0,01
-0,76;0,00
-0,76;0,01
-0,76;0,00
-0,75;0,00
-0,75;0,01
-0,75;0,00
-0,74;0,01
-0,74;0,01
-0,74;0,00
-0,73;0,01
-0,73;0,00
-0,73;0,00
-0,72;0,01
-0,72;0,00
-0,72;0,01
-0,71;0,01
-0,71;0,00
-0,71;0,01
-0,70;0,00
-0,70;0,01
-0,70;0,01
-0,69;0,00
-0,69;0,01
-0,69;0,00
-0,68;0,01
-0,68;0,01
-0,68;0,00
-0,68;0,01
-0,67;0,00
-0,67;0,00
-0,67;0,01
-0,66;0,00
-0,66;0,00
-0,66;0,01
-0,65;0,00
-0,65;0,01
-0,65;0,01
-0,64;0,00
-0,64;0,01
-0,64;0,00
-0,63;0,01
-0,63;0,01
-0,63;0,00
-0,62;0,01
-0,62;0,01
-0,62;0,00
-0,61;0,01
-0,61;0,00
-0,61;0,00
-0,60;0,01
-0,60;0,01
-0,60;0,01
-0,60;0,01
-0,59;0,00
-0,59;0,01
-0,59;0,01
-0,58;0,00
-0,58;0,01
-0,58;0,01
-0,57;0,00
-0,57;0,01
-0,57;0,00
-0,56;0,01
-0,56;0,01
-0,56;0,00
-0,55;0,01
-0,55;0,01
-0,55;0,00
-0,54;0,01
-0,54;0,00
-0,54;0,01
-0,53;0,01
-0,53;0,00
-0,53;0,01
-0,52;0,01
-0,52;0,00
-0,52;0,01
-0,52;0,00
-0,51;0,00
-0,51;0,01
-0,51;0,00
-0,50;0,01
-0,50;0,01
-0,50;0,00
-0,49;0,01
-0,49;0,01
-0,49;0,00
-0,48;0,01
-0,48;0,00
-0,48;0,01
-0,47;0,01
-0,47;0,00
-0,47;0,01
-0,46;0,00
-0,46;0,00
-0,46;0,01
-0,45;0,00
-0,45;0,01
-0,45;0,01
-0,44;0,00
-0,44;0,01
-0,44;0,01
-0,44;0,00
-0,43;0,01
-0,43;0,00
-0,43;0,01
-0,42;0,01
-0,42;0,00
-0,42;0,01
-0,41;0,00
-0,41;0,00
-0,41;0,01
-0,40;0,00
-0,40;0,01
-0,40;0,01
-0,39;0,00
-0,39;0,01
-0,39;0,00
-0,38;0,00
-0,38;0,01
-0,38;0,00
-0,37;0,01
-0,37;0,01
-0,37;0,00
-0,36;0,01
-0,36;0,00
-0,36;0,00
-0,36;0,01
-0,35;0,00
-0,35;0,01
-0,35;0,01
-0,34;0,00
-0,34;0,01
-0,34;0,01
-0,33;0,00
-0,33;0,01
-0,33;0,00
-0,32;0,00
-0,32;0,01
-0,32;0,00
-0,31;0,01
-0,31;0,01
-0,31;0,00
-0,30;0,01
-0,30;0,01
-0,30;0,00
-0,29;0,01
-0,29;0,00
-0,29;0,01
-0,28;0,01
-0,28;0,00
-0,28;0,01
-0,28;0,01
-0,27;0,01
-0,27;0,00
-0,27;0,00
-0,26;0,01
-0,26;0,01
-0,26;0,00
-0,25;0,00
-0,25;0,01
-0,25;0,00
-0,24;0,00
-0,24;0,00
-0,24;0,00
-0,23;0,01
-0,23;0,00
-0,23;0,00
-0,22;0,01
-0,22;0,00
-0,22;0,00
-0,21;0,01
-0,21;0,00
-0,21;0,01
-0,20;0,00
-0,20;0,00
-0,20;0,01
-0,20;0,00
-0,19;0,00
-0,19;0,01
-0,19;0,00
-0,18;0,01
-0,18;0,00
-0,18;0,00
-0,17;0,01
-0,17;0,00
-0,17;0,00
-0,16;0,01
-0,16;0,00
-0,16;0,01
-0,15;0,00
-0,15;0,00
-0,15;0,01
-0,14;0,00
-0,14;0,01
-0,14;0,00
-0,13;0,00
-0,13;0,01
-0,13;0,00
-0,12;0,01
-0,12;0,01
-0,12;0,01
-0,12;0,01
-0,11;0,00
-0,11;0,01
-0,11;0,01
-0,10;0,00
-0,10;0,00
-0,10;0,01
-0,09;0,00
-0,09;0,00
-0,09;0,00
-0,08;0,00
-0,08;0,01
-0,08;0,00
-0,07;0,00
-0,07;0,01
-0,07;0,00
-0,06;0,00
-0,06;0,01
-0,06;0,00
-0,05;0,01
-0,05;0,00
-0,05;0,00
-0,04;0,01
-0,04;0,00
-0,04;0,01
-0,04;0,01
-0,03;0,00
-0,03;0,01
-0,03;0,01
-0,02;0,02
-0,02;0,04
-0,02;0,05
-0,01;0,06
-0,01;0,08
-0,01;0,09
0,00;0,10
0,00;0,11
0,00;0,12
0,01;0,13
0,01;0,14
0,01;0,14
0,02;0,15
0,02;0,15
0,02;0,16
0,03;0,16
0,03;0,16
0,03;0,17
0,04;0,17
0,04;0,17
0,04;0,18
0,04;0,18
0,05;0,18
0,05;0,18
0,05;0,18
0,06;0,19
0,06;0,19
0,06;0,18
0,07;0,19
0,07;0,19
0,07;0,19
0,08;0,19
0,08;0,19
0,08;0,20
0,09;0,19
0,09;0,19
0,09;0,20
0,10;0,19
0,10;0,20
0,10;0,20
0,11;0,19
0,11;0,20
0,11;0,19
0,12;0,20
0,12;0,20
0,12;0,20
0,12;0,20
0,13;0,20
0,13;0,20
0,13;0,21
0,14;0,20
0,14;0,20
0,14;0,20
0,15;0,20
0,15;0,20
0,15;0,20
0,16;0,20
0,16;0,20
0,16;0,20
0,17;0,20
0,17;0,20
0,17;0,20
0,18;0,20
0,18;0,20
0,18;0,20
0,19;0,20
0,19;0,20
0,19;0,20
0,20;0,20
0,20;0,20
0,20;0,20
0,20;0,20
0,21;0,20
0,21;0,20
0,21;0,20
0,22;0,20
0,22;0,20
0,22;0,20
0,23;0,20
0,23;0,20
0,23;0,20
0,24;0,20
0,24;0,20
0,24;0,20
0,25;0,20
0,25;0,19
0,25;0,20
0,26;0,20
0,26;0,20
0,26;0,20
0,27;0,19
0,27;0,20
0,27;0,20
0,28;0,20
0,28;0,20
0,28;0,20
0,28;0,20
0,29;0,21
0,29;0,20
0,29;0,20
0,30;0,20
0,30;0,20
0,30;0,20
0,31;0,19
0,31;0,20
0,31;0,20
0,32;0,20
0,32;0,20
0,32;0,20
0,33;0,20
0,33;0,20
0,33;0,20
0,34;0,20
0,34;0,21
0,34;0,20
0,35;0,20
0,35;0,20
0,35;0,20
0,36;0,20
0,36;0,20
0,36;0,20
0,36;0,21
0,37;0,20
0,37;0,20
0,37;0,20
0,38;0,20
0,38;0,21
0,38;0,20
0,39;0,20
0,39;0,20
0,39;0,20
0,40;0,20
0,40;0,20
0,40;0,20
0,41;0,20
0,41;0,20
0,41;0,20
0,42;0,20
0,42;0,20
0,42;0,20
0,43;0,20
0,43;0,20
0,43;0,20
0,44;0,20
0,44;0,20
0,44;0,21
0,44;0,20
0,45;0,20
0,45;0,20
0,45;0,20
0,46;0,21
0,46;0,20
0,46;0,20
0,47;0,21
0,47;0,20
0,47;0,20
0,48;0,20
0,48;0,20
0,48;0,21
0,49;0,20
0,49;0,20
0,49;0,20
0,50;0,20
0,50;0,20
0,50;0,20
0,51;0,20
0,51;0,21
0,51;0,20
0,52;0,20
0,52;0,20
0,52;0,20
0,52;0,20
0,53;0,20
0,53;0,21
0,53;0,20
0,54;0,20
0,54;0,20
0,54;0,20
0,55;0,20
0,55;0,20
0,55;0,20
0,56;0,20
0,56;0,21
0,56;0,20
0,57;0,20
0,57;0,21
0,57;0,20
0,58;0,20
0,58;0,20
0,58;0,20
0,59;0,21
0,59;0,20
0,59;0,20
0,60;0,20
0,60;0,20
0,60;0,20
0,60;0,20
0,61;0,20
0,61;0,21
0,61;0,19
0,62;0,20
0,62;0,20
0,62;0,20
0,63;0,20
0,63;0,20
0,63;0,20
0,64;0,20
0,64;0,20
0,64;0,20
0,65;0,20
0,65;0,20
0,65;0,20
0,66;0,20
0,66;0,21
0,66;0,21
0,67;0,20
0,67;0,20
0,67;0,20
0,68;0,20
0,68;0,20
0,68;0,20
0,68;0,20
0,69;0,21
0,69;0,20
0,69;0,20
0,70;0,20
0,70;0,20
0,70;0,20
0,71;0,20
0,71;0,20
0,71;0,21
0,72;0,20
0,72;0,20
0,72;0,20
0,73;0,20
0,73;0,20
0,73;0,20
0,74;0,20
0,74;0,20
0,74;0,20
0,75;0,20
0,75;0,20
0,75;0,20
0,76;0,20
0,76;0,20
0,76;0,20
0,76;0,21
0,77;0,20
0,77;0,20
0,77;0,20
0,78;0,20
0,78;0,20
0,78;0,20
0,79;0,20
0,79;0,21
0,79;0,20
0,80;0,20
0,80;0,20
0,80;0,20
0,81;0,20
0,81;0,20
0,81;0,20
0,82;0,20
0,82;0,20
0,82;0,20
0,83;0,20
0,83;0,20
0,83;0,20
0,84;0,20
0,84;0,20
0,84;0,20
0,84;0,20
0,85;0,20
0,85;0,20
0,85;0,20
0,86;0,20
0,86;0,20
0,86;0,21
0,87;0,20
0,87;0,20
0,87;0,20
0,88;0,20
0,88;0,20
0,88;0,20
0,89;0,20
0,89;0,20
0,89;0,20
0,90;0,20
0,90;0,20
0,90;0,20
0,91;0,20
0,91;0,20
0,91;0,20
0,92;0,20
0,92;0,20
0,92;0,20
0,92;0,20
0,93;0,20
0,93;0,20
0,93;0,20
0,94;0,20
0,94;0,21
0,94;0,20
0,95;0,20
0,95;0,20
0,95;0,20
0,96;0,20
0,96;0,20
0,96;0,20
0,97;0,20
0,97;0,20
0,97;0,20
0,98;0,20
0,98;0,20
0,98;0,20
0,99;0,21
0,99;0,20
0,99;0,20
1,00;0,20
1,00;0,20
1,00;0,20
1,01;0,20
1,01;0,20
1,01;0,21
1,01;0,20
1,02;0,20
1,02;0,20
1,02;0,20
1,03;0,20
1,03;0,20
1,03;0,20
1,04;0,21
1,04;0,20
1,04;0,20
1,05;0,20
1,05;0,20
1,05;0,21
1,06;0,20
1,06;0,20
1,06;0,21
1,07;0,20
1,07;0,20
1,07;0,20
1,08;0,20
1,08;0,20
1,08;0,20
1,09;0,20
1,09;0,21
1,09;0,20
1,09;0,21
1,10;0,20
1,10;0,20
1,10;0,20
1,11;0,20
1,11;0,20
1,11;0,20
1,12;0,20
1,12;0,20
1,12;0,20
1,13;0,20
1,13;0,20
1,13;0,20
1,14;0,21
1,14;0,20
1,14;0,20
1,15;0,20
1,15;0,20
1,15;0,20
1,16;0,21
1,16;0,20
1,16;0,20
1,17;0,20
1,17;0,20
1,17;0,20
1,17;0,20
1,18;0,20
1,18;0,20
1,18;0,20
1,19;0,20
1,19;0,21
1,19;0,20
1,20;0,20
1,20;0,20
1,20;0,20
1,21;0,21
1,21;0,20
1,21;0,20
1,22;0,20
1,22;0,20
1,22;0,20
1,23;0,20
1,23;0,20
1,23;0,21
1,24;0,20
1,24;0,20
1,24;0,20
1,25;0,20
1,25;0,20
1,25;0,20
1,25;0,20
1,26;0,20
1,26;0,20
1,26;0,20
1,27;0,20
1,27;0,20
1,27;0,20
1,28;0,20
1,28;0,20
1,28;0,21
1,29;0,20
1,29;0,21
1,29;0,20
1,30;0,20
1,30;0,20
1,30;0,20
1,31;0,21
1,31;0,21
1,31;0,20
1,32;0,21
1,32;0,21
1,32;0,20
1,33;0,20
1,33;0,20
1,33;0,21
1,33;0,21
1,34;0,20
1,34;0,20
1,34;0,21
1,35;0,20
1,35;0,20
1,35;0,20
1,36;0,20
1,36;0,21
1,36;0,20
1,37;0,20
1,37;0,20
1,37;0,20
1,38;0,20
1,38;0,20
1,38;0,20
1,39;0,21
1,39;0,20
1,39;0,20
1,40;0,21
1,40;0,20
1,40;0,21
1,41;0,20
1,41;0,20
1,41;0,21
1,41;0,20
1,42;0,20
1,42;0,20
1,42;0,20
1,43;0,20
1,43;0,20
1,43;0,20
1,44;0,21
1,44;0,20
1,44;0,20
1,45;0,20
1,45;0,20
1,45;0,21
1,46;0,20
1,46;0,20
1,46;0,21
1,47;0,20
1,47;0,20
1,47;0,20
1,48;0,20
1,48;0,21
1,48;0,20
1,49;0,20
1,49;0,21
1,49;0,20
1,49;0,20
1,50;0,20
1,50;0,21
1,50;0,21
1,51;0,20
1,51;0,20
1,51;0,20
1,52;0,20
1,52;0,20
1,52;0,20
1,53;0,20
1,53;0,21
1,53;0,20
1,54;0,20
1,54;0,20
1,54;0,20
1,55;0,20
1,55;0,20
1,55;0,20
1,56;0,21
1,56;0,20
1,56;0,20
1,57;0,20
1,57;0,20
1,57;0,21
1,57;0,20
1,58;0,20
1,58;0,20
1,58;0,20
1,59;0,20
1,59;0,20
1,59;0,20
1,60;0,20
1,60;0,20
1,60;0,20
1,61;0,21
1,61;0,20
1,61;0,20
1,62;0,21
1,62;0,20
1,62;0,20
1,63;0,20
1,63;0,20
1,63;0,20
1,64;0,20
1,64;0,20
1,64;0,21
1,65;0,20
1,65;0,20
1,65;0,20
1,65;0,21
1,66;0,20
1,66;0,20
1,66;0,20
1,67;0,21
1,67;0,20
1,67;0,20
1,68;0,20
1,68;0,20
1,68;0,20
1,69;0,20
1,69;0,20
1,69;0,20
1,70;0,20
1,70;0,21
1,70;0,20
1,71;0,20
1,71;0,21
1,71;0,20
1,72;0,21
1,72;0,20
1,72;0,20
1,73;0,21
1,73;0,20
1,73;0,20
1,73;0,21
1,74;0,20
1,74;0,20
1,74;0,20
1,75;0,20
1,75;0,21
1,75;0,20
1,76;0,20
1,76;0,20
1,76;0,20
1,77;0,20
1,77;0,20
1,77;0,21
1,78;0,21
1,78;0,20
1,78;0,20
1,79;0,20
1,79;0,20
1,79;0,20
1,80;0,20
1,80;0,20
1,80;0,21
1,81;0,20
1,81;0,20
1,81;0,21
1,81;0,20
1,82;0,20
1,82;0,20
1,82;0,20
1,83;0,21
1,83;0,20
1,83;0,20
1,84;0,20
1,84;0,20
1,84;0,20
1,85;0,20
1,85;0,20
1,85;0,21
1,86;0,20
1,86;0,20
1,86;0,20
1,87;0,20
1,87;0,21
1,87;0,20
1,88;0,20
1,88;0,21
1,88;0,20
1,89;0,20
1,89;0,20
1,89;0,20
1,89;0,21
1,90;0,20
1,90;0,20
1,90;0,21
1,91;0,20
1,91;0,20
1,91;0,20
1,92;0,20
1,92;0,21
1,92;0,20
1,93;0,20
1,93;0,21
1,93;0,20
1,94;0,20
1,94;0,20
1,94;0,20
1,95;0,21
1,95;0,20
1,95;0,20
1,96;0,21
1,96;0,20
1,96;0,19
1,97;0,17
1,97;0,16
1,97;0,15
1,97;0,13
1,98;0,12
1,98;0,12
1,98;0,10
1,99;0,09
1,99;0,09
1,99;0,08
2,00;0,08
2,00;0,06
2,00;0,06
2,01;0,06
2,01;0,05
2,01;0,05
2,02;0,05
2,02;0,04
2,02;0,04
2,03;0,03
2,03;0,03
2,03;0,03
2,04;0,03
2,04;0,03
2,04;0,03
2,05;0,02
2,05;0,02
2,05;0,02
2,05;0,02
2,06;0,02
2,06;0,01
2,06;0,02
2,07;0,02
2,07;0,01
2,07;0,02
2,08;0,01
2,08;0,01
2,08;0,01
2,09;0,01
2,09;0,01
2,09;0,01
2,10;0,01
2,10;0,01
2,10;0,01
2,11;0,01
2,11;0,01
2,11;0,01
2,12;0,01
2,12;0,01
2,12;0,01
2,13;0,01
2,13;0,01
2,13;0,01
2,13;0,01
2,14;0,01
2,14;0,01
2,14;0,01
2,15;0,00
2,15;0,01
2,15;0,00
2,16;0,01
2,16;0,01
2,16;0,00
2,17;0,01
2,17;0,01
2,17;0,00
2,18;0,01
2,18;0,01
2,18;0,00
2,19;0,01
2,19;0,00
2,19;0,01
2,20;0,01
2,20;0,00
2,20;0,01
2,21;0,01
2,21;0,00
2,21;0,01
2,21;0,00
2,22;0,01
2,22;0,01
2,22;0,00
2,23;0,01
2,23;0,01
2,23;0,00
2,24;0,01
2,24;0,00
2,24;0,00
2,25;0,01
2,25;0,00
2,25;0,01
2,26;0,01
2,26;0,00
2,26;0,01
2,27;0,00
2,27;0,00
2,27;0,01
2,28;0,00
2,28;0,01
2,28;0,01
2,29;0,00
2,29;0,01
2,29;0,00
2,29;0,00
2,30;0,01
2,30;0,00
2,30;0,01
2,31;0,00
2,31;0,00
2,31;0,01
2,32;0,00
2,32;0,01
2,32;0,01
2,33;0,00
2,33;0,01
2,33;0,00
2,34;0,01
2,34;0,01
2,34;0,00
2,35;0,01
2,35;0,01
2,35;0,00
2,36;0,01
2,36;0,00
2,36;0,00
2,37;0,01
2,37;0,00
2,37;0,00
2,37;0,01
2,38;0,00
2,38;0,01
2,38;0,01
2,39;0,00
2,39;0,01
2,39;0,00
2,40;0,00
2,40;0,01
2,40;0,00
2,41;0,01
2,41;0,01
2,41;0,00
2,42;0,01
2,42;0,01
2,42;0,00
2,43;0,01
2,43;0,00
2,43;0,00
2,44;0,01
2,44;0,00
2,44;0,01
2,45;0,01
2,45;0,00
2,45;0,01
2,45;0,00
2,46;0,01
2,46;0,01
2,46;0,01
2,47;0,01
2,47;0,01
2,47;0,00
2,48;0,01
2,48;0,00
2,48;0,00
2,49;0,01
2,49;0,01
2,49;0,01
2,50;0,01
2,50;0,00
2,50;0,01
2,51;0,01
2,51;0,00
2,51;0,01
2,52;0,00
2,52;0,00
2,52;0,01
2,53;0,00
2,53;0,01
2,53;0,01
2,53;0,00
2,54;0,01
2,54;0,01
2,54;0,00
2,55;0,01
2,55;0,00
2,55;0,01
2,56;0,01
2,56;0,00
2,56;0,01
2,57;0,01
2,57;0,01
2,57;0,01
2,58;0,00
2,58;0,01
2,58;0,01
2,59;0,00
2,59;0,01
2,59;0,01
2,60;0,01
2,60;0,01
2,60;0,00
2,61;0,01
2,61;0,01
2,61;0,00
2,61;0,01
2,62;0,00
2,62;0,01
2,62;0,01
2,63;0,00
2,63;0,01
2,63;0,01
2,64;0,00
2,64;0,01
2,64;0,00
2,65;0,01
2,65;0,01
2,65;0,00
2,66;0,01
2,66;0,01
2,66;0,00
2,67;0,01
2,67;0,01
2,67;0,01
2,68;0,01
2,68;0,00
2,68;0,01
2,69;0,01
2,69;0,00
2,69;0,01
2,69;0,01
2,70;0,01
2,70;0,01
2,70;0,00
2,71;0,01
2,71;0,01
2,71;0,00
2,72;0,01
2,72;0,01
2,72;0,00
2,73;0,01
2,73;0,00
2,73;0,01
2,74;0,01
2,74;0,00
2,74;0,00
2,75;0,01
2,75;0,00
2,75;0,01
2,76;0,00
2,76;0,00
