Excel/Técnica de Interrupción/Tiempos ADC de interrupción.CSV

Model,TBS2104;
Firmware Version,v1,26,0;
;
Point Format,Y;
Horizontal Units,S;
Horizontal Scale,0,0004;
Sample Interval,3,2e-06;
Filter Frequency,1e+08;
Record Length,2000;
Gating,0,0% to 100,0%;
Probe Attenuation,1;
Vertical Units,V;
Vertical Offset,0;
Vertical Scale,0,05;
Label,;
Tiempo (ms);Voltaje (V)
-2,02;0,04
-2,02;0,04
-2,02;0,04
-2,01;0,04
-2,01;0,04
-2,01;0,04
-2,00;0,04
-2,00;0,04
-2,00;0,04
-1,99;0,04
-1,99;0,04
-1,99;0,04
-1,98;0,04
-1,98;0,04
-1,98;0,04
-1,97;0,04
-1,97;0,04
-1,97;0,04
-1,97;0,04
-1,96;0,04
-1,96;0,04
-1,96;0,04
-1,95;0,04
-1,95;0,04
-1,95;0,04
-1,94;0,04
-1,94;0,04
-1,94;0,04
-1,93;0,04
-1,93;0,04
-1,93;0,04
-1,92;0,04
-1,92;0,04
-1,92;0,04
-1,91;0,04
-1,91;0,04
-1,91;0,04
-1,90;0,04
-1,90;0,04
-1,90;0,04
-1,89;0,04
-1,89;0,04
-1,89;0,04
-1,89;0,04
-1,88;0,04
-1,88;0,04
-1,88;0,04
-1,87;0,04
-1,87;0,04
-1,87;0,04
-1,86;0,04
-1,86;0,04
-1,86;0,04
-1,85;0,04
-1,85;0,04
-1,85;0,04
-1,84;0,04
-1,84;0,04
-1,84;0,04
-1,83;0,04
-1,83;0,04
-1,83;0,04
-1,82;0,04
-1,82;0,04
-1,82;0,04
-1,81;0,04
-1,81;0,04
-1,81;0,04
-1,81;0,04
-1,80;0,04
-1,80;0,04
-1,80;0,04
-1,79;0,04
-1,79;0,04
-1,79;0,04
-1,78;0,04
-1,78;0,04
-1,78;0,04
-1,77;0,04
-1,77;0,04
-1,77;0,04
-1,76;0,04
-1,76;0,04
-1,76;0,04
-1,75;0,04
-1,75;0,04
-1,75;0,04
-1,74;0,04
-1,74;0,04
-1,74;0,04
-1,73;0,04
-1,73;0,04
-1,73;0,04
-1,73;0,04
-1,72;0,04
-1,72;0,04
-1,72;0,04
-1,71;0,04
-1,71;0,04
-1,71;0,04
-1,70;0,04
-1,70;0,04
-1,70;0,04
-1,69;0,04
-1,69;0,04
-1,69;0,04
-1,68;0,04
-1,68;0,04
-1,68;0,04
-1,67;0,04
-1,67;0,04
-1,67;0,04
-1,66;0,04
-1,66;0,04
-1,66;0,04
-1,65;0,04
-1,65;0,04
-1,65;0,04
-1,65;0,04
-1,64;0,04
-1,64;0,04
-1,64;0,04
-1,63;0,04
-1,63;0,04
-1,63;0,04
-1,62;0,04
-1,62;0,04
-1,62;0,04
-1,61;0,04
-1,61;0,04
-1,61;0,04
-1,60;0,04
-1,60;0,04
-1,60;0,04
-1,59;0,04
-1,59;0,04
-1,59;0,04
-1,58;0,04
-1,58;0,04
-1,58;0,04
-1,57;0,04
-1,57;0,04
-1,57;0,04
-1,57;0,04
-1,56;0,04
-1,56;0,04
-1,56;0,04
-1,55;0,04
-1,55;0,04
-1,55;0,04
-1,54;0,04
-1,54;0,04
-1,54;0,04
-1,53;0,04
-1,53;0,04
-1,53;0,04
-1,52;0,04
-1,52;0,04
-1,52;0,04
-1,51;0,04
-1,51;0,04
-1,51;0,04
-1,50;0,04
-1,50;0,04
-1,50;0,04
-1,49;0,04
-1,49;0,04
-1,49;0,04
-1,49;0,04
-1,48;0,04
-1,48;0,04
-1,48;0,04
-1,47;0,04
-1,47;0,04
-1,47;0,04
-1,46;0,04
-1,46;0,04
-1,46;0,04
-1,45;0,04
-1,45;0,04
-1,45;0,04
-1,44;0,04
-1,44;0,04
-1,44;0,04
-1,43;0,04
-1,43;0,04
-1,43;0,04
-1,42;0,04
-1,42;0,04
-1,42;0,04
-1,41;0,04
-1,41;0,04
-1,41;0,04
-1,41;0,04
-1,40;0,04
-1,40;0,04
-1,40;0,04
-1,39;0,04
-1,39;0,04
-1,39;0,04
-1,38;0,04
-1,38;0,04
-1,38;0,04
-1,37;0,04
-1,37;0,04
-1,37;0,04
-1,36;0,04
-1,36;0,04
-1,36;0,04
-1,35;0,04
-1,35;0,04
-1,35;0,04
-1,34;0,04
-1,34;0,05
-1,34;0,04
-1,33;0,04
-1,33;0,04
-1,33;0,04
-1,33;0,04
-1,32;0,04
-1,32;0,04
-1,32;0,04
-1,31;0,04
-1,31;0,04
-1,31;0,04
-1,30;0,04
-1,30;0,04
-1,30;0,04
-1,29;0,04
-1,29;0,04
-1,29;0,04
-1,28;0,04
-1,28;0,04
-1,28;0,04
-1,27;0,04
-1,27;0,04
-1,27;0,04
-1,26;0,04
-1,26;0,04
-1,26;0,04
-1,25;0,04
-1,25;0,04
-1,25;0,04
-1,25;0,04
-1,24;0,04
-1,24;0,04
-1,24;0,04
-1,23;0,04
-1,23;0,04
-1,23;0,04
-1,22;0,04
-1,22;0,04
-1,22;0,04
-1,21;0,04
-1,21;0,04
-1,21;0,04
-1,20;0,04
-1,20;0,04
-1,20;0,05
-1,19;0,04
-1,19;0,04
-1,19;0,05
-1,18;0,04
-1,18;0,04
-1,18;0,04
-1,17;0,04
-1,17;0,04
-1,17;0,04
-1,17;0,04
-1,16;0,04
-1,16;0,04
-1,16;0,04
-1,15;0,04
-1,15;0,04
-1,15;0,05
-1,14;0,04
-1,14;0,04
-1,14;0,04
-1,13;0,04
-1,13;0,04
-1,13;0,04
-1,12;0,04
-1,12;0,04
-1,12;0,04
-1,11;0,04
-1,11;0,04
-1,11;0,04
-1,10;0,04
-1,10;0,04
-1,10;0,04
-1,09;0,04
-1,09;0,04
-1,09;0,04
-1,09;0,04
-1,08;0,04
-1,08;0,04
-1,08;0,04
-1,07;0,04
-1,07;0,05
-1,07;0,04
-1,06;0,05
-1,06;0,04
-1,06;0,04
-1,05;0,04
-1,05;0,04
-1,05;0,04
-1,04;0,05
-1,04;0,04
-1,04;0,05
-1,03;0,04
-1,03;0,04
-1,03;0,04
-1,02;0,04
-1,02;0,04
-1,02;0,04
-1,01;0,04
-1,01;0,04
-1,01;0,04
-1,01;0,04
-1,00;0,04
-1,00;0,04
-1,00;0,05
-0,99;0,04
-0,99;0,04
-0,99;0,04
-0,98;0,04
-0,98;0,04
-0,98;0,04
-0,97;0,04
-0,97;0,04
-0,97;0,04
-0,96;0,04
-0,96;0,04
-0,96;0,04
-0,95;0,04
-0,95;0,04
-0,95;0,04
-0,94;0,04
-0,94;0,04
-0,94;0,04
-0,93;0,04
-0,93;0,04
-0,93;0,04
-0,92;0,04
-0,92;0,04
-0,92;0,04
-0,92;0,04
-0,91;0,04
-0,91;0,04
-0,91;0,04
-0,90;0,05
-0,90;0,04
-0,90;0,04
-0,89;0,04
-0,89;0,04
-0,89;0,04
-0,88;0,04
-0,88;0,04
-0,88;0,04
-0,87;0,04
-0,87;0,04
-0,87;0,04
-0,86;0,03
-0,86;0,02
-0,86;0,00
-0,85;-0,01
-0,85;-0,01
-0,85;-0,02
-0,84;-0,03
-0,84;-0,03
-0,84;-0,04
-0,84;-0,04
-0,83;-0,04
-0,83;-0,05
-0,83;-0,05
-0,82;-0,05
-0,82;-0,05
-0,82;-0,05
-0,81;-0,05
-0,81;-0,05
-0,81;-0,05
-0,80;-0,06
-0,80;-0,05
-0,80;-0,06
-0,79;-0,05
-0,79;-0,05
-0,79;-0,06
-0,78;-0,06
-0,78;-0,06
-0,78;-0,06
-0,77;-0,05
-0,77;-0,06
-0,77;-0,05
-0,76;-0,05
-0,76;-0,05
-0,76;-0,05
-0,76;-0,06
-0,75;-0,06
-0,75;-0,05
-0,75;-0,06
-0,74;-0,05
-0,74;-0,05
-0,74;-0,06
-0,73;-0,05
-0,73;-0,06
-0,73;-0,06
-0,72;-0,05
-0,72;-0,06
-0,72;-0,06
-0,71;-0,05
-0,71;-0,06
-0,71;-0,05
-0,70;-0,06
-0,70;-0,06
-0,70;-0,05
-0,69;-0,06
-0,69;-0,06
-0,69;-0,06
-0,68;-0,06
-0,68;-0,05
-0,68;-0,06
-0,68;-0,06
-0,67;-0,05
-0,67;-0,06
-0,67;-0,05
-0,66;-0,06
-0,66;-0,06
-0,66;-0,05
-0,65;-0,06
-0,65;-0,06
-0,65;-0,06
-0,64;-0,06
-0,64;-0,06
-0,64;-0,06
-0,63;-0,06
-0,63;-0,06
-0,63;-0,06
-0,62;-0,05
-0,62;-0,05
-0,62;-0,06
-0,61;-0,05
-0,61;-0,06
-0,61;-0,05
-0,60;-0,05
-0,60;-0,06
-0,60;-0,05
-0,60;-0,05
-0,59;-0,06
-0,59;-0,05
-0,59;-0,06
-0,58;-0,06
-0,58;-0,05
-0,58;-0,06
-0,57;-0,05
-0,57;-0,06
-0,57;-0,05
-0,56;-0,05
-0,56;-0,06
-0,56;-0,05
-0,55;-0,05
-0,55;-0,06
-0,55;-0,05
-0,54;-0,06
-0,54;-0,06
-0,54;-0,05
-0,53;-0,06
-0,53;-0,06
-0,53;-0,05
-0,52;-0,06
-0,52;-0,05
-0,52;-0,06
-0,52;-0,06
-0,51;-0,05
-0,51;-0,06
-0,51;-0,06
-0,50;-0,05
-0,50;-0,05
-0,50;-0,06
-0,49;-0,06
-0,49;-0,06
-0,49;-0,06
-0,48;-0,06
-0,48;-0,05
-0,48;-0,06
-0,47;-0,06
-0,47;-0,05
-0,47;-0,06
-0,46;-0,06
-0,46;-0,05
-0,46;-0,06
-0,45;-0,06
-0,45;-0,05
-0,45;-0,06
-0,44;-0,05
-0,44;-0,06
-0,44;-0,05
-0,44;-0,05
-0,43;-0,06
-0,43;-0,05
-0,43;-0,06
-0,42;-0,05
-0,42;-0,05
-0,42;-0,06
-0,41;-0,05
-0,41;-0,05
-0,41;-0,06
-0,40;-0,06
-0,40;-0,06
-0,40;-0,06
-0,39;-0,05
-0,39;-0,06
-0,39;-0,06
-0,38;-0,06
-0,38;-0,06
-0,38;-0,06
-0,37;-0,06
-0,37;-0,05
-0,37;-0,05
-0,36;-0,06
-0,36;-0,06
-0,36;-0,06
-0,36;-0,06
-0,35;-0,05
-0,35;-0,06
-0,35;-0,05
-0,34;-0,05
-0,34;-0,06
-0,34;-0,05
-0,33;-0,06
-0,33;-0,06
-0,33;-0,05
-0,32;-0,06
-0,32;-0,06
-0,32;-0,05
-0,31;-0,06
-0,31;-0,06
-0,31;-0,06
-0,30;-0,06
-0,30;-0,06
-0,30;-0,06
-0,29;-0,06
-0,29;-0,05
-0,29;-0,06
-0,28;-0,05
-0,28;-0,05
-0,28;-0,06
-0,28;-0,05
-0,27;-0,06
-0,27;-0,06
-0,27;-0,05
-0,26;-0,06
-0,26;-0,06
-0,26;-0,06
-0,25;-0,06
-0,25;-0,05
-0,25;-0,06
-0,24;-0,06
-0,24;-0,06
-0,24;-0,06
-0,23;-0,05
-0,23;-0,06
-0,23;-0,06
-0,22;-0,05
-0,22;-0,06
-0,22;-0,06
-0,21;-0,06
-0,21;-0,06
-0,21;-0,05
-0,20;-0,06
-0,20;-0,06
-0,20;-0,05
-0,20;-0,06
-0,19;-0,06
-0,19;-0,06
-0,19;-0,06
-0,18;-0,05
-0,18;-0,06
-0,18;-0,06
-0,17;-0,05
-0,17;-0,06
-0,17;-0,06
-0,16;-0,06
-0,16;-0,06
-0,16;-0,05
-0,15;-0,06
-0,15;-0,06
-0,15;-0,05
-0,14;-0,06
-0,14;-0,06
-0,14;-0,05
-0,13;-0,06
-0,13;-0,06
-0,13;-0,06
-0,12;-0,06
-0,12;-0,05
-0,12;-0,06
-0,12;-0,06
-0,11;-0,06
-0,11;-0,06
-0,11;-0,06
-0,10;-0,06
-0,10;-0,05
-0,10;-0,05
-0,09;-0,06
-0,09;-0,05
-0,09;-0,06
-0,08;-0,06
-0,08;-0,05
-0,08;-0,06
-0,07;-0,06
-0,07;-0,06
-0,07;-0,06
-0,06;-0,05
-0,06;-0,06
-0,06;-0,06
-0,05;-0,05
-0,05;-0,06
-0,05;-0,06
-0,04;-0,05
-0,04;-0,06
-0,04;-0,05
-0,04;-0,06
-0,03;-0,06
-0,03;-0,05
-0,03;-0,06
-0,02;-0,05
-0,02;-0,06
-0,02;-0,06
-0,01;-0,05
-0,01;-0,06
-0,01;-0,06
0,00;-0,06
0,00;-0,06
0,00;-0,06
0,01;-0,06
0,01;-0,06
0,01;-0,06
0,02;-0,06
0,02;-0,06
0,02;-0,06
0,03;-0,06
0,03;-0,05
0,03;-0,06
0,04;-0,06
0,04;-0,05
0,04;-0,06
0,04;-0,06
0,05;-0,06
0,05;-0,06
0,05;-0,06
0,06;-0,06
0,06;-0,06
0,06;-0,06
0,07;-0,06
0,07;-0,06
0,07;-0,06
0,08;-0,06
0,08;-0,05
0,08;-0,06
0,09;-0,06
0,09;-0,06
0,09;-0,06
0,10;-0,06
0,10;-0,06
0,10;-0,06
0,11;-0,06
0,11;-0,06
0,11;-0,06
0,12;-0,05
0,12;-0,06
0,12;-0,06
0,12;-0,06
0,13;-0,06
0,13;-0,05
0,13;-0,06
0,14;-0,04
0,14;-0,03
0,14;-0,02
0,15;-0,01
0,15;0,00
0,15;0,00
0,16;0,01
0,16;0,02
0,16;0,02
0,17;0,03
0,17;0,03
0,17;0,03
0,18;0,03
0,18;0,03
0,18;0,04
0,19;0,03
0,19;0,04
0,19;0,04
0,20;0,03
0,20;0,04
0,20;0,04
0,20;0,04
0,21;0,04
0,21;0,04
0,21;0,04
0,22;0,04
0,22;0,04
0,22;0,04
0,23;0,04
0,23;0,04
0,23;0,04
0,24;0,03
0,24;0,04
0,24;0,04
0,25;0,04
0,25;0,04
0,25;0,04
0,26;0,04
0,26;0,04
0,26;0,04
0,27;0,04
0,27;0,04
0,27;0,04
0,28;0,04
0,28;0,04
0,28;0,04
0,28;0,04
0,29;0,04
0,29;0,04
0,29;0,04
0,30;0,04
0,30;0,04
0,30;0,04
0,31;0,04
0,31;0,04
0,31;0,04
0,32;0,04
0,32;0,04
0,32;0,04
0,33;0,04
0,33;0,04
0,33;0,04
0,34;0,04
0,34;0,04
0,34;0,04
0,35;0,03
0,35;0,04
0,35;0,04
0,36;0,04
0,36;0,04
0,36;0,04
0,36;0,04
0,37;0,04
0,37;0,04
0,37;0,04
0,38;0,04
0,38;0,04
0,38;0,04
0,39;0,05
0,39;0,04
0,39;0,04
0,40;0,04
0,40;0,04
0,40;0,04
0,41;0,04
0,41;0,04
0,41;0,04
0,42;0,04
0,42;0,04
0,42;0,04
0,43;0,04
0,43;0,04
0,43;0,04
0,44;0,04
0,44;0,04
0,44;0,04
0,44;0,04
0,45;0,04
0,45;0,04
0,45;0,05
0,46;0,04
0,46;0,04
0,46;0,04
0,47;0,04
0,47;0,04
0,47;0,04
0,48;0,04
0,48;0,04
0,48;0,04
0,49;0,04
0,49;0,04
0,49;0,04
0,50;0,04
0,50;0,04
0,50;0,04
0,51;0,04
0,51;0,04
0,51;0,04
0,52;0,04
0,52;0,04
0,52;0,04
0,52;0,04
0,53;0,04
0,53;0,04
0,53;0,04
0,54;0,04
0,54;0,04
0,54;0,04
0,55;0,04
0,55;0,04
0,55;0,04
0,56;0,04
0,56;0,04
0,56;0,04
0,57;0,04
0,57;0,04
0,57;0,05
0,58;0,04
0,58;0,04
0,58;0,04
0,59;0,04
0,59;0,04
0,59;0,04
0,60;0,04
0,60;0,04
0,60;0,04
0,60;0,05
0,61;0,04
0,61;0,04
0,61;0,04
0,62;0,04
0,62;0,04
0,62;0,04
0,63;0,04
0,63;0,04
0,63;0,04
0,64;0,04
0,64;0,04
0,64;0,04
0,65;0,04
0,65;0,04
0,65;0,04
0,66;0,04
0,66;0,04
0,66;0,04
0,67;0,04
0,67;0,04
0,67;0,04
0,68;0,04
0,68;0,04
0,68;0,04
0,68;0,04
0,69;0,04
0,69;0,04
0,69;0,04
0,70;0,04
0,70;0,04
0,70;0,04
0,71;0,05
0,71;0,04
0,71;0,04
0,72;0,04
0,72;0,04
0,72;0,04
0,73;0,04
0,73;0,04
0,73;0,04
0,74;0,04
0,74;0,04
0,74;0,04
0,75;0,04
0,75;0,04
0,75;0,04
0,76;0,04
0,76;0,04
0,76;0,04
0,76;0,04
0,77;0,04
0,77;0,04
0,77;0,04
0,78;0,04
0,78;0,04
0,78;0,05
0,79;0,04
0,79;0,04
0,79;0,04
0,80;0,04
0,80;0,04
0,80;0,04
0,81;0,04
0,81;0,05
0,81;0,04
0,82;0,04
0,82;0,04
0,82;0,04
0,83;0,05
0,83;0,04
0,83;0,04
0,84;0,04
0,84;0,04
0,84;0,04
0,84;0,04
0,85;0,04
0,85;0,04
0,85;0,04
0,86;0,04
0,86;0,04
0,86;0,04
0,87;0,04
0,87;0,04
0,87;0,04
0,88;0,04
0,88;0,04
0,88;0,04
0,89;0,04
0,89;0,04
0,89;0,04
0,90;0,04
0,90;0,04
0,90;0,04
0,91;0,04
0,91;0,04
0,91;0,04
0,92;0,04
0,92;0,04
0,92;0,04
0,92;0,04
0,93;0,05
0,93;0,04
0,93;0,04
0,94;0,04
0,94;0,04
0,94;0,04
0,95;0,04
0,95;0,04
0,95;0,04
0,96;0,04
0,96;0,04
0,96;0,04
0,97;0,04
0,97;0,04
0,97;0,04
0,98;0,04
0,98;0,04
0,98;0,04
0,99;0,04
0,99;0,04
0,99;0,04
1,00;0,04
1,00;0,04
1,00;0,04
1,01;0,04
1,01;0,04
1,01;0,04
1,01;0,04
1,02;0,04
1,02;0,04
1,02;0,04
1,03;0,05
1,03;0,04
1,03;0,04
1,04;0,04
1,04;0,04
1,04;0,04
1,05;0,04
1,05;0,04
1,05;0,04
1,06;0,04
1,06;0,04
1,06;0,04
1,07;0,04
1,07;0,04
1,07;0,04
1,08;0,04
1,08;0,04
1,08;0,04
1,09;0,04
1,09;0,04
1,09;0,04
1,09;0,04
1,10;0,04
1,10;0,04
1,10;0,04
1,11;0,04
1,11;0,04
1,11;0,04
1,12;0,04
1,12;0,04
1,12;0,04
1,13;0,04
1,13;0,04
1,13;0,04
1,14;0,04
1,14;0,04
1,14;0,04
1,15;0,04
1,15;0,04
1,15;0,04
1,16;0,04
1,16;0,04
1,16;0,04
1,17;0,04
1,17;0,04
1,17;0,04
1,17;0,04
1,18;0,04
1,18;0,04
1,18;0,04
1,19;0,04
1,19;0,04
1,19;0,04
1,20;0,04
1,20;0,04
1,20;0,04
1,21;0,04
1,21;0,04
1,21;0,04
1,22;0,04
1,22;0,04
1,22;0,04
1,23;0,04
1,23;0,04
1,23;0,04
1,24;0,04
1,24;0,04
1,24;0,04
1,25;0,04
1,25;0,04
1,25;0,04
1,25;0,04
1,26;0,05
1,26;0,04
1,26;0,04
1,27;0,04
1,27;0,04
1,27;0,04
1,28;0,04
1,28;0,04
1,28;0,04
1,29;0,04
1,29;0,04
1,29;0,04
1,30;0,04
1,30;0,04
1,30;0,04
1,31;0,04
1,31;0,04
1,31;0,04
1,32;0,04
1,32;0,04
1,32;0,04
1,33;0,04
1,33;0,04
1,33;0,04
1,33;0,04
1,34;0,04
1,34;0,04
1,34;0,04
1,35;0,04
1,35;0,04
1,35;0,04
1,36;0,04
1,36;0,04
1,36;0,04
1,37;0,04
1,37;0,04
1,37;0,04
1,38;0,04
1,38;0,04
1,38;0,04
1,39;0,05
1,39;0,04
1,39;0,05
1,40;0,04
1,40;0,04
1,40;0,04
1,41;0,04
1,41;0,04
1,41;0,04
1,41;0,04
1,42;0,04
1,42;0,04
1,42;0,04
1,43;0,05
1,43;0,04
1,43;0,04
1,44;0,04
1,44;0,04
1,44;0,04
1,45;0,04
1,45;0,04
1,45;0,04
1,46;0,04
1,46;0,04
1,46;0,04
1,47;0,04
1,47;0,04
1,47;0,04
1,48;0,04
1,48;0,04
1,48;0,04
1,49;0,04
1,49;0,04
1,49;0,04
1,49;0,04
1,50;0,04
1,50;0,04
1,50;0,04
1,51;0,04
1,51;0,04
1,51;0,04
1,52;0,04
1,52;0,05
1,52;0,04
1,53;0,04
1,53;0,05
1,53;0,04
1,54;0,05
1,54;0,04
1,54;0,04
1,55;0,04
1,55;0,04
1,55;0,04
1,56;0,04
1,56;0,04
1,56;0,04
1,57;0,04
1,57;0,04
1,57;0,04
1,57;0,04
1,58;0,04
1,58;0,04
1,58;0,04
1,59;0,04
1,59;0,04
1,59;0,04
1,60;0,04
1,60;0,04
1,60;0,04
1,61;0,04
1,61;0,04
1,61;0,04
1,62;0,04
1,62;0,04
1,62;0,04
1,63;0,04
1,63;0,04
1,63;0,04
1,64;0,04
1,64;0,04
1,64;0,04
1,65;0,04
1,65;0,04
1,65;0,04
1,65;0,04
1,66;0,04
1,66;0,04
1,66;0,04
1,67;0,04
1,67;0,04
1,67;0,04
1,68;0,04
1,68;0,04
1,68;0,04
1,69;0,04
1,69;0,05
1,69;0,04
1,70;0,04
1,70;0,04
1,70;0,04
1,71;0,05
1,71;0,04
1,71;0,04
1,72;0,04
1,72;0,04
1,72;0,04
1,73;0,04
1,73;0,04
1,73;0,05
1,73;0,04
1,74;0,04
1,74;0,04
1,74;0,04
1,75;0,04
1,75;0,04
1,75;0,04
1,76;0,04
1,76;0,04
1,76;0,04
1,77;0,04
1,77;0,04
1,77;0,04
1,78;0,04
1,78;0,04
1,78;0,04
1,79;0,04
1,79;0,04
1,79;0,04
1,80;0,04
1,80;0,04
1,80;0,04
1,81;0,04
1,81;0,05
1,81;0,04
1,81;0,04
1,82;0,04
1,82;0,04
1,82;0,04
1,83;0,04
1,83;0,04
1,83;0,04
1,84;0,04
1,84;0,04
1,84;0,04
1,85;0,04
1,85;0,04
1,85;0,04
1,86;0,04
1,86;0,04
1,86;0,04
1,87;0,04
1,87;0,04
1,87;0,04
1,88;0,04
1,88;0,04
1,88;0,04
1,89;0,04
1,89;0,04
1,89;0,04
1,89;0,04
1,90;0,04
1,90;0,04
1,90;0,04
1,91;0,04
1,91;0,04
1,91;0,04
1,92;0,04
1,92;0,04
1,92;0,04
1,93;0,04
1,93;0,04
1,93;0,04
1,94;0,04
1,94;0,04
1,94;0,04
1,95;0,04
1,95;0,04
1,95;0,04
1,96;0,04
1,96;0,04
1,96;0,04
1,97;0,04
1,97;0,04
1,97;0,04
1,97;0,04
1,98;0,04
1,98;0,04
1,98;0,04
1,99;0,04
1,99;0,04
1,99;0,04
2,00;0,04
2,00;0,04
2,00;0,04
2,01;0,04
2,01;0,04
2,01;0,04
2,02;0,04
2,02;0,04
2,02;0,04
2,03;0,04
2,03;0,04
2,03;0,04
2,04;0,04
2,04;0,04
2,04;0,04
2,05;0,04
2,05;0,04
2,05;0,04
2,05;0,04
2,06;0,04
2,06;0,04
2,06;0,04
2,07;0,04
2,07;0,04
2,07;0,04
2,08;0,04
2,08;0,04
2,08;0,04
2,09;0,04
2,09;0,04
2,09;0,04
2,10;0,04
2,10;0,04
2,10;0,04
2,11;0,04
2,11;0,04
2,11;0,04
2,12;0,04
2,12;0,04
2,12;0,04
2,13;0,04
2,13;0,05
2,13;0,04
2,13;0,04
2,14;0,04
2,14;0,02
2,14;0,01
2,15;0,00
2,15;-0,01
2,15;-0,02
2,16;-0,02
2,16;-0,03
2,16;-0,03
2,17;-0,04
2,17;-0,04
2,17;-0,04
2,18;-0,05
2,18;-0,05
2,18;-0,05
2,19;-0,05
2,19;-0,05
2,19;-0,05
2,20;-0,05
2,20;-0,05
2,20;-0,06
2,21;-0,05
2,21;-0,06
2,21;-0,05
2,21;-0,05
2,22;-0,06
2,22;-0,06
2,22;-0,06
2,23;-0,06
2,23;-0,05
2,23;-0,06
2,24;-0,06
2,24;-0,05
2,24;-0,06
2,25;-0,05
2,25;-0,06
2,25;-0,06
2,26;-0,05
2,26;-0,06
2,26;-0,05
2,27;-0,05
2,27;-0,06
2,27;-0,05
2,28;-0,06
2,28;-0,06
2,28;-0,05
2,29;-0,06
2,29;-0,06
2,29;-0,06
2,29;-0,06
2,30;-0,05
2,30;-0,06
2,30;-0,06
2,31;-0,06
2,31;-0,06
2,31;-0,06
2,32;-0,06
2,32;-0,06
2,32;-0,06
2,33;-0,06
2,33;-0,06
2,33;-0,06
2,34;-0,06
2,34;-0,06
2,34;-0,06
2,35;-0,06
2,35;-0,05
2,35;-0,06
2,36;-0,06
2,36;-0,06
2,36;-0,06
2,37;-0,06
2,37;-0,06
2,37;-0,06
2,37;-0,05
2,38;-0,06
2,38;-0,05
2,38;-0,06
2,39;-0,06
2,39;-0,06
2,39;-0,06
2,40;-0,06
2,40;-0,06
2,40;-0,06
2,41;-0,05
2,41;-0,06
2,41;-0,06
2,42;-0,06
2,42;-0,06
2,42;-0,05
2,43;-0,06
2,43;-0,06
2,43;-0,05
2,44;-0,06
2,44;-0,06
2,44;-0,05
2,45;-0,06
2,45;-0,05
2,45;-0,06
2,45;-0,06
2,46;-0,05
2,46;-0,06
2,46;-0,06
2,47;-0,05
2,47;-0,06
2,47;-0,06
2,48;-0,06
2,48;-0,06
2,48;-0,06
2,49;-0,06
2,49;-0,06
2,49;-0,06
2,50;-0,06
2,50;-0,06
2,50;-0,06
2,51;-0,06
2,51;-0,05
2,51;-0,06
2,52;-0,06
2,52;-0,05
2,52;-0,06
2,53;-0,06
2,53;-0,06
2,53;-0,06
2,53;-0,06
2,54;-0,06
2,54;-0,06
2,54;-0,05
2,55;-0,06
2,55;-0,06
2,55;-0,05
2,56;-0,06
2,56;-0,06
2,56;-0,06
2,57;-0,06
2,57;-0,06
2,57;-0,06
2,58;-0,05
2,58;-0,06
2,58;-0,06
2,59;-0,05
2,59;-0,06
2,59;-0,05
2,60;-0,06
2,60;-0,06
2,60;-0,05
2,61;-0,06
2,61;-0,05
2,61;-0,05
2,61;-0,06
2,62;-0,06
2,62;-0,06
2,62;-0,06
2,63;-0,06
2,63;-0,06
2,63;-0,06
2,64;-0,05
2,64;-0,06
2,64;-0,06
2,65;-0,06
2,65;-0,06
2,65;-0,05
2,66;-0,06
2,66;-0,06
2,66;-0,05
2,67;-0,06
2,67;-0,05
2,67;-0,06
2,68;-0,06
2,68;-0,06
2,68;-0,06
2,69;-0,06
2,69;-0,06
2,69;-0,06
2,69;-0,06
2,70;-0,06
2,70;-0,06
2,70;-0,05
2,71;-0,06
2,71;-0,05
2,71;-0,05
2,72;-0,06
2,72;-0,05
2,72;-0,06
2,73;-0,06
2,73;-0,05
2,73;-0,06
2,74;-0,06
2,74;-0,05
2,74;-0,06
2,75;-0,06
2,75;-0,06
2,75;-0,06
2,76;-0,05
2,76;-0,06
2,76;-0,05
2,77;-0,06
2,77;-0,06
2,77;-0,06
2,77;-0,06
2,78;-0,06
2,78;-0,05
2,78;-0,06
2,79;-0,05
2,79;-0,06
2,79;-0,06
2,80;-0,05
2,80;-0,06
2,80;-0,06
2,81;-0,05
2,81;-0,06
2,81;-0,06
2,82;-0,06
2,82;-0,06
2,82;-0,05
2,83;-0,06
2,83;-0,06
2,83;-0,06
2,84;-0,06
2,84;-0,06
2,84;-0,06
2,85;-0,06
2,85;-0,05
2,85;-0,06
2,85;-0,06
2,86;-0,06
2,86;-0,06
2,86;-0,06
2,87;-0,06
2,87;-0,06
2,87;-0,05
2,88;-0,06
2,88;-0,06
2,88;-0,05
2,89;-0,06
2,89;-0,05
2,89;-0,06
2,90;-0,06
2,90;-0,05
2,90;-0,06
2,91;-0,06
2,91;-0,05
2,91;-0,06
2,92;-0,05
2,92;-0,06
2,92;-0,06
2,93;-0,05
2,93;-0,06
2,93;-0,05
2,93;-0,06
2,94;-0,06
2,94;-0,05
2,94;-0,06
2,95;-0,06
2,95;-0,05
2,95;-0,06
2,96;-0,05
2,96;-0,05
2,96;-0,06
2,97;-0,05
2,97;-0,06
2,97;-0,06
2,98;-0,05
2,98;-0,06
2,98;-0,06
2,99;-0,06
2,99;-0,06
2,99;-0,05
3,00;-0,06
3,00;-0,05
3,00;-0,06
3,01;-0,06
3,01;-0,05
3,01;-0,06
3,01;-0,06
3,02;-0,05
3,02;-0,06
3,02;-0,06
3,03;-0,05
3,03;-0,06
3,03;-0,05
3,04;-0,06
3,04;-0,06
3,04;-0,05
3,05;-0,05
3,05;-0,06
3,05;-0,05
3,06;-0,06
3,06;-0,06
3,06;-0,06
3,07;-0,06
3,07;-0,05
3,07;-0,06
3,08;-0,06
3,08;-0,05
3,08;-0,06
3,09;-0,05
3,09;-0,06
3,09;-0,06
3,09;-0,05
3,10;-0,06
3,10;-0,06
3,10;-0,05
3,11;-0,06
3,11;-0,05
3,11;-0,06
3,12;-0,06
3,12;-0,05
3,12;-0,06
3,13;-0,05
3,13;-0,05
3,13;-0,06
3,14;-0,05
3,14;-0,06
3,14;-0,04
3,15;-0,02
3,15;-0,02
3,15;-0,01
3,16;0,00
3,16;0,01
3,16;0,02
3,17;0,02
3,17;0,03
3,17;0,03
3,17;0,03
3,18;0,03
3,18;0,03
3,18;0,04
3,19;0,04
3,19;0,03
3,19;0,04
3,20;0,04
3,20;0,04
3,20;0,04
3,21;0,04
3,21;0,04
3,21;0,04
3,22;0,04
3,22;0,04
3,22;0,04
3,23;0,04
3,23;0,04
3,23;0,04
3,24;0,04
3,24;0,04
3,24;0,04
3,25;0,04
3,25;0,04
3,25;0,04
3,25;0,04
3,26;0,04
3,26;0,04
3,26;0,04
3,27;0,04
3,27;0,04
3,27;0,04
3,28;0,04
3,28;0,05
3,28;0,04
3,29;0,04
3,29;0,04
3,29;0,04
3,30;0,04
3,30;0,04
3,30;0,04
3,31;0,04
3,31;0,04
3,31;0,04
3,32;0,04
3,32;0,04
3,32;0,04
3,33;0,04
3,33;0,04
3,33;0,04
3,33;0,04
3,34;0,04
3,34;0,04
3,34;0,03
3,35;0,04
3,35;0,04
3,35;0,04
3,36;0,04
3,36;0,04
3,36;0,04
3,37;0,04
3,37;0,04
3,37;0,04
3,38;0,04
3,38;0,04
3,38;0,05
3,39;0,04
3,39;0,04
3,39;0,04
3,40;0,04
3,40;0,04
3,40;0,04
3,41;0,04
3,41;0,04
3,41;0,04
3,41;0,04
3,42;0,04
3,42;0,04
3,42;0,04
3,43;0,04
3,43;0,04
3,43;0,05
3,44;0,04
3,44;0,04
3,44;0,04
3,45;0,04
3,45;0,04
3,45;0,04
3,46;0,04
3,46;0,04
3,46;0,04
3,47;0,04
3,47;0,04
3,47;0,04
3,48;0,04
3,48;0,04
3,48;0,04
3,49;0,04
3,49;0,04
3,49;0,04
3,49;0,04
3,50;0,04
3,50;0,04
3,50;0,04
3,51;0,04
3,51;0,04
3,51;0,04
3,52;0,04
3,52;0,04
3,52;0,04
3,53;0,04
3,53;0,04
3,53;0,04
3,54;0,04
3,54;0,04
3,54;0,04
3,55;0,04
3,55;0,04
3,55;0,04
3,56;0,04
3,56;0,04
3,56;0,04
3,57;0,04
3,57;0,04
3,57;0,04
3,57;0,04
3,58;0,04
3,58;0,04
3,58;0,04
3,59;0,04
3,59;0,04
3,59;0,04
3,60;0,04
3,60;0,04
3,60;0,04
3,61;0,04
3,61;0,04
3,61;0,04
3,62;0,04
3,62;0,05
3,62;0,04
3,63;0,04
3,63;0,04
3,63;0,04
3,64;0,04
3,64;0,04
3,64;0,04
3,65;0,04
3,65;0,04
3,65;0,04
3,65;0,04
3,66;0,04
3,66;0,04
3,66;0,04
3,67;0,04
3,67;0,04
3,67;0,04
3,68;0,04
3,68;0,04
3,68;0,04
3,69;0,04
3,69;0,04
3,69;0,04
3,70;0,04
3,70;0,04
3,70;0,04
3,71;0,04
3,71;0,04
3,71;0,04
3,72;0,04
3,72;0,04
3,72;0,04
3,73;0,04
3,73;0,04
3,73;0,04
3,73;0,04
3,74;0,05
3,74;0,04
3,74;0,04
3,75;0,04
3,75;0,04
3,75;0,04
3,76;0,04
3,76;0,04
3,76;0,04
3,77;0,04
3,77;0,04
3,77;0,04
3,78;0,04
3,78;0,04
3,78;0,04
3,79;0,04
3,79;0,04
3,79;0,04
3,80;0,04
3,80;0,04
3,80;0,04
3,81;0,04
3,81;0,04
3,81;0,04
3,81;0,04
3,82;0,04
3,82;0,04
3,82;0,04
3,83;0,04
3,83;0,04
3,83;0,04
3,84;0,04
3,84;0,04
3,84;0,04
3,85;0,05
3,85;0,04
3,85;0,04
3,86;0,04
3,86;0,04
3,86;0,04
3,87;0,04
3,87;0,04
3,87;0,04
