Excel/Técnica de Interrupción/Tiempos multiplexacipon int.CSV

Model,TBS2104;
Firmware Version,v1.26.0;
;
Point Format,Y;
Horizontal Units,S;
Horizontal Scale,0.0004;
Sample Interval,3.2e-06;
Filter Frequency,1e+08;
Record Length,2000;
Gating,0.0% to 100.0%;
Probe Attenuation,1;
Vertical Units,V;
Vertical Offset,0;
Vertical Scale,0.2;
Label,;
TIME,CH1;
-2,18;1,02
-2,18;1,03
-2,18;1,03
-2,17;1,04
-2,17;1,03
-2,17;1,03
-2,16;1,04
-2,16;1,02
-2,16;1,03
-2,15;1,03
-2,15;1,02
-2,15;1,02
-2,14;1,03
-2,14;1,03
-2,14;1,03
-2,13;1,03
-2,13;1,02
-2,13;1,02
-2,13;1,03
-2,12;1,03
-2,12;1,02
-2,12;1,03
-2,11;1,04
-2,11;1,03
-2,11;1,03
-2,10;1,02
-2,10;1,03
-2,10;1,03
-2,09;1,02
-2,09;1,03
-2,09;1,04
-2,08;1,03
-2,08;1,03
-2,08;1,02
-2,07;1,03
-2,07;1,03
-2,07;1,02
-2,06;1,03
-2,06;1,03
-2,06;1,03
-2,05;1,03
-2,05;1,02
-2,05;1,03
-2,05;1,03
-2,04;1,03
-2,04;1,03
-2,04;1,03
-2,03;1,03
-2,03;1,03
-2,03;1,03
-2,02;1,03
-2,02;1,03
-2,02;1,03
-2,01;0,29
-2,01;0,29
-2,01;0,29
-2,00;0,29
-2,00;0,28
-2,00;0,29
-1,99;0,28
-1,99;0,29
-1,99;0,29
-1,98;0,29
-1,98;0,29
-1,98;0,30
-1,97;0,28
-1,97;0,29
-1,97;0,29
-1,97;0,29
-1,96;0,30
-1,96;0,29
-1,96;0,28
-1,95;0,29
-1,95;0,29
-1,95;0,29
-1,94;0,29
-1,94;0,29
-1,94;0,29
-1,93;0,29
-1,93;0,29
-1,93;0,30
-1,92;0,28
-1,92;0,29
-1,92;0,29
-1,91;0,29
-1,91;0,29
-1,91;0,29
-1,90;0,29
-1,90;0,29
-1,90;0,29
-1,89;0,29
-1,89;0,28
-1,89;0,30
-1,89;0,29
-1,88;0,28
-1,88;0,29
-1,88;0,29
-1,87;0,29
-1,87;0,29
-1,87;0,29
-1,86;0,29
-1,86;0,30
-1,86;0,28
-1,85;0,29
-1,85;0,29
-1,85;0,29
-1,84;0,29
-1,84;0,28
-1,84;0,28
-1,83;0,29
-1,83;0,29
-1,83;0,29
-1,82;0,28
-1,82;0,29
-1,82;0,30
-1,81;0,29
-1,81;0,29
-1,81;0,29
-1,81;0,29
-1,80;0,29
-1,80;0,28
-1,80;0,29
-1,79;0,29
-1,79;0,29
-1,79;0,30
-1,78;0,28
-1,78;0,29
-1,78;0,29
-1,77;0,28
-1,77;0,28
-1,77;0,28
-1,76;0,28
-1,76;0,29
-1,76;0,29
-1,75;0,29
-1,75;0,30
-1,75;0,28
-1,74;0,29
-1,74;0,29
-1,74;0,28
-1,73;0,30
-1,73;0,28
-1,73;0,29
-1,73;0,29
-1,72;0,29
-1,72;0,29
-1,72;0,28
-1,71;0,28
-1,71;0,29
-1,71;0,28
-1,70;0,29
-1,70;0,30
-1,70;0,29
-1,69;0,29
-1,69;0,29
-1,69;0,28
-1,68;0,30
-1,68;0,28
-1,68;0,29
-1,67;0,29
-1,67;0,29
-1,67;0,30
-1,66;0,29
-1,66;0,29
-1,66;0,29
-1,65;0,28
-1,65;0,28
-1,65;0,29
-1,65;0,29
-1,64;0,29
-1,64;0,29
-1,64;0,29
-1,63;0,29
-1,63;0,29
-1,63;0,29
-1,62;0,29
-1,62;0,29
-1,62;0,29
-1,61;0,28
-1,61;0,29
-1,61;0,30
-1,60;0,28
-1,60;0,29
-1,60;0,29
-1,59;0,29
-1,59;0,29
-1,59;0,28
-1,58;0,29
-1,58;0,29
-1,58;0,28
-1,57;0,29
-1,57;0,28
-1,57;0,29
-1,57;0,29
-1,56;0,28
-1,56;0,29
-1,56;0,29
-1,55;0,29
-1,55;0,29
-1,55;0,28
-1,54;0,29
-1,54;0,29
-1,54;0,29
-1,53;0,29
-1,53;0,29
-1,53;0,29
-1,52;0,29
-1,52;0,29
-1,52;0,29
-1,51;0,29
-1,51;0,29
-1,51;0,29
-1,50;0,30
-1,50;0,28
-1,50;0,29
-1,49;0,29
-1,49;0,29
-1,49;0,29
-1,49;0,29
-1,48;0,29
-1,48;0,30
-1,48;0,29
-1,47;0,29
-1,47;0,28
-1,47;0,29
-1,46;0,29
-1,46;0,28
-1,46;0,29
-1,45;0,29
-1,45;0,29
-1,45;0,30
-1,44;0,29
-1,44;0,29
-1,44;0,29
-1,43;0,29
-1,43;0,29
-1,43;0,28
-1,42;0,29
-1,42;0,30
-1,42;0,29
-1,41;0,28
-1,41;0,30
-1,41;0,29
-1,41;0,29
-1,40;0,28
-1,40;0,29
-1,40;0,30
-1,39;0,29
-1,39;0,29
-1,39;0,29
-1,38;0,29
-1,38;0,29
-1,38;0,28
-1,37;0,29
-1,37;0,29
-1,37;0,28
-1,36;0,29
-1,36;0,28
-1,36;0,29
-1,35;0,29
-1,35;0,29
-1,35;0,29
-1,34;0,29
-1,34;0,28
-1,34;0,30
-1,33;0,29
-1,33;0,29
-1,33;0,29
-1,33;0,29
-1,32;0,29
-1,32;0,29
-1,32;0,29
-1,31;0,29
-1,31;0,29
-1,31;0,28
-1,30;0,30
-1,30;0,29
-1,30;0,29
-1,29;0,29
-1,29;0,29
-1,29;0,29
-1,28;0,28
-1,28;0,29
-1,28;0,29
-1,27;0,29
-1,27;0,30
-1,27;0,29
-1,26;0,29
-1,26;0,30
-1,26;0,28
-1,25;0,29
-1,25;0,29
-1,25;0,29
-1,25;0,29
-1,24;0,29
-1,24;0,28
-1,24;0,29
-1,23;0,29
-1,23;0,29
-1,23;0,28
-1,22;0,29
-1,22;0,29
-1,22;0,28
-1,21;0,29
-1,21;0,29
-1,21;0,28
-1,20;0,29
-1,20;0,28
-1,20;0,29
-1,19;0,29
-1,19;0,28
-1,19;0,29
-1,18;0,29
-1,18;0,29
-1,18;0,29
-1,17;0,28
-1,17;0,28
-1,17;0,29
-1,17;0,29
-1,16;0,29
-1,16;0,29
-1,16;0,29
-1,15;0,29
-1,15;0,28
-1,15;0,29
-1,14;0,29
-1,14;0,28
-1,14;0,28
-1,13;0,29
-1,13;0,28
-1,13;0,29
-1,12;0,28
-1,12;0,29
-1,12;0,29
-1,11;0,28
-1,11;0,29
-1,11;0,28
-1,10;0,28
-1,10;0,29
-1,10;0,28
-1,09;0,29
-1,09;0,29
-1,09;0,28
-1,09;0,29
-1,08;0,28
-1,08;0,29
-1,08;0,30
-1,07;0,28
-1,07;0,30
-1,07;0,29
-1,06;0,29
-1,06;0,29
-1,06;0,29
-1,05;0,29
-1,05;0,30
-1,05;0,28
-1,04;0,29
-1,04;0,29
-1,04;0,29
-1,03;0,29
-1,03;0,28
-1,03;0,29
-1,02;0,29
-1,02;0,28
-1,02;0,29
-1,01;0,29
-1,01;0,28
-1,01;0,28
-1,01;0,28
-1,00;0,29
-1,00;0,29
-1,00;0,29
-0,99;0,29
-0,99;0,29
-0,99;0,29
-0,98;0,29
-0,98;0,28
-0,98;0,29
-0,97;0,29
-0,97;0,29
-0,97;0,30
-0,96;0,29
-0,96;0,30
-0,96;0,29
-0,95;0,28
-0,95;0,29
-0,95;0,30
-0,94;0,29
-0,94;0,29
-0,94;0,29
-0,93;0,28
-0,93;0,30
-0,93;0,28
-0,92;0,29
-0,92;0,29
-0,92;0,29
-0,92;0,30
-0,91;0,29
-0,91;0,29
-0,91;0,29
-0,90;0,29
-0,90;0,29
-0,90;0,29
-0,89;0,29
-0,89;0,29
-0,89;0,28
-0,88;0,29
-0,88;0,29
-0,88;0,28
-0,87;0,29
-0,87;0,28
-0,87;0,29
-0,86;0,29
-0,86;0,28
-0,86;0,29
-0,85;0,29
-0,85;0,29
-0,85;0,29
-0,84;0,29
-0,84;0,28
-0,84;0,29
-0,84;0,29
-0,83;0,29
-0,83;0,29
-0,83;0,29
-0,82;0,29
-0,82;0,29
-0,82;0,29
-0,81;0,29
-0,81;0,28
-0,81;0,29
-0,80;0,29
-0,80;0,29
-0,80;0,29
-0,79;0,29
-0,79;0,29
-0,79;0,30
-0,78;0,29
-0,78;0,30
-0,78;0,28
-0,77;0,29
-0,77;0,30
-0,77;0,28
-0,76;0,29
-0,76;0,30
-0,76;0,29
-0,76;0,29
-0,75;0,28
-0,75;0,29
-0,75;0,30
-0,74;0,29
-0,74;0,29
-0,74;0,29
-0,73;0,29
-0,73;0,29
-0,73;0,29
-0,72;0,29
-0,72;0,29
-0,72;0,29
-0,71;0,29
-0,71;0,29
-0,71;0,29
-0,70;0,29
-0,70;0,28
-0,70;0,29
-0,69;0,29
-0,69;0,28
-0,69;0,29
-0,68;0,29
-0,68;0,28
-0,68;0,29
-0,68;0,29
-0,67;0,29
-0,67;0,29
-0,67;0,28
-0,66;0,29
-0,66;0,29
-0,66;0,29
-0,65;0,29
-0,65;0,29
-0,65;0,29
-0,64;0,29
-0,64;0,28
-0,64;0,29
-0,63;0,29
-0,63;0,28
-0,63;0,29
-0,62;0,29
-0,62;0,29
-0,62;0,29
-0,61;0,29
-0,61;0,29
-0,61;0,29
-0,60;0,29
-0,60;0,29
-0,60;0,29
-0,60;0,29
-0,59;0,29
-0,59;0,29
-0,59;0,30
-0,58;0,29
-0,58;0,29
-0,58;0,29
-0,57;0,29
-0,57;0,29
-0,57;0,29
-0,56;0,29
-0,56;0,29
-0,56;0,29
-0,55;0,28
-0,55;0,29
-0,55;0,29
-0,54;0,30
-0,54;0,28
-0,54;0,29
-0,53;0,30
-0,53;0,29
-0,53;0,29
-0,52;0,29
-0,52;0,29
-0,52;0,30
-0,52;0,28
-0,51;0,29
-0,51;0,30
-0,51;0,29
-0,50;0,29
-0,50;0,29
-0,50;0,29
-0,49;0,29
-0,49;0,28
-0,49;0,29
-0,48;0,29
-0,48;0,28
-0,48;0,29
-0,47;0,29
-0,47;0,29
-0,47;0,29
-0,46;0,29
-0,46;0,30
-0,46;0,28
-0,45;0,29
-0,45;0,29
-0,45;0,29
-0,44;0,29
-0,44;0,29
-0,44;0,29
-0,44;0,29
-0,43;0,28
-0,43;0,29
-0,43;0,29
-0,42;0,29
-0,42;0,29
-0,42;0,29
-0,41;0,29
-0,41;0,29
-0,41;0,29
-0,40;0,29
-0,40;0,29
-0,40;0,28
-0,39;0,29
-0,39;0,29
-0,39;0,28
-0,38;0,29
-0,38;0,29
-0,38;0,29
-0,37;0,29
-0,37;0,29
-0,37;0,29
-0,36;0,29
-0,36;0,29
-0,36;0,29
-0,36;0,29
-0,35;0,29
-0,35;0,29
-0,35;0,29
-0,34;0,29
-0,34;0,29
-0,34;0,29
-0,33;0,29
-0,33;0,28
-0,33;0,29
-0,32;0,29
-0,32;0,28
-0,32;0,29
-0,31;0,28
-0,31;0,29
-0,31;0,30
-0,30;0,28
-0,30;0,28
-0,30;0,29
-0,29;0,29
-0,29;0,29
-0,29;0,29
-0,28;0,29
-0,28;0,29
-0,28;0,29
-0,28;0,29
-0,27;0,29
-0,27;0,29
-0,27;0,29
-0,26;0,29
-0,26;0,29
-0,26;0,29
-0,25;0,29
-0,25;0,29
-0,25;0,29
-0,24;0,29
-0,24;0,30
-0,24;0,28
-0,23;0,29
-0,23;0,29
-0,23;0,29
-0,22;0,29
-0,22;0,29
-0,22;0,29
-0,21;0,30
-0,21;0,29
-0,21;0,30
-0,20;0,30
-0,20;0,29
-0,20;0,29
-0,20;0,29
-0,19;0,29
-0,19;0,29
-0,19;0,29
-0,18;0,29
-0,18;0,29
-0,18;0,28
-0,17;0,29
-0,17;0,28
-0,17;0,29
-0,16;0,29
-0,16;0,28
-0,16;0,29
-0,15;0,29
-0,15;0,29
-0,15;0,30
-0,14;0,28
-0,14;0,29
-0,14;0,29
-0,13;0,29
-0,13;0,29
-0,13;0,29
-0,12;0,29
-0,12;0,29
-0,12;0,29
-0,12;0,29
-0,11;0,29
-0,11;0,29
-0,11;0,29
-0,10;0,29
-0,10;0,29
-0,10;0,30
-0,09;0,29
-0,09;0,29
-0,09;0,29
-0,08;0,28
-0,08;0,29
-0,08;0,29
-0,07;0,29
-0,07;0,29
-0,07;0,29
-0,06;0,30
-0,06;0,28
-0,06;0,29
-0,05;0,29
-0,05;0,29
-0,05;0,29
-0,04;0,28
-0,04;0,29
-0,04;0,29
-0,04;0,29
-0,03;0,29
-0,03;0,30
-0,03;0,29
-0,02;0,29
-0,02;0,29
-0,02;0,28
-0,01;0,30
-0,01;0,29
-0,01;1,03
0,00;1,04
0,00;1,03
0,00;1,03
0,01;1,04
0,01;1,03
0,01;1,03
0,02;1,03
0,02;1,03
0,02;1,04
0,03;1,03
0,03;1,03
0,03;1,03
0,04;1,03
0,04;1,04
0,04;1,03
0,04;1,03
0,05;1,04
0,05;1,02
0,05;1,03
0,06;1,03
0,06;1,03
0,06;1,04
0,07;1,02
0,07;1,03
0,07;1,03
0,08;1,03
0,08;1,03
0,08;1,03
0,09;1,02
0,09;1,03
0,09;1,02
0,10;1,04
0,10;1,04
0,10;1,03
0,11;1,04
0,11;1,03
0,11;1,03
0,12;1,03
0,12;1,02
0,12;1,03
0,12;1,03
0,13;1,03
0,13;1,03
0,13;1,03
0,14;1,03
0,14;1,03
0,14;1,03
0,15;1,03
0,15;1,03
0,15;1,03
0,16;1,03
0,16;1,02
0,16;1,03
0,17;1,03
0,17;1,02
0,17;1,03
0,18;1,04
0,18;1,02
0,18;1,04
0,19;1,02
0,19;1,04
0,19;1,03
0,20;1,03
0,20;1,03
0,20;1,03
0,20;1,03
0,21;1,04
0,21;1,03
0,21;1,03
0,22;1,03
0,22;1,03
0,22;1,03
0,23;1,02
0,23;1,03
0,23;1,03
0,24;1,03
0,24;1,03
0,24;1,04
0,25;1,03
0,25;1,03
0,25;1,03
0,26;1,03
0,26;1,03
0,26;1,03
0,27;1,02
0,27;1,04
0,27;1,03
0,28;1,03
0,28;1,02
0,28;1,04
0,28;1,03
0,29;1,03
0,29;1,03
0,29;1,03
0,30;1,03
0,30;1,04
0,30;1,02
0,31;1,04
0,31;1,04
0,31;1,02
0,32;1,04
0,32;1,03
0,32;1,03
0,33;1,02
0,33;1,02
0,33;1,03
0,34;1,03
0,34;1,04
0,34;1,04
0,35;1,02
0,35;1,03
0,35;1,03
0,36;1,03
0,36;1,03
0,36;1,03
0,36;1,03
0,37;1,03
0,37;1,02
0,37;1,03
0,38;1,03
0,38;1,02
0,38;1,03
0,39;1,03
0,39;1,03
0,39;1,03
0,40;1,03
0,40;1,03
0,40;1,03
0,41;1,03
0,41;1,04
0,41;1,03
0,42;1,03
0,42;1,03
0,42;1,03
0,43;1,03
0,43;1,02
0,43;1,03
0,44;1,04
0,44;1,03
0,44;1,03
0,44;1,04
0,45;1,03
0,45;1,03
0,45;1,03
0,46;1,03
0,46;1,03
0,46;1,03
0,47;1,03
0,47;1,03
0,47;1,03
0,48;1,04
0,48;1,03
0,48;1,03
0,49;1,04
0,49;1,03
0,49;1,03
0,50;1,04
0,50;1,03
0,50;1,04
0,51;1,03
0,51;1,03
0,51;1,03
0,52;1,02
0,52;1,03
0,52;1,03
0,52;1,02
0,53;1,03
0,53;1,03
0,53;1,03
0,54;1,04
0,54;1,02
0,54;1,03
0,55;1,04
0,55;1,03
0,55;1,03
0,56;1,03
0,56;1,03
0,56;1,03
0,57;1,03
0,57;1,04
0,57;1,02
0,58;1,03
0,58;1,03
0,58;1,03
0,59;1,03
0,59;1,04
0,59;1,03
0,60;1,04
0,60;1,02
0,60;1,03
0,60;1,03
0,61;1,03
0,61;1,03
0,61;1,03
0,62;1,03
0,62;1,03
0,62;1,03
0,63;1,03
0,63;1,04
0,63;1,02
0,64;1,03
0,64;1,04
0,64;1,03
0,65;1,03
0,65;1,02
0,65;1,03
0,66;1,03
0,66;1,03
0,66;1,03
0,67;1,03
0,67;1,04
0,67;1,03
0,68;1,03
0,68;1,03
0,68;1,04
0,68;1,03
0,69;1,04
0,69;1,02
0,69;1,03
0,70;1,04
0,70;1,02
0,70;1,03
0,71;1,04
0,71;1,03
0,71;1,03
0,72;1,03
0,72;1,03
0,72;1,03
0,73;1,03
0,73;1,03
0,73;1,03
0,74;1,03
0,74;1,04
0,74;1,03
0,75;1,03
0,75;1,03
0,75;1,03
0,76;1,04
0,76;1,03
0,76;1,03
0,76;1,03
0,77;1,03
0,77;1,03
0,77;1,03
0,78;1,02
0,78;1,04
0,78;1,03
0,79;1,03
0,79;1,04
0,79;1,02
0,80;1,03
0,80;1,03
0,80;1,02
0,81;1,03
0,81;1,03
0,81;1,03
0,82;1,03
0,82;1,03
0,82;1,03
0,83;1,03
0,83;1,03
0,83;1,03
0,84;1,03
0,84;1,03
0,84;1,03
0,84;1,03
0,85;1,03
0,85;1,03
0,85;1,02
0,86;1,03
0,86;1,03
0,86;1,03
0,87;1,03
0,87;1,03
0,87;1,03
0,88;1,03
0,88;1,03
0,88;1,04
0,89;1,03
0,89;1,03
0,89;1,03
0,90;1,02
0,90;1,03
0,90;1,02
0,91;1,04
0,91;1,04
0,91;1,03
0,92;1,03
0,92;1,03
0,92;1,03
0,92;1,04
0,93;1,03
0,93;1,03
0,93;1,04
0,94;1,02
0,94;1,04
0,94;1,02
0,95;1,03
0,95;1,03
0,95;1,03
0,96;1,03
0,96;1,04
0,96;1,03
0,97;1,03
0,97;1,02
0,97;1,02
0,98;1,04
0,98;1,02
0,98;1,03
0,99;1,04
0,99;1,02
0,99;0,29
1,00;0,29
1,00;0,30
1,00;0,29
1,01;0,29
1,01;0,29
1,01;0,29
1,01;0,29
1,02;0,29
1,02;0,29
1,02;0,29
1,03;0,29
1,03;0,28
1,03;0,29
1,04;0,29
1,04;0,29
1,04;0,30
1,05;0,29
1,05;0,29
1,05;0,29
1,06;0,28
1,06;0,29
1,06;0,29
1,07;0,29
1,07;0,29
1,07;0,29
1,08;0,29
1,08;0,28
1,08;0,28
1,09;0,30
1,09;0,28
1,09;0,29
1,09;0,29
1,10;0,29
1,10;0,30
1,10;0,29
1,11;0,28
1,11;0,29
1,11;0,29
1,12;0,29
1,12;0,30
1,12;0,29
1,13;0,29
1,13;0,28
1,13;0,29
1,14;0,29
1,14;0,29
1,14;0,30
1,15;0,29
1,15;0,29
1,15;0,29
1,16;0,28
1,16;0,29
1,16;0,30
1,17;0,28
1,17;0,29
1,17;0,29
1,17;0,28
1,18;0,29
1,18;0,29
1,18;0,29
1,19;0,30
1,19;0,29
1,19;0,30
1,20;0,29
1,20;0,29
1,20;0,30
1,21;0,29
1,21;0,29
1,21;0,30
1,22;0,29
1,22;0,29
1,22;0,28
1,23;0,29
1,23;0,30
1,23;0,28
1,24;0,29
1,24;0,29
1,24;0,29
1,25;0,29
1,25;0,29
1,25;0,29
1,25;0,29
1,26;0,28
1,26;0,30
1,26;0,29
1,27;0,29
1,27;0,29
1,27;0,28
1,28;0,29
1,28;0,29
1,28;0,29
1,29;0,29
1,29;0,29
1,29;0,29
1,30;0,30
1,30;0,29
1,30;0,28
1,31;0,29
1,31;0,29
1,31;0,29
1,32;0,29
1,32;0,29
1,32;0,30
1,33;0,29
1,33;0,29
1,33;0,30
1,33;0,28
1,34;0,29
1,34;0,29
1,34;0,29
1,35;0,29
1,35;0,28
1,35;0,29
1,36;0,29
1,36;0,29
1,36;0,29
1,37;0,29
1,37;0,29
1,37;0,29
1,38;0,28
1,38;0,29
1,38;0,29
1,39;0,29
1,39;0,29
1,39;0,28
1,40;0,29
1,40;0,29
1,40;0,29
1,41;0,29
1,41;0,29
1,41;0,29
1,41;0,30
1,42;0,28
1,42;0,29
1,42;0,29
1,43;0,29
1,43;0,29
1,43;0,29
1,44;0,29
1,44;0,29
1,44;0,29
1,45;0,29
1,45;0,29
1,45;0,29
1,46;0,29
1,46;0,29
1,46;0,29
1,47;0,29
1,47;0,29
1,47;0,29
1,48;0,28
1,48;0,29
1,48;0,29
1,49;0,28
1,49;0,30
1,49;0,29
1,49;0,29
1,50;0,29
1,50;0,29
1,50;0,30
1,51;0,30
1,51;0,28
1,51;0,30
1,52;0,30
1,52;0,29
1,52;0,29
1,53;0,29
1,53;0,29
1,53;0,29
1,54;0,29
1,54;0,29
1,54;0,29
1,55;0,29
1,55;0,29
1,55;0,29
1,56;0,29
1,56;0,29
1,56;0,29
1,57;0,29
1,57;0,29
1,57;0,29
1,57;0,29
1,58;0,29
1,58;0,29
1,58;0,29
1,59;0,30
1,59;0,29
1,59;0,29
1,60;0,29
1,60;0,29
1,60;0,28
1,61;0,29
1,61;0,28
1,61;0,28
1,62;0,30
1,62;0,29
1,62;0,29
1,63;0,30
1,63;0,29
1,63;0,30
1,64;0,29
1,64;0,29
1,64;0,29
1,65;0,29
1,65;0,29
1,65;0,29
1,65;0,28
1,66;0,29
1,66;0,29
1,66;0,29
1,67;0,29
1,67;0,29
1,67;0,29
1,68;0,29
1,68;0,28
1,68;0,29
1,69;0,29
1,69;0,28
1,69;0,29
1,70;0,28
1,70;0,29
1,70;0,29
1,71;0,29
1,71;0,29
1,71;0,29
1,72;0,28
1,72;0,29
1,72;0,29
1,73;0,29
1,73;0,29
1,73;0,29
1,73;0,29
1,74;0,29
1,74;0,29
1,74;0,29
1,75;0,29
1,75;0,30
1,75;0,28
1,76;0,29
1,76;0,29
1,76;0,29
1,77;0,29
1,77;0,29
1,77;0,29
1,78;0,30
1,78;0,29
1,78;0,29
1,79;0,30
1,79;0,29
1,79;0,29
1,80;0,29
1,80;0,29
1,80;0,30
1,81;0,29
1,81;0,30
1,81;0,29
1,81;0,29
1,82;0,29
1,82;0,29
1,82;0,29
1,83;0,30
1,83;0,28
1,83;0,29
1,84;0,29
1,84;0,29
1,84;0,28
1,85;0,29
1,85;0,28
1,85;0,29
1,86;0,29
1,86;0,29
1,86;0,29
1,87;0,29
1,87;0,29
1,87;0,29
1,88;0,29
1,88;0,29
1,88;0,29
1,89;0,29
1,89;0,29
1,89;0,29
1,89;0,29
1,90;0,28
1,90;0,29
1,90;0,29
1,91;0,28
1,91;0,29
1,91;0,29
1,92;0,29
1,92;0,29
1,92;0,29
1,93;0,29
1,93;0,29
1,93;0,29
1,94;0,29
1,94;0,29
1,94;0,29
1,95;0,29
1,95;0,29
1,95;0,28
1,96;0,29
1,96;0,29
1,96;0,29
1,97;0,29
1,97;0,29
1,97;0,30
1,97;0,28
1,98;0,29
1,98;0,29
1,98;0,29
1,99;0,30
1,99;0,29
1,99;0,29
2,00;0,29
2,00;0,29
2,00;0,30
2,01;0,29
2,01;0,29
2,01;0,29
2,02;0,29
2,02;0,29
2,02;0,29
2,03;0,29
2,03;0,29
2,03;0,28
2,04;0,28
2,04;0,30
2,04;0,28
2,05;0,29
2,05;0,29
2,05;0,29
2,05;0,29
2,06;0,29
2,06;0,29
2,06;0,29
2,07;0,28
2,07;0,28
2,07;0,29
2,08;0,29
2,08;0,29
2,08;0,28
2,09;0,29
2,09;0,30
2,09;0,28
2,10;0,29
2,10;0,29
2,10;0,29
2,11;0,29
2,11;0,28
2,11;0,29
2,12;0,29
2,12;0,28
2,12;0,30
2,13;0,28
2,13;0,29
2,13;0,29
2,13;0,28
2,14;0,29
2,14;0,30
2,14;0,29
2,15;0,30
2,15;0,29
2,15;0,28
2,16;0,30
2,16;0,29
2,16;0,29
2,17;0,29
2,17;0,28
2,17;0,30
2,18;0,29
2,18;0,29
2,18;0,29
2,19;0,28
2,19;0,29
2,19;0,29
2,20;0,29
2,20;0,29
2,20;0,29
2,21;0,29
2,21;0,29
2,21;0,29
2,21;0,29
2,22;0,29
2,22;0,29
2,22;0,30
2,23;0,29
2,23;0,29
2,23;0,30
2,24;0,29
2,24;0,29
2,24;0,29
2,25;0,28
2,25;0,29
2,25;0,28
2,26;0,29
2,26;0,28
2,26;0,29
2,27;0,29
2,27;0,29
2,27;0,29
2,28;0,29
2,28;0,29
2,28;0,29
2,29;0,29
2,29;0,29
2,29;0,29
2,29;0,28
2,30;0,29
2,30;0,29
2,30;0,29
2,31;0,29
2,31;0,29
2,31;0,29
2,32;0,30
2,32;0,28
2,32;0,29
2,33;0,29
2,33;0,28
2,33;0,29
2,34;0,29
2,34;0,29
2,34;0,29
2,35;0,28
2,35;0,29
2,35;0,30
2,36;0,28
2,36;0,29
2,36;0,29
2,37;0,29
2,37;0,29
2,37;0,29
2,37;0,29
2,38;0,29
2,38;0,28
2,38;0,29
2,39;0,29
2,39;0,29
2,39;0,29
2,40;0,29
2,40;0,29
2,40;0,29
2,41;0,29
2,41;0,29
2,41;0,29
2,42;0,29
2,42;0,29
2,42;0,29
2,43;0,29
2,43;0,29
2,43;0,29
2,44;0,30
2,44;0,29
2,44;0,29
2,45;0,28
2,45;0,29
2,45;0,30
2,45;0,29
2,46;0,29
2,46;0,29
2,46;0,29
2,47;0,29
2,47;0,28
2,47;0,28
2,48;0,29
2,48;0,28
2,48;0,30
2,49;0,28
2,49;0,28
2,49;0,29
2,50;0,29
2,50;0,29
2,50;0,29
2,51;0,29
2,51;0,29
2,51;0,29
2,52;0,28
2,52;0,29
2,52;0,29
2,53;0,29
2,53;0,30
2,53;0,29
2,53;0,29
2,54;0,29
2,54;0,29
2,54;0,29
2,55;0,29
2,55;0,29
2,55;0,29
2,56;0,28
2,56;0,29
2,56;0,29
2,57;0,29
2,57;0,29
2,57;0,28
2,58;0,29
2,58;0,29
2,58;0,29
2,59;0,29
2,59;0,29
2,59;0,28
2,60;0,29
2,60;0,29
2,60;0,29
2,61;0,29
2,61;0,29
2,61;0,29
2,61;0,29
2,62;0,29
2,62;0,29
2,62;0,29
2,63;0,29
2,63;0,28
2,63;0,29
2,64;0,29
2,64;0,29
2,64;0,28
2,65;0,29
2,65;0,28
2,65;0,29
2,66;0,29
2,66;0,28
2,66;0,30
2,67;0,29
2,67;0,29
2,67;0,29
2,68;0,28
2,68;0,29
2,68;0,28
2,69;0,29
2,69;0,29
2,69;0,29
2,69;0,29
2,70;0,29
2,70;0,28
2,70;0,29
2,71;0,28
2,71;0,29
2,71;0,30
2,72;0,29
2,72;0,29
2,72;0,29
2,73;0,28
2,73;0,30
2,73;0,29
2,74;0,29
2,74;0,30
2,74;0,29
2,75;0,29
2,75;0,28
2,75;0,29
2,76;0,29
2,76;0,28
2,76;0,30
2,77;0,29
2,77;0,28
2,77;0,29
2,77;0,29
2,78;0,28
2,78;0,29
2,78;0,29
2,79;0,29
2,79;0,29
2,79;0,28
2,80;0,29
2,80;0,29
2,80;0,29
2,81;0,29
2,81;0,28
2,81;0,29
2,82;0,30
2,82;0,29
2,82;0,29
2,83;0,29
2,83;0,29
2,83;0,30
2,84;0,29
2,84;0,29
2,84;0,29
2,85;0,29
2,85;0,29
2,85;0,28
2,85;0,29
2,86;0,29
2,86;0,28
2,86;0,29
2,87;0,29
2,87;0,29
2,87;0,29
2,88;0,28
2,88;0,29
2,88;0,29
2,89;0,29
2,89;0,30
2,89;0,29
2,90;0,29
2,90;0,29
2,90;0,29
2,91;0,29
2,91;0,30
2,91;0,29
2,92;0,30
2,92;0,29
2,92;0,29
2,93;0,30
2,93;0,29
2,93;0,29
2,93;0,29
2,94;0,29
2,94;0,29
2,94;0,28
2,95;0,28
2,95;0,29
2,95;0,28
2,96;0,29
2,96;0,29
2,96;0,29
2,97;0,29
2,97;0,28
2,97;0,28
2,98;0,29
2,98;0,29
2,98;0,29
2,99;0,28
2,99;0,29
2,99;0,29
3,00;1,03
3,00;1,03
3,00;1,03
3,01;1,03
3,01;1,03
3,01;1,03
3,01;1,03
3,02;1,03
3,02;1,03
3,02;1,03
3,03;1,03
3,03;1,03
3,03;1,03
3,04;1,04
3,04;1,03
3,04;1,03
3,05;1,03
3,05;1,03
3,05;1,03
3,06;1,03
3,06;1,03
3,06;1,03
3,07;1,03
3,07;1,03
3,07;1,02
3,08;1,04
3,08;1,03
3,08;1,03
3,09;1,03
3,09;1,03
3,09;1,03
3,09;1,03
3,10;1,02
3,10;1,03
3,10;1,03
3,11;1,03
3,11;1,03
3,11;1,02
3,12;1,04
3,12;1,03
3,12;1,03
3,13;1,04
3,13;1,03
3,13;1,03
3,14;1,04
3,14;1,03
3,14;1,03
3,15;1,04
3,15;1,03
3,15;1,04
3,16;1,03
3,16;1,03
3,16;1,03
3,17;1,02
3,17;1,03
3,17;1,04
3,17;1,03
3,18;1,03
3,18;1,03
3,18;1,03
3,19;1,04
3,19;1,02
3,19;1,04
3,20;1,03
3,20;1,03
3,20;1,03
3,21;1,03
3,21;1,03
3,21;1,04
3,22;1,03
3,22;1,03
3,22;1,03
3,23;1,03
3,23;1,03
3,23;1,03
3,24;1,03
3,24;1,04
3,24;1,03
3,25;1,03
3,25;1,03
3,25;1,03
3,25;1,04
3,26;1,02
3,26;1,03
3,26;1,04
3,27;1,03
3,27;1,03
3,27;1,03
3,28;1,03
3,28;1,03
3,28;1,02
3,29;1,04
3,29;1,04
3,29;1,03
3,30;1,04
3,30;1,03
3,30;1,02
3,31;1,03
3,31;1,02
3,31;1,03
3,32;1,03
3,32;1,03
3,32;1,03
3,33;1,02
3,33;1,03
3,33;1,03
3,33;1,03
3,34;1,04
3,34;1,03
3,34;1,03
3,35;1,03
3,35;1,03
3,35;1,03
3,36;1,04
3,36;1,02
3,36;1,03
3,37;1,03
3,37;1,03
3,37;1,03
3,38;1,03
3,38;1,03
3,38;1,03
3,39;1,03
3,39;1,03
3,39;1,03
3,40;1,03
3,40;1,03
3,40;1,03
3,41;1,04
3,41;1,03
3,41;1,03
3,41;1,04
3,42;1,03
3,42;1,03
3,42;1,03
3,43;1,03
3,43;1,03
3,43;1,03
3,44;1,03
3,44;1,04
3,44;1,02
3,45;1,03
3,45;1,03
3,45;1,02
3,46;1,03
3,46;1,02
3,46;1,04
3,47;1,03
3,47;1,03
3,47;1,03
3,48;1,03
3,48;1,03
3,48;1,03
3,49;1,02
3,49;1,03
3,49;1,03
3,49;1,03
3,50;1,03
3,50;1,03
3,50;1,02
3,51;1,03
3,51;1,03
3,51;1,03
3,52;1,03
3,52;1,03
3,52;1,03
3,53;1,03
3,53;1,02
3,53;1,03
3,54;1,03
3,54;1,03
3,54;1,03
3,55;1,03
3,55;1,03
3,55;1,03
3,56;1,03
3,56;1,03
3,56;1,02
3,57;1,03
3,57;1,03
3,57;1,02
3,57;1,03
3,58;1,02
3,58;1,02
3,58;1,03
3,59;1,02
3,59;1,03
3,59;1,03
3,60;1,03
3,60;1,02
3,60;1,02
3,61;1,03
3,61;1,03
3,61;1,03
3,62;1,03
3,62;1,03
3,62;1,03
3,63;1,03
3,63;1,02
3,63;1,03
3,64;1,04
3,64;1,03
3,64;1,04
3,65;1,02
3,65;1,03
3,65;1,03
3,65;1,02
3,66;1,03
3,66;1,03
3,66;1,03
3,67;1,03
3,67;1,02
3,67;1,03
3,68;1,03
3,68;1,02
3,68;1,03
3,69;1,03
3,69;1,03
3,69;1,03
3,70;1,03
3,70;1,03
3,70;1,04
3,71;1,03
3,71;1,03
3,71;1,03
3,72;1,02
3,72;1,03
3,72;1,03
3,73;1,03
3,73;1,03
3,73;1,02
3,73;1,02
3,74;1,03
3,74;1,04
3,74;1,03
3,75;1,02
3,75;1,04
3,75;1,03
3,76;1,03
3,76;1,04
3,76;1,03
3,77;1,03
3,77;1,04
3,77;1,02
3,78;1,03
3,78;1,03
3,78;1,02
3,79;1,03
3,79;1,03
3,79;1,03
3,80;1,03
3,80;1,03
3,80;1,03
3,81;1,03
3,81;1,03
3,81;1,03
3,81;1,02
3,82;1,04
3,82;1,04
3,82;1,02
3,83;1,03
3,83;1,03
3,83;1,03
3,84;1,04
3,84;1,03
3,84;1,03
3,85;1,03
3,85;1,03
3,85;1,03
3,86;1,02
3,86;1,03
3,86;1,04
3,87;1,02
3,87;1,03
3,87;1,03
3,88;1,03
3,88;1,03
3,88;1,02
3,89;1,03
3,89;1,03
3,89;1,03
3,89;1,03
3,90;1,03
3,90;1,03
